<?xml version="1.0" standalone="no"?> <!DOCTYPE svg PUBLIC "-//W3C//DTD SVG 1.0//EN" "http://www.w3.org/TR/2001/REC-SVG-20010904/DTD/svg10.dtd" > 
<svg xmlns="http://www.w3.org/2000/svg" width="100%" height="100%">
<metadata version="1.0"><uniqueid id="com.myfonts.rene-bieder.campton.semi-bold.wfkit2.guhU"/><vendor name="MyFonts" url="http://www.myfonts.com/"/><credits><credit name="Rene Bieder" url="http://www.myfonts.com/person/bieder/rene/"/></credits><description><text lang="en">This is a Webfont from MyFonts. Full information about this font:
http://www.myfonts.com/fonts/rene-bieder/campton/
</text></description><license url="http://www.myfonts.com/viewlicense?lid=1630"/><copyright><text lang="en">Copyright © 2014 by René Bieder. All rights reserved.</text></copyright></metadata>
<defs >
<font id="wf" horiz-adv-x="602" ><font-face
    font-family="campton-500"
    units-per-em="1000"
    panose-1="0 0 7 0 0 0 0 0 0 0"
    ascent="765"
    descent="-235"
    alphabetic="0" />
<missing-glyph horiz-adv-x="870" d="M770 680V0H100V680H770ZM700 610H219L700 129V610ZM170 70H647L170 547V70Z" />
<glyph unicode=" " glyph-name="space" horiz-adv-x="259" />
<glyph unicode="!" glyph-name="exclam" horiz-adv-x="287" d="M204 219H82L70 680H216L204 219ZM143 -10Q110 -10 86 13T62 69T86 124T143 147Q177 147 201 125T225 69T201 13T143 -10Z" />
<glyph unicode="&quot;" glyph-name="quotedbl" horiz-adv-x="343" d="M150 680V397H34V680H150ZM309 680V397H193V680H309Z" />
<glyph unicode="#" glyph-name="numbersign" horiz-adv-x="776" d="M581 282H692V159H543L493 0H352L402 159H264L214 0H73L123 159H29V282H161L192 380H84V503H230L286 681H427L371 503H509L565 681H706L650 503H747V380H612L581 282ZM333 380L302 282H440L471 380H333Z" />
<glyph unicode="$" glyph-name="dollar" horiz-adv-x="672" d="M324 411L408 394Q511 373 563 329T615 202Q615 118 560 62T407 -10V-115H286V-10Q184 5 120 66T47 225H191Q199 173 242 143T353 112Q406 112 435 131T465 186Q465 241 380 256L269 278Q169 298
122 347T75 477Q75 564 132 622T286 692V799H407V689Q491 674 550 622T618 472H475Q460 574 345 574Q291 574 259 552T227 490Q227 457 251 439T324 411Z" />
<glyph unicode="%" glyph-name="percent" horiz-adv-x="1087" d="M276 695Q362 695 419 641T477 499Q477 411 420 356T276 301Q189 301 132 356T75 499Q75 586 132 640T276 695ZM353 0H258L720 680H816L353 0ZM234 397T276 397T346 425T375 499Q375 543 346 571T276
599Q234 599 205 571T176 499Q176 454 205 426ZM811 379Q898 379 955 325T1012 183Q1012 95 955 40T811 -15Q725 -15 668 40T611 183Q611 270 668 324T811 379ZM769 81T811 81T882 109T911 183Q911 227 882 255T811 283Q770 283 741 255T712 183Q712 138 740 110Z"
/>
<glyph unicode="&amp;" glyph-name="ampersand" horiz-adv-x="725" d="M531 0L479 49Q395 -15 284 -15Q169 -15 99 44T28 199Q28 318 143 379Q99 439 99 499Q99 584 161 639T319 695Q412 695 469 639T536 490H399Q395 529 374 551T319 573Q287 573 265 552T243
497Q243 463 267 432T364 333L474 228L555 358H699L572 154L564 142L712 0H531ZM234 106T285 106T387 136L253 263L224 291Q162 257 162 201Q162 162 198 134Z" />
<glyph unicode="&apos;" glyph-name="quotesingle" horiz-adv-x="184" d="M150 680V397H34V680H150Z" />
<glyph unicode="(" glyph-name="parenleft" horiz-adv-x="374" d="M263 738L354 646Q272 560 233 482T194 298Q194 194 233 116T354 -49L263 -140Q51 46 51 298Q51 552 263 738Z" />
<glyph unicode=")" glyph-name="parenright" horiz-adv-x="373" d="M20 646L112 738Q323 551 323 298Q323 47 112 -140L20 -49Q102 38 141 116T180 298Q180 404 141 482T20 646Z" />
<glyph unicode="*" glyph-name="asterisk" horiz-adv-x="410" d="M371 467L334 402L244 456V360H166V456L76 402L38 467L132 524L38 581L76 648L166 592V688H244V592L334 648L371 581L278 524L371 467Z" />
<glyph unicode="+" glyph-name="plus" horiz-adv-x="679" d="M403 270V101H276V270H99V393H276V562H403V393H580V270H403Z" />
<glyph unicode="," glyph-name="comma" horiz-adv-x="222" d="M29 -109L78 -5Q30 16 30 61Q30 94 53 116T111 139Q146 139 169 117T193 61Q193 34 166 -13L110 -109H29Z" />
<glyph unicode="-" glyph-name="hyphen" horiz-adv-x="550" d="M451 191V328H99V191H451Z" />
<glyph unicode="." glyph-name="period" horiz-adv-x="223" d="M111 -19Q77 -19 53 4T29 61Q29 94 53 117T111 140Q146 140 170 118T194 61T170 4T111 -19Z" />
<glyph unicode="/" glyph-name="slash" horiz-adv-x="412" d="M175 -160H42L292 730H425L175 -160Z" />
<glyph unicode="0" glyph-name="zero" horiz-adv-x="719" d="M217 695T360 695T585 596T668 340T586 84T360 -15T134 84T51 340T134 596ZM360 114Q440 114 482 177T525 340T483 502T360 566Q279 566 237 503T194 340T236 178T360 114Z" />
<glyph unicode="1" glyph-name="one" horiz-adv-x="522" d="M517 118V0H39V118H212V527L47 478V601L271 680H354V118H517Z" />
<glyph unicode="2" glyph-name="two" horiz-adv-x="564" d="M516 118V0H51V73L266 329Q274 339 290 358T312 385T329 407T345 430T356 449T364 470T366 490Q366 523 344 547T275 572Q231 572 205 546T174 471H33Q35 572 102 633T281 695Q391 695 450 636T509 489Q509
441 482 396T385 270L256 118H516Z" />
<glyph unicode="3" glyph-name="three" horiz-adv-x="565" d="M438 343Q531 296 531 193Q531 103 464 44T290 -15Q178 -15 115 39T38 190H177Q188 148 213 127T290 106Q338 106 367 130T397 194Q397 234 364 257T277 281H224V394H277Q322 394 349 418T376 482Q376
522 352 546T286 570Q248 570 222 547T191 486H53Q60 578 124 634T287 691Q387 691 448 633T509 484Q509 392 438 343Z" />
<glyph unicode="4" glyph-name="four" horiz-adv-x="642" d="M604 131H516V0H378V131H30V220L220 680H364L194 253H378V447H516V253H604V131Z" />
<glyph unicode="5" glyph-name="five" horiz-adv-x="597" d="M220 439H307Q414 439 480 377T546 219Q546 117 477 51T297 -15Q188 -15 121 40T39 191H178Q203 107 297 107Q348 107 380 137T412 216Q412 262 379 290T289 319H89V680H517V553H220V439Z" />
<glyph unicode="6" glyph-name="six" horiz-adv-x="620" d="M450 680L317 469Q431 467 504 399T577 231Q577 126 502 56T310 -15T119 55T43 227Q43 298 105 398L284 680H450ZM255 100T310 100T401 137T438 224T402 310T310 346Q260 346 223 320L222 319Q181 262
181 222Q181 173 218 137Z" />
<glyph unicode="7" glyph-name="seven" horiz-adv-x="509" d="M490 680V595L220 0H61L313 547H10V680H490Z" />
<glyph unicode="8" glyph-name="eight" horiz-adv-x="626" d="M476 359Q527 333 555 290T583 193Q583 100 510 43T313 -15T116 42T43 193Q43 247 71 290T150 359Q70 409 70 500Q70 586 138 640T313 695T487 641T555 500Q555 408 476 359ZM313 585Q266 585 237
559T208 492T237 425T313 398T388 425T418 492Q418 532 389 558T313 585ZM313 102Q362 102 395 131T428 203Q428 244 396 272T313 301T231 273T198 203Q198 160 230 131T313 102Z" />
<glyph unicode="9" glyph-name="nine" horiz-adv-x="620" d="M194 695T310 695T501 625T577 453Q577 382 515 282L337 0H170L303 211Q189 213 116 281T43 449Q43 554 118 624ZM397 360L398 361Q439 418 439 458Q439 507 402 543T310 580T219 543T182 456Q182 407
218 371T310 335Q361 335 397 360Z" />
<glyph unicode=":" glyph-name="colon" horiz-adv-x="223" d="M111 335Q77 335 53 358T29 414T53 470T111 493Q146 493 170 471T194 414T170 358T111 335ZM111 -19Q77 -19 53 4T29 61Q29 94 53 117T111 140Q146 140 170 118T194 61T170 4T111 -19Z" />
<glyph unicode=";" glyph-name="semicolon" horiz-adv-x="223" d="M111 335Q77 335 53 358T29 414T53 470T111 493Q146 493 170 471T194 414T170 358T111 335ZM30 -109L79 -5Q31 16 31 61Q31 94 54 116T112 139Q147 139 170 117T194 61Q194 34 167 -13L111 -109H30Z" />
<glyph unicode="&lt;" glyph-name="less" horiz-adv-x="539" d="M470 563V428L198 306L470 183V48L48 238V373L470 563Z" />
<glyph unicode="=" glyph-name="equal" horiz-adv-x="680" d="M581 362H99V485H581V362ZM581 160H99V283H581V160Z" />
<glyph unicode="&gt;" glyph-name="greater" horiz-adv-x="539" d="M490 238L68 48V183L340 306L68 428V563L490 373V238Z" />
<glyph unicode="?" glyph-name="question" horiz-adv-x="527" d="M182 214L172 375H247Q294 375 325 401T356 473Q356 517 329 543T258 570Q217 570 190 547T157 486H19Q26 580 86 635T252 691Q354 691 421 631T488 473Q488 392 437 342T295 281L289 214H182ZM267
-10T233 -10T176 12T152 69Q152 102 175 124T233 147T291 125T315 69T291 13Z" />
<glyph unicode="@" glyph-name="at" horiz-adv-x="998" d="M710 441V207Q710 125 766 125Q842 125 842 250Q842 393 747 485T507 577Q360 577 259 480T157 241T257 3T500 -94Q622 -94 715 -22L769 -103Q652 -188 501 -188Q316 -188 187 -65T58 241T188 547T506
671Q693 671 816 553T939 252Q939 149 897 88T765 27Q660 27 619 93Q561 29 470 29Q383 29 325 89T267 239Q267 329 325 389T470 450Q537 450 588 413V441H710ZM491 135Q554 135 590 191Q588 221 588 238V291Q550 345 491 345Q451 345 420 316T389 240Q389 192
420 164T491 135Z" />
<glyph unicode="A" glyph-name="A" horiz-adv-x="755" d="M532 131H224L171 0H17L310 684H446L738 0H585L532 131ZM479 262L377 511L277 262H479Z" />
<glyph unicode="B" glyph-name="B" horiz-adv-x="699" d="M532 352Q594 339 625 294T657 187Q657 102 591 51T413 0H67V680H397Q505 680 566 633T627 501Q627 451 601 410T532 352ZM212 555V399H378Q432 399 461 421T491 481Q491 555 378 555H212ZM212 125H403Q458
125 486 147T515 205T487 258T407 276H212V125Z" />
<glyph unicode="C" glyph-name="C" horiz-adv-x="792" d="M406 124Q479 124 527 163T593 275H741Q720 144 629 65T406 -14Q256 -14 154 86T51 340T153 593T406 694Q538 694 629 615T741 405H593Q575 478 527 517T406 556Q315 556 256 496T197 340T256 184T406 124Z" />
<glyph unicode="D" glyph-name="D" horiz-adv-x="738" d="M67 680H332Q489 680 592 584T696 343Q696 195 593 98T332 0H67V680ZM212 133H332Q423 133 486 194T549 343Q549 429 486 488T332 548H212V133Z" />
<glyph unicode="E" glyph-name="E" horiz-adv-x="612" d="M212 549V401H530V270H212V131H571V0H67V680H571V549H212Z" />
<glyph unicode="F" glyph-name="F" horiz-adv-x="584" d="M212 548V381H519V250H212V0H67V680H564V548H212Z" />
<glyph unicode="G" glyph-name="G" horiz-adv-x="814" d="M752 379V0H641L633 94Q556 -14 407 -14Q253 -14 152 87T51 331Q51 490 154 592T411 694Q530 694 623 629T744 442H590Q549 557 413 557Q317 557 257 496T197 332Q197 245 255 185T408 124Q477 124 525
158T596 251H395V379H752Z" />
<glyph unicode="H" glyph-name="H" horiz-adv-x="728" d="M661 680V0H516V266H212V0H67V680H212V398H516V680H661Z" />
<glyph unicode="I" glyph-name="I" horiz-adv-x="279" d="M212 680V0H67V680H212Z" />
<glyph unicode="J" glyph-name="J" horiz-adv-x="604" d="M545 680V260Q545 129 473 57T273 -15Q161 -15 89 49T12 228H158Q160 175 194 147T281 119Q333 119 366 157T399 263V680H545Z" />
<glyph unicode="K" glyph-name="K" horiz-adv-x="716" d="M318 271L212 151V0H67V680H212V347L508 680H680L416 381L707 0H527L318 271Z" />
<glyph unicode="L" glyph-name="L" horiz-adv-x="581" d="M559 129V0H67V680H212V129H559Z" />
<glyph unicode="M" glyph-name="M" horiz-adv-x="849" d="M782 680V0H637V369L467 102H382V103L211 372L213 0H67V680H171L425 280L679 680H782Z" />
<glyph unicode="N" glyph-name="N" horiz-adv-x="748" d="M681 680V0H569L212 413V0H67V680H176L536 256V680H681Z" />
<glyph unicode="O" glyph-name="O" horiz-adv-x="813" d="M406 694Q555 694 658 591T762 340T659 89T406 -14Q258 -14 155 89T51 340T154 591T406 694ZM406 121Q496 121 555 185T615 340T556 495T406 559Q317 559 257 495T197 340T257 185T406 121Z" />
<glyph unicode="P" glyph-name="P" horiz-adv-x="630" d="M67 680H333Q458 680 533 614T608 439Q608 324 528 255T314 186H212V0H67V680ZM212 317H328Q389 317 427 350T465 439Q465 488 428 518T328 548H212V317Z" />
<glyph unicode="Q" glyph-name="Q" horiz-adv-x="813" d="M762 340Q762 183 647 78L758 -52L653 -149L523 5Q464 -14 406 -14Q258 -14 155 89T51 340T154 591T406 694Q555 694 658 591T762 340ZM197 431T197 340T257 185T406 121Q496 121 555 185T615 340T556
495T406 559Q317 559 257 495Z" />
<glyph unicode="R" glyph-name="R" horiz-adv-x="691" d="M349 211H212V0H67V680H357Q476 680 551 616T627 446Q627 377 593 324T498 241L671 0H498L349 211ZM212 344H352Q408 344 446 372T484 446T446 520T352 548H212V344Z" />
<glyph unicode="S" glyph-name="S" horiz-adv-x="672" d="M335 695Q382 695 426 685T512 650T583 581T618 472H475Q460 574 345 574Q291 574 259 552T227 490Q227 457 251 439T324 411L408 394Q511 373 563 329T615 202Q615 104 541 45T345 -14Q220 -14 138 50T47
225H191Q199 173 242 143T353 112Q406 112 435 131T465 186Q465 241 380 256L269 278Q169 298 122 347T75 477Q75 575 146 635T335 695Z" />
<glyph unicode="T" glyph-name="T" horiz-adv-x="651" d="M625 548H398V0H253V548H26V680H625V548Z" />
<glyph unicode="U" glyph-name="U" horiz-adv-x="730" d="M672 680V309Q672 158 589 72T364 -15Q224 -15 141 71T58 309V680H202V308Q202 223 246 172T364 120Q438 120 483 171T528 308V680H672Z" />
<glyph unicode="V" glyph-name="V" horiz-adv-x="779" d="M761 680L458 -4H322L18 680H177L389 189L603 680H761Z" />
<glyph unicode="W" glyph-name="W" horiz-adv-x="1081" d="M1053 680L830 -4H689L540 429L392 -4H250L28 680H180L323 222L480 680H601L758 222L901 680H1053Z" />
<glyph unicode="X" glyph-name="X" horiz-adv-x="680" d="M502 0L340 227L178 0H11L242 336L15 680H190L339 451L489 680H664L436 336L669 0H502Z" />
<glyph unicode="Y" glyph-name="Y" horiz-adv-x="703" d="M694 680L425 219V0H279V219L8 680H168L351 365L534 680H694Z" />
<glyph unicode="Z" glyph-name="Z" horiz-adv-x="654" d="M613 130V0H39V68L398 550H55V680H608V612L265 130H613Z" />
<glyph unicode="[" glyph-name="bracketleft" horiz-adv-x="366" d="M191 -9H337V-142H52V730H337V598H191V-9Z" />
<glyph unicode="\" glyph-name="backslash" horiz-adv-x="412" d="M148 730L398 -160H265L14 730H148Z" />
<glyph unicode="]" glyph-name="bracketright" horiz-adv-x="366" d="M29 598V730H315V-142H29V-9H176V598H29Z" />
<glyph unicode="^" glyph-name="asciicircum" horiz-adv-x="424" d="M405 439H279L212 577L144 439H19L152 680H272L405 439Z" />
<glyph unicode="_" glyph-name="underscore" horiz-adv-x="626" d="M29 -90H597V-211H29V-90Z" />
<glyph unicode="`" glyph-name="grave" horiz-adv-x="600" d="M404 555H278L178 709H330L404 555Z" />
<glyph unicode="a" glyph-name="a" horiz-adv-x="613" d="M413 479H552V0H413V28Q354 -10 277 -10Q178 -10 108 62T38 239Q38 344 108 416T277 489Q354 489 413 451V479ZM300 108Q371 108 413 163V316Q372 372 300 372Q246 372 211 333T176 239Q176 185 211 147T300 108Z" />
<glyph unicode="b" glyph-name="b" horiz-adv-x="613" d="M336 489Q435 489 504 417T574 240Q574 135 505 63T336 -10Q259 -10 200 28V0H61V710H200V451Q259 489 336 489ZM313 107Q366 107 401 146T437 240T402 332T313 371Q242 371 200 316V163Q241 107 313 107Z" />
<glyph unicode="c" glyph-name="c" horiz-adv-x="574" d="M295 113Q335 113 362 133T397 188H536Q526 100 458 45T295 -11Q186 -11 112 60T38 239T112 417T295 489Q390 489 458 434T536 290H397Q389 325 362 345T295 366Q241 366 208 330T175 239T208 149T295 113Z" />
<glyph unicode="d" glyph-name="d" horiz-adv-x="613" d="M552 710V0H413V28Q354 -10 277 -10Q178 -10 108 62T38 240Q38 344 108 416T277 489Q354 489 413 451V710H552ZM300 107Q372 107 413 163V316Q371 371 300 371Q246 371 211 333T176 240Q176 185 211 146T300 107Z" />
<glyph unicode="e" glyph-name="e" horiz-adv-x="568" d="M530 249Q530 225 527 204H174Q194 104 298 104Q356 104 379 140H524Q504 71 442 28T295 -15Q181 -15 109 57T37 239Q37 351 107 422T291 494Q395 494 462 427T530 249ZM292 379Q197 379 175 286H392Q386
331 360 355T292 379Z" />
<glyph unicode="f" glyph-name="f" horiz-adv-x="453" d="M272 479H454V362H272V0H133V362H5V479H133V547Q133 644 189 703T337 763Q392 763 455 746L436 627Q393 636 365 636Q323 636 298 612T272 548V479Z" />
<glyph unicode="g" glyph-name="g" horiz-adv-x="617" d="M418 479H556V6Q556 -105 488 -169T308 -234Q204 -234 134 -177T56 -27H196Q201 -65 230 -87T308 -110Q356 -110 387 -80T418 5V53Q361 16 282 16Q184 16 114 85T43 249Q43 356 112 425T282 494Q359 494
418 456V479ZM305 133Q377 133 418 190V319Q377 376 305 376Q250 376 216 341T181 249Q181 205 217 169T305 133Z" />
<glyph unicode="h" glyph-name="h" horiz-adv-x="601" d="M337 494Q432 494 489 431T547 263V0H408V251Q408 308 381 338T305 368Q249 368 200 308V0H61V710H200V445Q262 494 337 494Z" />
<glyph unicode="i" glyph-name="i" horiz-adv-x="269" d="M170 568T135 568T76 591T51 648Q51 683 75 706T135 730T194 707T218 648Q218 614 194 591ZM66 479H205V0H66V479Z" />
<glyph unicode="j" glyph-name="j" horiz-adv-x="265" d="M165 568T130 568T71 591T46 648Q46 683 70 706T130 730T189 707T214 648Q214 614 190 591ZM200 479V35Q200 -80 152 -135T-22 -193L-34 -74Q22 -69 41 -50T61 17V479H200Z" />
<glyph unicode="k" glyph-name="k" horiz-adv-x="584" d="M277 180L200 99V0H61V710H200V280L385 479H558L372 281L579 0H404L277 180Z" />
<glyph unicode="l" glyph-name="l" horiz-adv-x="261" d="M200 710V0H61V710H200Z" />
<glyph unicode="m" glyph-name="m" horiz-adv-x="912" d="M645 494Q734 494 794 430T854 263V0H715V251Q715 308 689 338T613 368Q561 368 523 315Q527 281 527 263V0H388V251Q388 308 362 338T285 368Q240 368 200 314V0H61V479H200V450Q247 494 318 494Q412
494 471 426Q510 462 550 478T645 494Z" />
<glyph unicode="n" glyph-name="n" horiz-adv-x="601" d="M337 494Q432 494 489 431T547 263V0H408V251Q408 308 381 338T305 368Q249 368 200 308V0H61V479H200V445Q262 494 337 494Z" />
<glyph unicode="o" glyph-name="o" horiz-adv-x="588" d="M295 489Q405 489 477 419T550 239Q550 129 478 57T295 -15Q184 -15 111 57T38 239Q38 348 111 418T295 489ZM295 109Q348 109 380 146T413 239Q413 293 381 329T295 365Q241 365 208 329T175 239Q175
184 208 147T295 109Z" />
<glyph unicode="p" glyph-name="p" horiz-adv-x="613" d="M336 489Q435 489 504 417T574 239Q574 135 505 63T336 -10Q259 -10 200 28V-231H61V479H200V451Q259 489 336 489ZM313 108Q366 108 401 146T437 239T402 332T313 372Q241 372 200 316V163Q242 108 313 108Z" />
<glyph unicode="q" glyph-name="q" horiz-adv-x="613" d="M551 479V-231H412V27Q352 -10 277 -10Q178 -10 108 62T38 239Q38 344 108 416T277 489Q355 489 412 452V479H551ZM300 108Q370 108 412 163V317Q370 372 300 372Q246 372 211 333T176 239Q176 185 211
147T300 108Z" />
<glyph unicode="r" glyph-name="r" horiz-adv-x="397" d="M200 479V425Q267 487 368 487V355Q259 351 200 286V0H61V479H200Z" />
<glyph unicode="s" glyph-name="s" horiz-adv-x="508" d="M28 166L155 165Q166 94 255 94Q291 94 313 105T336 135Q336 167 289 174L186 192Q124 203 85 237T45 333Q45 407 101 449T252 492Q287 492 319 485T385 462T441 411T467 329L340 328Q338 358 314 373T252
388Q218 388 200 377T181 347Q181 312 238 302L325 288Q470 262 470 147Q470 69 410 27T254 -15Q161 -15 98 28T28 166Z" />
<glyph unicode="t" glyph-name="t" horiz-adv-x="457" d="M410 126L428 7Q357 -15 299 -15Q212 -15 160 41T107 191V362H6V479H107V650H245V479H418V362H245V192Q245 113 329 113Q360 113 410 126Z" />
<glyph unicode="u" glyph-name="u" horiz-adv-x="601" d="M540 479V0H401V34Q339 -15 264 -15Q169 -15 112 48T54 215V479H193V228Q193 171 220 141T296 111Q352 111 401 171V479H540Z" />
<glyph unicode="v" glyph-name="v" horiz-adv-x="583" d="M570 479L354 0H230L14 479H161L292 176L423 479H570Z" />
<glyph unicode="w" glyph-name="w" horiz-adv-x="799" d="M785 479L610 0H487L400 264L312 0H190L15 479H164L252 212L342 479H457L548 211L636 479H785Z" />
<glyph unicode="x" glyph-name="x" horiz-adv-x="560" d="M372 240L547 0H386L281 146L175 0H13L188 241L13 480H180L279 342L381 480H547L372 240Z" />
<glyph unicode="y" glyph-name="y" horiz-adv-x="635" d="M612 480L309 -230H163L256 -12L23 480H171L326 153L466 480H612Z" />
<glyph unicode="z" glyph-name="z" horiz-adv-x="502" d="M470 479V405L236 115H470V0H31V65L273 364H37V479H470Z" />
<glyph unicode="{" glyph-name="braceleft" horiz-adv-x="357" d="M249 553V412Q249 362 234 337T173 298Q219 284 234 259T249 184V43Q249 17 270 1T328 -15V-148Q230 -148 170 -97T110 40V182Q110 220 94 229T29 238V357Q55 357 67 358T90 364T106 381T110 413V555Q110
641 169 692T328 744V610Q292 610 271 595T249 553Z" />
<glyph unicode="|" glyph-name="bar" horiz-adv-x="324" d="M226 730V-160H98V730H226Z" />
<glyph unicode="}" glyph-name="braceright" horiz-adv-x="371" d="M122 412V553Q122 579 101 594T43 610V744Q141 744 201 693T261 555V413Q261 375 276 366T341 357V238Q315 238 304 237T280 231T265 214T261 182V40Q261 -45 201 -96T43 -148V-15Q79 -15 100
1T122 43V184Q122 234 136 259T197 298Q152 312 137 337T122 412Z" />
<glyph unicode="~" glyph-name="asciitilde" horiz-adv-x="448" d="M311 410H432Q432 357 412 320T361 269T297 255T234 272L184 302Q166 314 156 310T141 297T137 275H16Q16 328 36 364T87 415T151 430T214 413L265 383Q283 371 293 375T307 388T311 410Z" />
<glyph unicode="&#xa1;" glyph-name="exclamdown" horiz-adv-x="287" d="M143 490Q177 490 201 467T225 411T201 356T143 333Q110 333 86 355T62 411T86 467T143 490ZM70 -199L82 262H204L216 -199H70Z" />
<glyph unicode="&#xa2;" glyph-name="cent" horiz-adv-x="574" d="M295 113Q335 113 362 133T397 188H536Q527 115 479 64T357 -4V-106H236V-5Q149 14 94 81T38 239Q38 331 93 397T236 483V601H357V482Q430 465 478 414T536 290H397Q389 325 362 345T295 366Q241
366 208 330T175 239T208 149T295 113Z" />
<glyph unicode="&#xa3;" glyph-name="sterling" horiz-adv-x="612" d="M226 120H574V0H30V120H88V273H30V390H88V452Q88 561 156 627T338 694Q442 694 509 638T587 485H447Q438 526 410 549T338 572Q288 572 257 540T226 452V390H417V273H226V120Z" />
<glyph unicode="&#xa5;" glyph-name="yen" horiz-adv-x="703" d="M475 305H600V208H425V163H600V66H425V0H279V66H103V163H279V208H103V305H228L8 680H168L351 365L534 680H694L475 305Z" />
<glyph unicode="&#xa6;" glyph-name="brokenbar" horiz-adv-x="324" d="M226 336H98V730H226V336ZM226 -160H98V234H226V-160Z" />
<glyph unicode="&#xa7;" glyph-name="section" horiz-adv-x="549" d="M520 233Q520 149 450 107Q477 63 477 10Q477 -69 420 -114T274 -160Q179 -160 119 -108T49 33H198Q203 -38 272 -38Q299 -38 316 -24T333 14Q333 54 290 74L172 127Q93 163 61 204T29 298Q29
382 100 423Q72 466 72 521Q72 599 129 644T275 690Q370 690 430 638T500 498H351Q349 530 331 549T278 569Q251 569 234 555T216 517Q216 476 259 457L377 402Q456 365 488 325T520 233ZM233 237L352 182Q383 195 383 228Q383 263 316 293L197 348Q166 337 166
302T233 237Z" />
<glyph unicode="&#xa8;" glyph-name="dieresis" horiz-adv-x="600" d="M157 709T192 709T251 686T275 629T251 573T192 550T133 572T109 629T133 686ZM374 709T409 709T467 686T491 629T468 573T409 550T350 572T326 629T350 686Z" />
<glyph unicode="&#xa9;" glyph-name="copyright" horiz-adv-x="829" d="M265 695T415 695T672 593T779 340T672 87T415 -15T158 87T51 340T158 593ZM303 72T414 72T606 150T687 340T606 530T414 608T223 530T142 340T222 150ZM416 410Q385 410 365 389T344 338T364
288T416 267Q463 267 479 306H581Q571 246 526 210T417 174Q343 174 294 220T245 338Q245 410 294 456T417 503Q480 503 525 467T581 371H479Q462 410 416 410Z" />
<glyph unicode="&#xaa;" glyph-name="ordfeminine" horiz-adv-x="355" d="M179 685Q245 685 286 648T327 546V355H233V367Q195 349 153 349Q92 349 56 377T19 453Q19 498 52 522T143 546H233Q233 605 179 605Q129 605 126 565H32Q34 625 77 655T179 685ZM160 424Q198
424 233 447V480H139Q126 480 118 474T109 459Q109 445 121 435T160 424Z" />
<glyph unicode="&#xab;" glyph-name="guillemotleft" horiz-adv-x="465" d="M248 408L155 252L248 96H117L24 252L117 408H248ZM441 408L348 252L441 96H310L217 252L310 408H441Z" />
<glyph unicode="&#xae;" glyph-name="registered" horiz-adv-x="567" d="M178 692T283 692T463 620T538 443T463 267T283 195T103 266T28 443T103 620ZM282 262Q356 262 410 315T465 443Q465 519 411 572T282 625T155 572T101 443Q101 369 155 316T282 262ZM379
478Q379 436 342 417L388 348H321L285 406H257V348H203V554H294Q332 554 355 533T379 478ZM257 453H293Q324 453 324 479Q324 504 293 504H257V453Z" />
<glyph unicode="&#xaf;" glyph-name="overscore" horiz-adv-x="600" d="M441 684V573H159V684H441Z" />
<glyph unicode="&#xb0;" glyph-name="degree" horiz-adv-x="465" d="M232 695Q309 695 359 647T409 524Q409 449 359 401T232 352Q156 352 107 400T57 524Q57 598 106 646T232 695ZM232 451Q263 451 285 472T307 524T285 575T232 596Q202 596 180 575T158 524T180
473T232 451Z" />
<glyph unicode="&#xb1;" glyph-name="plusminus" horiz-adv-x="679" d="M580 323H403V194H276V323H99V445H276V575H403V445H580V323ZM580 155V33H99V155H580Z" />
<glyph unicode="&#xb2;" glyph-name="twosuperior" horiz-adv-x="369" d="M340 367V282H36V335L182 492Q232 543 232 571Q232 589 220 599T187 610Q136 610 134 558H34Q35 622 75 661T186 700Q256 700 295 665T334 578Q334 520 266 446L195 367H340Z" />
<glyph unicode="&#xb3;" glyph-name="threesuperior" horiz-adv-x="382" d="M294 492Q347 464 347 404Q347 349 305 313T194 276Q126 276 84 310T32 406H133Q147 364 194 364Q219 364 234 375T250 405Q250 447 182 447H150V528H182Q207 528 222 540T237 572T225
602T190 613Q169 613 157 601T143 571H42Q47 631 86 666T190 701Q256 701 294 666T333 574Q333 520 294 492Z" />
<glyph unicode="&#xb4;" glyph-name="acute" horiz-adv-x="600" d="M450 709L350 555H224L299 709H450Z" />
<glyph unicode="&#xb6;" glyph-name="paragraph" horiz-adv-x="774" d="M713 680V-160H574V561H493V-160H355V205H278Q168 205 94 273T20 450Q20 552 94 616T278 680H713ZM355 561H278Q223 561 189 530T155 449Q155 396 189 363T278 330H355V561Z" />
<glyph unicode="&#xb7;" glyph-name="middot" horiz-adv-x="223" d="M111 193Q77 193 53 216T29 272T53 328T111 351Q146 351 170 329T194 272T170 216T111 193Z" />
<glyph unicode="&#xb8;" glyph-name="cedilla" horiz-adv-x="600" d="M315 -211H196L242 -50H377L315 -211Z" />
<glyph unicode="&#xb9;" glyph-name="onesuperior" horiz-adv-x="340" d="M335 371V286H29V371H135V587L33 558V647L176 695H232V371H335Z" />
<glyph unicode="&#xba;" glyph-name="ordmasculine" horiz-adv-x="388" d="M194 687Q268 687 316 640T364 520Q364 446 316 398T194 349T72 397T24 520Q24 592 72 639T194 687ZM160 435T194 435T249 459T270 520Q270 554 249 577T194 601Q159 601 138 578T117
520Q117 484 138 460Z" />
<glyph unicode="&#xbb;" glyph-name="guillemotright" horiz-adv-x="465" d="M247 252L155 96H24L117 252L24 408H155L247 252ZM441 252L348 96H218L310 252L218 408H348L441 252Z" />
<glyph unicode="&#xbc;" glyph-name="onequarter" horiz-adv-x="937" d="M29 271V356H135V572L33 543V632L176 680H232V356H335V271H29ZM755 680L292 0H197L659 680H755ZM908 74H857V0H757V74H543V139L658 409H763L663 163H757V269H857V163H908V74Z" />
<glyph unicode="&#xbd;" glyph-name="onehalf" horiz-adv-x="922" d="M29 271V356H135V572L33 543V632L176 680H232V356H335V271H29ZM760 680L298 0H202L665 680H760ZM892 85V0H589V53L735 210Q763 240 774 256T785 289Q785 307 773 317T740 328Q688 328 686 276H587Q588
341 627 379T738 418T848 383T887 296Q887 266 872 236T818 164L748 85H892Z" />
<glyph unicode="&#xbe;" glyph-name="threequarters" horiz-adv-x="919" d="M349 393Q349 338 307 302T196 265Q128 265 86 299T34 395H135Q149 353 196 353Q221 353 236 364T252 394Q252 436 184 436H152V517H184Q209 517 224 529T239 561T227 591T192 602Q171
602 159 590T145 560H44Q49 620 88 655T192 690Q258 690 296 655T335 563Q335 509 296 481Q349 453 349 393ZM736 680L274 0H179L641 680H736ZM890 74H839V0H738V74H525V139L640 409H745L644 163H738V269H839V163H890V74Z" />
<glyph unicode="&#xbf;" glyph-name="questiondown" horiz-adv-x="527" d="M260 551T294 551T351 529T375 472Q375 439 352 417T294 394T236 416T212 472T236 528ZM345 327L355 167H280Q233 167 202 140T171 68Q171 24 198 -2T269 -29Q310 -29 337 -6T369 55H508Q501
-39 441 -94T275 -150Q173 -150 106 -90T39 68Q39 149 90 199T232 260L238 327H345Z" />
<glyph unicode="&#xc0;" glyph-name="Agrave" horiz-adv-x="755" d="M327 753L227 907H379L453 753H327ZM532 131H224L171 0H17L310 684H446L738 0H585L532 131ZM479 262L377 511L277 262H479Z" />
<glyph unicode="&#xc1;" glyph-name="Aacute" horiz-adv-x="755" d="M438 753H312L387 907H538L438 753ZM532 131H224L171 0H17L310 684H446L738 0H585L532 131ZM479 262L377 511L277 262H479Z" />
<glyph unicode="&#xc2;" glyph-name="Acircumflex" horiz-adv-x="755" d="M320 754H194L311 911H442L559 754H433L377 825L320 754ZM532 131H224L171 0H17L310 684H446L738 0H585L532 131ZM479 262L377 511L277 262H479Z" />
<glyph unicode="&#xc3;" glyph-name="Atilde" horiz-adv-x="755" d="M388 768L342 795Q317 806 309 798T300 771H192Q192 818 210 851T255 897T313 910T369 895L415 867Q431 857 440 860T453 872T457 891H565Q565 844 547 811T502 765T444 752T388 768ZM532 131H224L171
0H17L310 684H446L738 0H585L532 131ZM479 262L377 511L277 262H479Z" />
<glyph unicode="&#xc4;" glyph-name="Adieresis" horiz-adv-x="755" d="M303 748T268 748T209 770T185 827T209 884T268 907T327 884T351 827T327 771ZM520 748T485 748T426 770T402 827T426 884T485 907T543 884T567 827T544 771ZM532 131H224L171 0H17L310 684H446L738
0H585L532 131ZM479 262L377 511L277 262H479Z" />
<glyph unicode="&#xc5;" glyph-name="Aring" horiz-adv-x="755" d="M430 758T377 758T292 788T259 868T291 948T377 978T462 948T495 868T463 788ZM396 911T377 911T346 900T334 868T346 837T377 825T408 836T420 868T408 899ZM532 131H224L171 0H17L310 684H446L738
0H585L532 131ZM479 262L377 511L277 262H479Z" />
<glyph unicode="&#xc6;" glyph-name="AE" horiz-adv-x="1110" d="M710 549V401H1029V270H710V131H1069V0H566V131H293L193 0H17L544 680H1069V549H710ZM566 262V491L392 262H566Z" />
<glyph unicode="&#xc7;" glyph-name="Ccedilla" horiz-adv-x="792" d="M406 124Q479 124 527 163T593 275H741Q720 144 629 65T406 -14Q256 -14 154 86T51 340T153 593T406 694Q538 694 629 615T741 405H593Q575 478 527 517T406 556Q315 556 256 496T197 340T256
184T406 124ZM337 -50H472L410 -211H291L337 -50Z" />
<glyph unicode="&#xc8;" glyph-name="Egrave" horiz-adv-x="612" d="M265 753L165 907H317L391 753H265ZM212 549V401H530V270H212V131H571V0H67V680H571V549H212Z" />
<glyph unicode="&#xc9;" glyph-name="Eacute" horiz-adv-x="612" d="M376 753H250L325 907H476L376 753ZM212 549V401H530V270H212V131H571V0H67V680H571V549H212Z" />
<glyph unicode="&#xca;" glyph-name="Ecircumflex" horiz-adv-x="612" d="M258 754H132L249 911H380L497 754H371L315 825L258 754ZM212 549V401H530V270H212V131H571V0H67V680H571V549H212Z" />
<glyph unicode="&#xcb;" glyph-name="Edieresis" horiz-adv-x="612" d="M241 748T206 748T147 770T123 827T147 884T206 907T265 884T289 827T265 771ZM458 748T423 748T364 770T340 827T364 884T423 907T481 884T505 827T482 771ZM212 549V401H530V270H212V131H571V0H67V680H571V549H212Z"
/>
<glyph unicode="&#xcc;" glyph-name="Igrave" horiz-adv-x="279" d="M215 753H89L-11 907H141L215 753ZM212 680V0H67V680H212Z" />
<glyph unicode="&#xcd;" glyph-name="Iacute" horiz-adv-x="279" d="M301 907L201 753H75L150 907H301ZM212 680V0H67V680H212Z" />
<glyph unicode="&#xce;" glyph-name="Icircumflex" horiz-adv-x="279" d="M140 825L83 754H-43L74 911H205L322 754H196L140 825ZM212 680V0H67V680H212Z" />
<glyph unicode="&#xcf;" glyph-name="Idieresis" horiz-adv-x="279" d="M-4 907T31 907T90 884T114 827T90 771T31 748T-28 770T-52 827T-28 884ZM213 907T248 907T306 884T330 827T307 771T248 748T189 770T165 827T189 884ZM212 680V0H67V680H212Z" />
<glyph unicode="&#xd0;" glyph-name="Eth" horiz-adv-x="738" d="M67 680H332Q489 680 592 584T696 343Q696 195 593 98T332 0H67V267H6V398H67V680ZM212 133H332Q423 133 486 194T549 343Q549 429 486 488T332 548H212V398H331V267H212V133Z" />
<glyph unicode="&#xd1;" glyph-name="Ntilde" horiz-adv-x="748" d="M386 768L340 795Q315 806 307 798T298 771H190Q190 818 208 851T253 897T311 910T367 895L413 867Q429 857 438 860T451 872T455 891H563Q563 844 545 811T500 765T442 752T386 768ZM681 680V0H569L212
413V0H67V680H176L536 256V680H681Z" />
<glyph unicode="&#xd2;" glyph-name="Ograve" horiz-adv-x="813" d="M482 753H356L256 907H408L482 753ZM406 694Q555 694 658 591T762 340T659 89T406 -14Q258 -14 155 89T51 340T154 591T406 694ZM406 121Q496 121 555 185T615 340T556 495T406 559Q317 559
257 495T197 340T257 185T406 121Z" />
<glyph unicode="&#xd3;" glyph-name="Oacute" horiz-adv-x="813" d="M567 907L467 753H341L416 907H567ZM406 694Q555 694 658 591T762 340T659 89T406 -14Q258 -14 155 89T51 340T154 591T406 694ZM406 121Q496 121 555 185T615 340T556 495T406 559Q317 559
257 495T197 340T257 185T406 121Z" />
<glyph unicode="&#xd4;" glyph-name="Ocircumflex" horiz-adv-x="813" d="M406 825L349 754H223L340 911H471L588 754H462L406 825ZM406 694Q555 694 658 591T762 340T659 89T406 -14Q258 -14 155 89T51 340T154 591T406 694ZM406 121Q496 121 555 185T615 340T556
495T406 559Q317 559 257 495T197 340T257 185T406 121Z" />
<glyph unicode="&#xd5;" glyph-name="Otilde" horiz-adv-x="813" d="M486 891H594Q594 844 576 811T531 765T473 752T417 768L371 795Q346 806 338 798T329 771H221Q221 818 239 851T284 897T342 910T398 895L444 867Q460 857 469 860T482 872T486 891ZM406 694Q555
694 658 591T762 340T659 89T406 -14Q258 -14 155 89T51 340T154 591T406 694ZM406 121Q496 121 555 185T615 340T556 495T406 559Q317 559 257 495T197 340T257 185T406 121Z" />
<glyph unicode="&#xd6;" glyph-name="Odieresis" horiz-adv-x="813" d="M262 907T297 907T356 884T380 827T356 771T297 748T238 770T214 827T238 884ZM479 907T514 907T572 884T596 827T573 771T514 748T455 770T431 827T455 884ZM406 694Q555 694 658 591T762
340T659 89T406 -14Q258 -14 155 89T51 340T154 591T406 694ZM406 121Q496 121 555 185T615 340T556 495T406 559Q317 559 257 495T197 340T257 185T406 121Z" />
<glyph unicode="&#xd7;" glyph-name="multiply" horiz-adv-x="674" d="M565 181L478 94L338 236L196 94L109 181L250 323L109 463L196 550L338 410L478 550L565 463L425 323L565 181Z" />
<glyph unicode="&#xd8;" glyph-name="Oslash" horiz-adv-x="813" d="M714 629L671 578Q762 477 762 340Q762 192 659 89T406 -14Q304 -14 219 38L167 -23L87 44L139 106Q51 205 51 340Q51 488 154 591T406 694Q507 694 590 644L634 696L714 629ZM197 340Q197 273
232 217L500 537Q456 559 406 559Q317 559 257 495T197 340ZM406 121Q496 121 555 185T615 340Q615 410 577 467L308 145Q354 121 406 121Z" />
<glyph unicode="&#xd9;" glyph-name="Ugrave" horiz-adv-x="730" d="M441 753H315L215 907H367L441 753ZM672 680V309Q672 158 589 72T364 -15Q224 -15 141 71T58 309V680H202V308Q202 223 246 172T364 120Q438 120 483 171T528 308V680H672Z" />
<glyph unicode="&#xda;" glyph-name="Uacute" horiz-adv-x="730" d="M526 907L426 753H300L375 907H526ZM672 680V309Q672 158 589 72T364 -15Q224 -15 141 71T58 309V680H202V308Q202 223 246 172T364 120Q438 120 483 171T528 308V680H672Z" />
<glyph unicode="&#xdb;" glyph-name="Ucircumflex" horiz-adv-x="730" d="M366 825L309 754H183L300 911H431L548 754H422L366 825ZM672 680V309Q672 158 589 72T364 -15Q224 -15 141 71T58 309V680H202V308Q202 223 246 172T364 120Q438 120 483 171T528 308V680H672Z" />
<glyph unicode="&#xdc;" glyph-name="Udieresis" horiz-adv-x="730" d="M222 907T257 907T316 884T340 827T316 771T257 748T198 770T174 827T198 884ZM439 907T474 907T532 884T556 827T533 771T474 748T415 770T391 827T415 884ZM672 680V309Q672 158 589 72T364
-15Q224 -15 141 71T58 309V680H202V308Q202 223 246 172T364 120Q438 120 483 171T528 308V680H672Z" />
<glyph unicode="&#xdd;" glyph-name="Yacute" horiz-adv-x="703" d="M413 753H287L362 907H513L413 753ZM694 680L425 219V0H279V219L8 680H168L351 365L534 680H694Z" />
<glyph unicode="&#xde;" glyph-name="Thorn" horiz-adv-x="630" d="M212 588H333Q458 588 533 522T608 347Q608 232 528 163T314 94H212V0H67V680H212V588ZM212 225H328Q389 225 427 258T465 347Q465 396 428 426T328 456H212V225Z" />
<glyph unicode="&#xdf;" glyph-name="germandbls" horiz-adv-x="655" d="M477 363Q607 326 607 196Q607 102 540 49T352 -5Q338 -5 290 -3V111H341Q405 111 438 135T472 201Q472 239 444 261T370 283H302V382Q364 394 389 423T414 489Q414 528 389 551T316 575Q200
575 200 412V0H61V415Q61 549 127 622T315 695Q423 695 486 641T549 494T477 363Z" />
<glyph unicode="&#xe0;" glyph-name="agrave" horiz-adv-x="613" d="M389 555H263L163 709H315L389 555ZM413 479H552V0H413V28Q354 -10 277 -10Q178 -10 108 62T38 239Q38 344 108 416T277 489Q354 489 413 451V479ZM300 108Q371 108 413 163V316Q372 372 300
372Q246 372 211 333T176 239Q176 185 211 147T300 108Z" />
<glyph unicode="&#xe1;" glyph-name="aacute" horiz-adv-x="613" d="M476 709L376 555H250L325 709H476ZM413 479H552V0H413V28Q354 -10 277 -10Q178 -10 108 62T38 239Q38 344 108 416T277 489Q354 489 413 451V479ZM300 108Q371 108 413 163V316Q372 372 300
372Q246 372 211 333T176 239Q176 185 211 147T300 108Z" />
<glyph unicode="&#xe2;" glyph-name="acircumflex" horiz-adv-x="613" d="M315 617L258 546H132L249 703H380L497 546H371L315 617ZM413 479H552V0H413V28Q354 -10 277 -10Q178 -10 108 62T38 239Q38 344 108 416T277 489Q354 489 413 451V479ZM300 108Q371 108
413 163V316Q372 372 300 372Q246 372 211 333T176 239Q176 185 211 147T300 108Z" />
<glyph unicode="&#xe3;" glyph-name="atilde" horiz-adv-x="613" d="M326 571L280 598Q255 609 247 601T238 574H130Q130 621 148 654T193 700T251 713T307 698L353 670Q369 660 378 663T391 675T395 694H503Q503 647 485 614T440 568T382 555T326 571ZM413 479H552V0H413V28Q354
-10 277 -10Q178 -10 108 62T38 239Q38 344 108 416T277 489Q354 489 413 451V479ZM300 108Q371 108 413 163V316Q372 372 300 372Q246 372 211 333T176 239Q176 185 211 147T300 108Z" />
<glyph unicode="&#xe4;" glyph-name="adieresis" horiz-adv-x="613" d="M242 550T207 550T148 572T124 629T148 686T207 709T266 686T290 629T266 573ZM459 550T424 550T365 572T341 629T365 686T424 709T482 686T506 629T483 573ZM413 479H552V0H413V28Q354 -10
277 -10Q178 -10 108 62T38 239Q38 344 108 416T277 489Q354 489 413 451V479ZM300 108Q371 108 413 163V316Q372 372 300 372Q246 372 211 333T176 239Q176 185 211 147T300 108Z" />
<glyph unicode="&#xe5;" glyph-name="aring" horiz-adv-x="613" d="M368 543T315 543T230 573T197 653T229 733T315 763T400 733T433 653T401 573ZM334 696T315 696T284 684T272 653T284 622T315 610T346 622T358 653T346 684ZM413 479H552V0H413V28Q354 -10 277
-10Q178 -10 108 62T38 239Q38 344 108 416T277 489Q354 489 413 451V479ZM300 108Q371 108 413 163V316Q372 372 300 372Q246 372 211 333T176 239Q176 185 211 147T300 108Z" />
<glyph unicode="&#xe6;" glyph-name="ae" horiz-adv-x="884" d="M843 204H491V196Q514 104 614 104Q671 104 695 140H840Q820 71 758 28T611 -15Q502 -15 430 52Q344 -9 232 -9Q139 -9 85 32T30 146Q30 214 80 250T216 286H356Q356 379 270 379Q236 379 213 363T187
318H50Q54 405 119 449T271 494Q375 494 435 434Q504 494 606 494Q710 494 778 427T846 249Q846 225 843 204ZM607 379Q560 379 531 354T491 286H707Q701 331 675 355T607 379ZM161 154Q161 132 180 117T241 101Q307 101 369 145Q361 169 358 188H211Q189 188 175
179T161 154Z" />
<glyph unicode="&#xe7;" glyph-name="ccedilla" horiz-adv-x="574" d="M295 113Q335 113 362 133T397 188H536Q526 100 458 45T295 -11Q186 -11 112 60T38 239T112 417T295 489Q390 489 458 434T536 290H397Q389 325 362 345T295 366Q241 366 208 330T175 239T208
149T295 113ZM227 -50H362L300 -211H181L227 -50Z" />
<glyph unicode="&#xe8;" glyph-name="egrave" horiz-adv-x="568" d="M366 555H240L140 709H292L366 555ZM530 249Q530 225 527 204H174Q194 104 298 104Q356 104 379 140H524Q504 71 442 28T295 -15Q181 -15 109 57T37 239Q37 351 107 422T291 494Q395 494 462
427T530 249ZM292 379Q197 379 175 286H392Q386 331 360 355T292 379Z" />
<glyph unicode="&#xe9;" glyph-name="eacute" horiz-adv-x="568" d="M453 709L353 555H227L302 709H453ZM530 249Q530 225 527 204H174Q194 104 298 104Q356 104 379 140H524Q504 71 442 28T295 -15Q181 -15 109 57T37 239Q37 351 107 422T291 494Q395 494 462
427T530 249ZM292 379Q197 379 175 286H392Q386 331 360 355T292 379Z" />
<glyph unicode="&#xea;" glyph-name="ecircumflex" horiz-adv-x="568" d="M292 617L235 546H109L226 703H357L474 546H348L292 617ZM530 249Q530 225 527 204H174Q194 104 298 104Q356 104 379 140H524Q504 71 442 28T295 -15Q181 -15 109 57T37 239Q37 351 107
422T291 494Q395 494 462 427T530 249ZM292 379Q197 379 175 286H392Q386 331 360 355T292 379Z" />
<glyph unicode="&#xeb;" glyph-name="edieresis" horiz-adv-x="568" d="M219 550T184 550T125 572T101 629T125 686T184 709T243 686T267 629T243 573ZM436 550T401 550T342 572T318 629T342 686T401 709T459 686T483 629T460 573ZM530 249Q530 225 527 204H174Q194
104 298 104Q356 104 379 140H524Q504 71 442 28T295 -15Q181 -15 109 57T37 239Q37 351 107 422T291 494Q395 494 462 427T530 249ZM292 379Q197 379 175 286H392Q386 331 360 355T292 379Z" />
<glyph unicode="&#xec;" glyph-name="igrave" horiz-adv-x="269" d="M209 555H83L-17 709H135L209 555ZM205 479V0H66V479H205Z" />
<glyph unicode="&#xed;" glyph-name="iacute" horiz-adv-x="269" d="M296 709L196 555H70L145 709H296ZM205 479V0H66V479H205Z" />
<glyph unicode="&#xee;" glyph-name="icircumflex" horiz-adv-x="269" d="M135 617L78 546H-48L69 703H200L317 546H191L135 617ZM205 479V0H66V479H205Z" />
<glyph unicode="&#xef;" glyph-name="idieresis" horiz-adv-x="269" d="M-8 709T27 709T86 686T110 629T86 573T27 550T-32 572T-56 629T-32 686ZM209 709T244 709T302 686T326 629T303 573T244 550T185 572T161 629T185 686ZM205 479V0H66V479H205Z" />
<glyph unicode="&#xf0;" glyph-name="eth" horiz-adv-x="588" d="M461 614L407 595Q550 446 550 239Q550 129 478 57T295 -15Q184 -15 111 57T38 239Q38 348 111 418T295 489Q323 489 345 482Q316 521 282 549L136 497L103 584L187 614Q144 639 92 663L226 720Q283
694 325 664L427 701L461 614ZM295 109Q348 109 380 146T413 239Q413 293 381 329T295 365Q241 365 208 329T175 239Q175 184 208 147T295 109Z" />
<glyph unicode="&#xf1;" glyph-name="ntilde" horiz-adv-x="601" d="M312 571L266 598Q241 609 233 601T224 574H116Q116 621 134 654T179 700T237 713T293 698L339 670Q355 660 364 663T377 675T381 694H489Q489 647 471 614T426 568T368 555T312 571ZM337 494Q432
494 489 431T547 263V0H408V251Q408 308 381 338T305 368Q249 368 200 308V0H61V479H200V445Q262 494 337 494Z" />
<glyph unicode="&#xf2;" glyph-name="ograve" horiz-adv-x="588" d="M295 709L369 555H243L143 709H295ZM295 489Q405 489 477 419T550 239Q550 129 478 57T295 -15Q184 -15 111 57T38 239Q38 348 111 418T295 489ZM295 109Q348 109 380 146T413 239Q413 293 381
329T295 365Q241 365 208 329T175 239Q175 184 208 147T295 109Z" />
<glyph unicode="&#xf3;" glyph-name="oacute" horiz-adv-x="588" d="M305 709H456L356 555H230L305 709ZM295 489Q405 489 477 419T550 239Q550 129 478 57T295 -15Q184 -15 111 57T38 239Q38 348 111 418T295 489ZM295 109Q348 109 380 146T413 239Q413 293 381
329T295 365Q241 365 208 329T175 239Q175 184 208 147T295 109Z" />
<glyph unicode="&#xf4;" glyph-name="ocircumflex" horiz-adv-x="588" d="M351 546L295 617L238 546H112L229 703H360L477 546H351ZM295 489Q405 489 477 419T550 239Q550 129 478 57T295 -15Q184 -15 111 57T38 239Q38 348 111 418T295 489ZM295 109Q348 109
380 146T413 239Q413 293 381 329T295 365Q241 365 208 329T175 239Q175 184 208 147T295 109Z" />
<glyph unicode="&#xf5;" glyph-name="otilde" horiz-adv-x="588" d="M375 694H483Q483 647 465 614T420 568T362 555T306 571L260 598Q235 609 227 601T218 574H110Q110 621 128 654T173 700T231 713T287 698L333 670Q349 660 358 663T371 675T375 694ZM295 489Q405
489 477 419T550 239Q550 129 478 57T295 -15Q184 -15 111 57T38 239Q38 348 111 418T295 489ZM295 109Q348 109 380 146T413 239Q413 293 381 329T295 365Q241 365 208 329T175 239Q175 184 208 147T295 109Z" />
<glyph unicode="&#xf6;" glyph-name="odieresis" horiz-adv-x="588" d="M152 709T187 709T246 686T270 629T246 573T187 550T128 572T104 629T128 686ZM369 709T404 709T462 686T486 629T463 573T404 550T345 572T321 629T345 686ZM295 489Q405 489 477 419T550
239Q550 129 478 57T295 -15Q184 -15 111 57T38 239Q38 348 111 418T295 489ZM295 109Q348 109 380 146T413 239Q413 293 381 329T295 365Q241 365 208 329T175 239Q175 184 208 147T295 109Z" />
<glyph unicode="&#xf7;" glyph-name="divide" horiz-adv-x="682" d="M374 452T341 452T286 473T263 527T285 580T341 602T397 581T420 527T397 474ZM99 393H583V270H99V393ZM373 66T341 66T286 88T263 141Q263 173 286 195T341 217Q374 217 397 195T420 141Q420
110 397 88Z" />
<glyph unicode="&#xf8;" glyph-name="oslash" horiz-adv-x="588" d="M515 436L490 406Q550 337 550 239Q550 129 478 57T295 -15Q225 -15 164 17L137 -15L69 40L97 73Q38 143 38 239Q38 348 111 418T295 489Q364 489 421 459L447 490L515 436ZM175 239Q175 207
187 180L336 358Q319 365 295 365Q241 365 208 329T175 239ZM295 109Q348 109 380 146T413 239Q413 270 400 299L248 118Q269 109 295 109Z" />
<glyph unicode="&#xf9;" glyph-name="ugrave" horiz-adv-x="601" d="M249 555L149 709H301L375 555H249ZM540 479V0H401V34Q339 -15 264 -15Q169 -15 112 48T54 215V479H193V228Q193 171 220 141T296 111Q352 111 401 171V479H540Z" />
<glyph unicode="&#xfa;" glyph-name="uacute" horiz-adv-x="601" d="M362 555H236L311 709H462L362 555ZM540 479V0H401V34Q339 -15 264 -15Q169 -15 112 48T54 215V479H193V228Q193 171 220 141T296 111Q352 111 401 171V479H540Z" />
<glyph unicode="&#xfb;" glyph-name="ucircumflex" horiz-adv-x="601" d="M244 546H118L235 703H366L483 546H357L301 617L244 546ZM540 479V0H401V34Q339 -15 264 -15Q169 -15 112 48T54 215V479H193V228Q193 171 220 141T296 111Q352 111 401 171V479H540Z" />
<glyph unicode="&#xfc;" glyph-name="udieresis" horiz-adv-x="601" d="M228 550T193 550T134 572T110 629T134 686T193 709T252 686T276 629T252 573ZM445 550T410 550T351 572T327 629T351 686T410 709T468 686T492 629T469 573ZM540 479V0H401V34Q339 -15 264
-15Q169 -15 112 48T54 215V479H193V228Q193 171 220 141T296 111Q352 111 401 171V479H540Z" />
<glyph unicode="&#xfd;" glyph-name="yacute" horiz-adv-x="635" d="M380 555H254L329 709H480L380 555ZM612 480L309 -230H163L256 -12L23 480H171L326 153L466 480H612Z" />
<glyph unicode="&#xfe;" glyph-name="thorn" horiz-adv-x="605" d="M336 489Q435 489 504 417T574 239Q574 135 505 63T336 -10Q259 -10 200 28V-231H61V680H200V451Q259 489 336 489ZM313 108Q366 108 401 146T437 239T402 332T313 372Q241 372 200 316V163Q242
108 313 108Z" />
<glyph unicode="&#xff;" glyph-name="ydieresis" horiz-adv-x="635" d="M246 550T211 550T152 572T128 629T152 686T211 709T270 686T294 629T270 573ZM463 550T428 550T369 572T345 629T369 686T428 709T486 686T510 629T487 573ZM612 480L309 -230H163L256 -12L23
480H171L326 153L466 480H612Z" />
<glyph unicode="&#x100;" glyph-name="Amacron" horiz-adv-x="755" d="M518 755H236V866H518V755ZM532 131H224L171 0H17L310 684H446L738 0H585L532 131ZM479 262L377 511L277 262H479Z" />
<glyph unicode="&#x101;" glyph-name="amacron" horiz-adv-x="613" d="M456 684V573H174V684H456ZM413 479H552V0H413V28Q354 -10 277 -10Q178 -10 108 62T38 239Q38 344 108 416T277 489Q354 489 413 451V479ZM300 108Q371 108 413 163V316Q372 372 300 372Q246
372 211 333T176 239Q176 185 211 147T300 108Z" />
<glyph unicode="&#x102;" glyph-name="Abreve" horiz-adv-x="755" d="M450 753T377 753T259 795T214 915H314Q314 845 377 845T440 915H540Q540 838 495 796ZM532 131H224L171 0H17L310 684H446L738 0H585L532 131ZM479 262L377 511L277 262H479Z" />
<glyph unicode="&#x103;" glyph-name="abreve" horiz-adv-x="613" d="M388 540T315 540T197 582T152 702H252Q252 632 315 632T378 702H478Q478 625 433 583ZM413 479H552V0H413V28Q354 -10 277 -10Q178 -10 108 62T38 239Q38 344 108 416T277 489Q354 489 413
451V479ZM300 108Q371 108 413 163V316Q372 372 300 372Q246 372 211 333T176 239Q176 185 211 147T300 108Z" />
<glyph unicode="&#x104;" glyph-name="Aogonek" horiz-adv-x="755" d="M736 -56L749 -158Q721 -171 674 -171Q607 -171 565 -139T523 -52Q523 -3 573 29L532 131H224L171 0H17L310 684H446L738 0H672Q638 -11 638 -34Q638 -62 692 -62Q709 -62 736 -56ZM479 262L377
511L277 262H479Z" />
<glyph unicode="&#x105;" glyph-name="aogonek" horiz-adv-x="613" d="M583 -61L596 -163Q568 -176 521 -176Q454 -176 412 -144T370 -57Q370 -13 413 19V28Q354 -10 277 -10Q178 -10 108 62T38 239Q38 344 108 416T277 489Q354 489 413 451V479H552V0H542Q485
-9 485 -39Q485 -67 539 -67Q556 -67 583 -61ZM300 108Q371 108 413 163V316Q372 372 300 372Q246 372 211 333T176 239Q176 185 211 147T300 108Z" />
<glyph unicode="&#x106;" glyph-name="Cacute" horiz-adv-x="792" d="M467 753H341L416 907H567L467 753ZM406 124Q479 124 527 163T593 275H741Q720 144 629 65T406 -14Q256 -14 154 86T51 340T153 593T406 694Q538 694 629 615T741 405H593Q575 478 527 517T406
556Q315 556 256 496T197 340T256 184T406 124Z" />
<glyph unicode="&#x107;" glyph-name="cacute" horiz-adv-x="574" d="M349 555H223L298 709H449L349 555ZM295 113Q335 113 362 133T397 188H536Q526 100 458 45T295 -11Q186 -11 112 60T38 239T112 417T295 489Q390 489 458 434T536 290H397Q389 325 362 345T295
366Q241 366 208 330T175 239T208 149T295 113Z" />
<glyph unicode="&#x10a;" glyph-name="Cdotaccent" horiz-adv-x="792" d="M441 747T406 747T347 770T322 828T346 885T406 908T465 885T490 828T466 771ZM406 124Q479 124 527 163T593 275H741Q720 144 629 65T406 -14Q256 -14 154 86T51 340T153 593T406 694Q538
694 629 615T741 405H593Q575 478 527 517T406 556Q315 556 256 496T197 340T256 184T406 124Z" />
<glyph unicode="&#x10b;" glyph-name="cdotaccent" horiz-adv-x="574" d="M323 549T288 549T229 572T204 630T228 687T288 710T347 687T372 630T348 573ZM295 113Q335 113 362 133T397 188H536Q526 100 458 45T295 -11Q186 -11 112 60T38 239T112 417T295 489Q390
489 458 434T536 290H397Q389 325 362 345T295 366Q241 366 208 330T175 239T208 149T295 113Z" />
<glyph unicode="&#x10c;" glyph-name="Ccaron" horiz-adv-x="792" d="M340 744L222 900H349L406 830L462 900H589L471 744H340ZM406 124Q479 124 527 163T593 275H741Q720 144 629 65T406 -14Q256 -14 154 86T51 340T153 593T406 694Q538 694 629 615T741 405H593Q575
478 527 517T406 556Q315 556 256 496T197 340T256 184T406 124Z" />
<glyph unicode="&#x10d;" glyph-name="ccaron" horiz-adv-x="574" d="M222 547L104 703H231L288 633L344 703H471L353 547H222ZM295 113Q335 113 362 133T397 188H536Q526 100 458 45T295 -11Q186 -11 112 60T38 239T112 417T295 489Q390 489 458 434T536 290H397Q389
325 362 345T295 366Q241 366 208 330T175 239T208 149T295 113Z" />
<glyph unicode="&#x10e;" glyph-name="Dcaron" horiz-adv-x="738" d="M273 744L155 900H282L339 830L395 900H522L404 744H273ZM67 680H332Q489 680 592 584T696 343Q696 195 593 98T332 0H67V680ZM212 133H332Q423 133 486 194T549 343Q549 429 486 488T332 548H212V133Z"
/>
<glyph unicode="&#x10f;" glyph-name="dcaron" horiz-adv-x="613" d="M413 710H552V0H413V28Q354 -10 277 -10Q178 -10 108 62T38 240Q38 344 108 416T277 489Q354 489 413 451V710ZM746 710L707 506H604L609 710H746ZM300 107Q372 107 413 163V316Q371 371 300
371Q246 371 211 333T176 240Q176 185 211 146T300 107Z" />
<glyph unicode="&#x110;" glyph-name="Dcroat" horiz-adv-x="738" d="M67 680H332Q489 680 592 584T696 343Q696 195 593 98T332 0H67V267H6V398H67V680ZM212 133H332Q423 133 486 194T549 343Q549 429 486 488T332 548H212V398H331V267H212V133Z" />
<glyph unicode="&#x111;" glyph-name="" horiz-adv-x="613" d="M586 544H552V0H413V28Q354 -10 277 -10Q178 -10 108 62T38 240Q38 344 108 416T277 489Q354 489 413 451V544H258V654H413V710H552V654H586V544ZM300 107Q372 107 413 163V316Q371 371 300 371Q246
371 211 333T176 240Q176 185 211 146T300 107Z" />
<glyph unicode="&#x112;" glyph-name="Emacron" horiz-adv-x="612" d="M456 755H174V866H456V755ZM212 549V401H530V270H212V131H571V0H67V680H571V549H212Z" />
<glyph unicode="&#x113;" glyph-name="emacron" horiz-adv-x="568" d="M433 684V573H151V684H433ZM530 249Q530 225 527 204H174Q194 104 298 104Q356 104 379 140H524Q504 71 442 28T295 -15Q181 -15 109 57T37 239Q37 351 107 422T291 494Q395 494 462 427T530
249ZM292 379Q197 379 175 286H392Q386 331 360 355T292 379Z" />
<glyph unicode="&#x116;" glyph-name="Edotaccent" horiz-adv-x="612" d="M350 747T315 747T256 770T231 828T255 885T315 908T374 885T399 828T375 771ZM212 549V401H530V270H212V131H571V0H67V680H571V549H212Z" />
<glyph unicode="&#x117;" glyph-name="edotaccent" horiz-adv-x="568" d="M327 549T292 549T233 572T208 630T232 687T292 710T351 687T376 630T352 573ZM530 249Q530 225 527 204H174Q194 104 298 104Q356 104 379 140H524Q504 71 442 28T295 -15Q181 -15 109
57T37 239Q37 351 107 422T291 494Q395 494 462 427T530 249ZM292 379Q197 379 175 286H392Q386 331 360 355T292 379Z" />
<glyph unicode="&#x118;" glyph-name="Eogonek" horiz-adv-x="612" d="M602 -61L615 -163Q587 -176 540 -176Q473 -176 431 -144T389 -57Q389 -25 411 0H67V680H571V549H212V401H530V270H212V131H571V0H561Q504 -9 504 -39Q504 -67 558 -67Q575 -67 602 -61Z" />
<glyph unicode="&#x119;" glyph-name="eogonek" horiz-adv-x="568" d="M530 249Q530 225 527 204H174Q194 104 298 104Q356 104 379 140H524Q504 69 439 26Q404 -5 404 -36Q404 -73 458 -73Q476 -73 502 -67L516 -169Q488 -182 441 -182Q373 -182 332 -150T291
-64Q291 -39 303 -15H295Q181 -15 109 57T37 239Q37 351 107 422T291 494Q395 494 462 427T530 249ZM292 379Q197 379 175 286H392Q386 331 360 355T292 379Z" />
<glyph unicode="&#x11a;" glyph-name="Ecaron" horiz-adv-x="612" d="M249 744L131 900H258L315 830L371 900H498L380 744H249ZM212 549V401H530V270H212V131H571V0H67V680H571V549H212Z" />
<glyph unicode="&#x11b;" glyph-name="ecaron" horiz-adv-x="568" d="M357 547H226L108 703H235L292 633L348 703H475L357 547ZM530 249Q530 225 527 204H174Q194 104 298 104Q356 104 379 140H524Q504 71 442 28T295 -15Q181 -15 109 57T37 239Q37 351 107 422T291
494Q395 494 462 427T530 249ZM292 379Q197 379 175 286H392Q386 331 360 355T292 379Z" />
<glyph unicode="&#x11e;" glyph-name="Gbreve" horiz-adv-x="814" d="M480 753T407 753T289 795T244 915H344Q344 845 407 845T470 915H570Q570 838 525 796ZM752 379V0H641L633 94Q556 -14 407 -14Q253 -14 152 87T51 331Q51 490 154 592T411 694Q530 694 623
629T744 442H590Q549 557 413 557Q317 557 257 496T197 332Q197 245 255 185T408 124Q477 124 525 158T596 251H395V379H752Z" />
<glyph unicode="&#x11f;" glyph-name="gbreve" horiz-adv-x="617" d="M393 540T320 540T202 582T157 702H257Q257 632 320 632T383 702H483Q483 625 438 583ZM418 479H556V6Q556 -105 488 -169T308 -234Q204 -234 134 -177T56 -27H196Q201 -65 230 -87T308 -110Q356
-110 387 -80T418 5V53Q361 16 282 16Q184 16 114 85T43 249Q43 356 112 425T282 494Q359 494 418 456V479ZM305 133Q377 133 418 190V319Q377 376 305 376Q250 376 216 341T181 249Q181 205 217 169T305 133Z" />
<glyph unicode="&#x120;" glyph-name="Gdotaccent" horiz-adv-x="814" d="M442 747T407 747T348 770T323 828T347 885T407 908T466 885T491 828T467 771ZM752 379V0H641L633 94Q556 -14 407 -14Q253 -14 152 87T51 331Q51 490 154 592T411 694Q530 694 623 629T744
442H590Q549 557 413 557Q317 557 257 496T197 332Q197 245 255 185T408 124Q477 124 525 158T596 251H395V379H752Z" />
<glyph unicode="&#x121;" glyph-name="gdotaccent" horiz-adv-x="617" d="M355 549T320 549T261 572T236 630T260 687T320 710T379 687T404 630T380 573ZM418 479H556V6Q556 -105 488 -169T308 -234Q204 -234 134 -177T56 -27H196Q201 -65 230 -87T308 -110Q356
-110 387 -80T418 5V53Q361 16 282 16Q184 16 114 85T43 249Q43 356 112 425T282 494Q359 494 418 456V479ZM305 133Q377 133 418 190V319Q377 376 305 376Q250 376 216 341T181 249Q181 205 217 169T305 133Z" />
<glyph unicode="&#x122;" glyph-name="Gcommaaccent" horiz-adv-x="814" d="M752 379V0H641L633 94Q556 -14 407 -14Q253 -14 152 87T51 331Q51 490 154 592T411 694Q530 694 623 629T744 442H590Q549 557 413 557Q317 557 257 496T197 332Q197 245 255 185T408
124Q477 124 525 158T596 251H395V379H752ZM407 -45Q439 -45 461 -66T484 -116Q484 -121 484 -125T483 -134T480 -142T475 -153T469 -165T459 -180T447 -199T432 -224T412 -255H338L376 -179Q331 -161 331 -116Q331 -87 353 -66T407 -45Z" />
<glyph unicode="&#x123;" glyph-name="gcommaaccent" horiz-adv-x="617" d="M320 524Q288 524 266 545T243 595Q243 600 243 604T244 613T247 621T252 632T258 644T268 659T280 678T295 703T315 734H390L351 658Q397 640 397 595Q397 566 374 545T320 524ZM418
479H556V6Q556 -105 488 -169T308 -234Q204 -234 134 -177T56 -27H196Q201 -65 230 -87T308 -110Q356 -110 387 -80T418 5V53Q361 16 282 16Q184 16 114 85T43 249Q43 356 112 425T282 494Q359 494 418 456V479ZM305 133Q377 133 418 190V319Q377 376 305 376Q250
376 216 341T181 249Q181 205 217 169T305 133Z" />
<glyph unicode="&#x126;" glyph-name="Hbar" horiz-adv-x="728" d="M702 480H661V0H516V266H212V0H67V480H16V592H67V680H212V592H516V680H661V592H702V480ZM516 480H212V398H516V480Z" />
<glyph unicode="&#x127;" glyph-name="hbar" horiz-adv-x="601" d="M337 494Q432 494 489 431T547 263V0H408V251Q408 308 381 338T305 368Q249 368 200 308V0H61V577H27V670H61V710H200V670H327V577H200V445Q262 494 337 494Z" />
<glyph unicode="&#x12a;" glyph-name="Imacron" horiz-adv-x="279" d="M281 866V755H-1V866H281ZM212 680V0H67V680H212Z" />
<glyph unicode="&#x12b;" glyph-name="imacron" horiz-adv-x="269" d="M276 684V573H-6V684H276ZM205 479V0H66V479H205Z" />
<glyph unicode="&#x12e;" glyph-name="Iogonek" horiz-adv-x="279" d="M243 -61L256 -163Q228 -176 181 -176Q114 -176 72 -144T30 -57Q30 -17 67 15V680H212V0H202Q145 -9 145 -39Q145 -67 199 -67Q216 -67 243 -61Z" />
<glyph unicode="&#x12f;" glyph-name="iogonek" horiz-adv-x="269" d="M170 568T135 568T76 591T51 648Q51 683 75 706T135 730T194 707T218 648Q218 614 194 591ZM235 -61L248 -163Q220 -176 173 -176Q106 -176 64 -144T22 -57Q22 -12 66 20V479H205V0H194Q137
-9 137 -39Q137 -67 191 -67Q208 -67 235 -61Z" />
<glyph unicode="&#x130;" glyph-name="Idot" horiz-adv-x="279" d="M140 751Q103 751 78 775T52 836Q52 871 77 895T140 920Q176 920 201 896T227 836Q227 800 202 776T140 751ZM212 680V0H67V680H212Z" />
<glyph unicode="&#x131;" glyph-name="dotlessi" horiz-adv-x="269" d="M205 479V0H66V479H205Z" />
<glyph unicode="&#x132;" glyph-name="IJ" horiz-adv-x="880" d="M212 680V0H67V680H212ZM821 680V260Q821 129 749 57T549 -15Q437 -15 365 49T288 228H434Q436 175 470 147T557 119Q609 119 642 157T675 263V680H821Z" />
<glyph unicode="&#x133;" glyph-name="ij" horiz-adv-x="534" d="M170 568T135 568T76 591T51 648Q51 683 75 706T135 730T194 707T218 648Q218 614 194 591ZM434 568T399 568T340 591T315 648Q315 683 339 706T399 730T458 707T483 648Q483 614 459 591ZM66 479H205V0H66V479ZM469
479V35Q469 -80 421 -135T247 -193L236 -74Q291 -69 310 -50T330 17V479H469Z" />
<glyph unicode="&#x136;" glyph-name="Kcommaaccent" horiz-adv-x="716" d="M707 0H527L318 271L212 151V0H67V680H212V347L508 680H680L416 381L707 0ZM358 -45Q390 -45 412 -66T435 -116Q435 -121 435 -125T434 -134T431 -142T426 -153T420 -165T410 -180T398
-199T383 -224T363 -255H289L327 -179Q282 -161 282 -116Q282 -87 304 -66T358 -45Z" />
<glyph unicode="&#x137;" glyph-name="kcommaaccent" horiz-adv-x="584" d="M579 0H404L277 180L200 99V0H61V710H200V280L385 479H558L372 281L579 0ZM292 -45Q324 -45 346 -66T369 -116Q369 -121 369 -125T368 -134T365 -142T360 -153T354 -165T344 -180T332
-199T317 -224T297 -255H223L261 -179Q215 -161 215 -116Q215 -87 238 -66T292 -45Z" />
<glyph unicode="&#x139;" glyph-name="Lacute" horiz-adv-x="581" d="M199 753H73L148 907H299L199 753ZM559 129V0H67V680H212V129H559Z" />
<glyph unicode="&#x13a;" glyph-name="lacute" horiz-adv-x="261" d="M292 940L192 786H66L141 940H292ZM200 710V0H61V710H200Z" />
<glyph unicode="&#x13b;" glyph-name="Lcommaaccent" horiz-adv-x="581" d="M559 129V0H67V680H212V129H559ZM327 -45Q359 -45 381 -66T404 -116Q404 -121 404 -125T403 -134T400 -142T395 -153T389 -165T379 -180T367 -199T352 -224T332 -255H258L296 -179Q250
-161 250 -116Q250 -87 273 -66T327 -45Z" />
<glyph unicode="&#x13c;" glyph-name="lcommaaccent" horiz-adv-x="261" d="M200 710V0H61V710H200ZM59 -255L97 -179Q51 -161 51 -116Q51 -87 74 -66T128 -45Q160 -45 182 -66T205 -116Q205 -121 205 -125T204 -134T201 -142T196 -153T190 -165T180 -180T168
-199T153 -224T133 -255H59Z" />
<glyph unicode="&#x13d;" glyph-name="Lcaron" horiz-adv-x="581" d="M559 129V0H67V680H212V129H559ZM426 476H323L328 680H465L426 476Z" />
<glyph unicode="&#x13e;" glyph-name="lcaron" horiz-adv-x="261" d="M200 710V0H61V710H200ZM376 710L337 506H234L239 710H376Z" />
<glyph unicode="&#x13f;" glyph-name="Ldot" horiz-adv-x="581" d="M559 129V0H67V680H212V129H559ZM434 271T399 271T340 294T316 352T340 409T399 432T458 409T483 352T459 295Z" />
<glyph unicode="&#x140;" glyph-name="ldot" horiz-adv-x="429" d="M200 710V0H61V710H200ZM340 255T305 255T246 278T222 336T246 393T305 416T364 393T389 336T365 279Z" />
<glyph unicode="&#x141;" glyph-name="Lslash" horiz-adv-x="581" d="M559 129V0H67V239L9 217V335L67 357V680H212V413L370 473V355L212 295V129H559Z" />
<glyph unicode="&#x142;" glyph-name="lslash" horiz-adv-x="261" d="M261 354L200 330V0H61V275L0 251V387L61 411V710H200V467L261 491V354Z" />
<glyph unicode="&#x143;" glyph-name="Nacute" horiz-adv-x="748" d="M436 753H310L385 907H536L436 753ZM681 680V0H569L212 413V0H67V680H176L536 256V680H681Z" />
<glyph unicode="&#x144;" glyph-name="nacute" horiz-adv-x="601" d="M362 555H236L311 709H462L362 555ZM337 494Q432 494 489 431T547 263V0H408V251Q408 308 381 338T305 368Q249 368 200 308V0H61V479H200V445Q262 494 337 494Z" />
<glyph unicode="&#x145;" glyph-name="Ncommaaccent" horiz-adv-x="748" d="M681 680V0H569L212 413V0H67V680H176L536 256V680H681ZM374 -45Q406 -45 428 -66T451 -116Q451 -121 451 -125T450 -134T447 -142T442 -153T436 -165T426 -180T414 -199T399 -224T379
-255H305L343 -179Q298 -161 298 -116Q298 -87 320 -66T374 -45Z" />
<glyph unicode="&#x146;" glyph-name="ncommaaccent" horiz-adv-x="601" d="M337 494Q432 494 489 431T547 263V0H408V251Q408 308 381 338T305 368Q249 368 200 308V0H61V479H200V445Q262 494 337 494ZM301 -45Q333 -45 355 -66T378 -116Q378 -121 378 -125T377
-134T374 -142T369 -153T363 -165T353 -180T341 -199T326 -224T306 -255H232L270 -179Q224 -161 224 -116Q224 -87 247 -66T301 -45Z" />
<glyph unicode="&#x147;" glyph-name="Ncaron" horiz-adv-x="748" d="M309 744L191 900H318L375 830L431 900H558L440 744H309ZM681 680V0H569L212 413V0H67V680H176L536 256V680H681Z" />
<glyph unicode="&#x148;" glyph-name="ncaron" horiz-adv-x="601" d="M235 547L117 703H244L301 633L357 703H484L366 547H235ZM337 494Q432 494 489 431T547 263V0H408V251Q408 308 381 338T305 368Q249 368 200 308V0H61V479H200V445Q262 494 337 494Z" />
<glyph unicode="&#x14c;" glyph-name="Omacron" horiz-adv-x="813" d="M547 866V755H265V866H547ZM406 694Q555 694 658 591T762 340T659 89T406 -14Q258 -14 155 89T51 340T154 591T406 694ZM406 121Q496 121 555 185T615 340T556 495T406 559Q317 559 257 495T197
340T257 185T406 121Z" />
<glyph unicode="&#x14d;" glyph-name="omacron" horiz-adv-x="588" d="M154 684H436V573H154V684ZM295 489Q405 489 477 419T550 239Q550 129 478 57T295 -15Q184 -15 111 57T38 239Q38 348 111 418T295 489ZM295 109Q348 109 380 146T413 239Q413 293 381 329T295
365Q241 365 208 329T175 239Q175 184 208 147T295 109Z" />
<glyph unicode="&#x150;" glyph-name="Ohungarumlaut" horiz-adv-x="813" d="M462 907L383 754H271L324 907H462ZM615 907L537 754H425L478 907H615ZM406 694Q555 694 658 591T762 340T659 89T406 -14Q258 -14 155 89T51 340T154 591T406 694ZM406 121Q496 121
555 185T615 340T556 495T406 559Q317 559 257 495T197 340T257 185T406 121Z" />
<glyph unicode="&#x151;" glyph-name="ohungarumlaut" horiz-adv-x="588" d="M212 709H350L271 556H159L212 709ZM366 709H503L425 556H313L366 709ZM295 489Q405 489 477 419T550 239Q550 129 478 57T295 -15Q184 -15 111 57T38 239Q38 348 111 418T295 489ZM295
109Q348 109 380 146T413 239Q413 293 381 329T295 365Q241 365 208 329T175 239Q175 184 208 147T295 109Z" />
<glyph unicode="&#x152;" glyph-name="OE" horiz-adv-x="980" d="M580 549V401H899V270H580V131H939V0H397Q234 0 129 96T23 340T128 584T397 680H939V549H580ZM436 135V545H397Q294 545 232 488T169 340T231 192T397 135H436Z" />
<glyph unicode="&#x153;" glyph-name="oe" horiz-adv-x="944" d="M906 249Q906 225 903 204H550Q570 104 675 104Q732 104 755 140H901Q881 70 818 28T671 -15Q555 -15 482 61Q408 -15 295 -15Q184 -15 111 57T38 239Q38 348 111 418T295 489Q407 489 479 417Q551
494 667 494Q771 494 838 427T906 249ZM668 379Q573 379 551 286H768Q762 331 736 355T668 379ZM295 109Q348 109 380 146T413 239Q413 293 381 329T295 365Q241 365 208 329T175 239Q175 184 208 147T295 109Z" />
<glyph unicode="&#x154;" glyph-name="Racute" horiz-adv-x="691" d="M368 753H242L317 907H468L368 753ZM349 211H212V0H67V680H357Q476 680 551 616T627 446Q627 377 593 324T498 241L671 0H498L349 211ZM212 344H352Q408 344 446 372T484 446T446 520T352 548H212V344Z"
/>
<glyph unicode="&#x155;" glyph-name="racute" horiz-adv-x="397" d="M276 555H150L225 709H376L276 555ZM200 479V425Q267 487 368 487V355Q259 351 200 286V0H61V479H200Z" />
<glyph unicode="&#x156;" glyph-name="Rcommaaccent" horiz-adv-x="691" d="M671 0H498L349 211H212V0H67V680H357Q476 680 551 616T627 446Q627 377 593 324T498 241L671 0ZM212 344H352Q408 344 446 372T484 446T446 520T352 548H212V344ZM344 -45Q376 -45 398
-66T421 -116Q421 -121 421 -125T420 -134T417 -142T412 -153T406 -165T396 -180T384 -199T369 -224T349 -255H275L313 -179Q268 -161 268 -116Q268 -87 290 -66T344 -45Z" />
<glyph unicode="&#x157;" glyph-name="rcommaaccent" horiz-adv-x="397" d="M200 479V425Q267 487 368 487V355Q259 351 200 286V0H61V479H200ZM126 -45Q158 -45 180 -66T203 -116Q203 -121 203 -125T202 -134T199 -142T194 -153T188 -165T178 -180T166 -199T151
-224T131 -255H57L95 -179Q49 -161 49 -116Q49 -87 72 -66T126 -45Z" />
<glyph unicode="&#x158;" glyph-name="Rcaron" horiz-adv-x="691" d="M241 744L123 900H250L307 830L363 900H490L372 744H241ZM349 211H212V0H67V680H357Q476 680 551 616T627 446Q627 377 593 324T498 241L671 0H498L349 211ZM212 344H352Q408 344 446 372T484
446T446 520T352 548H212V344Z" />
<glyph unicode="&#x159;" glyph-name="rcaron" horiz-adv-x="397" d="M149 547L31 703H158L215 633L271 703H398L280 547H149ZM200 479V425Q267 487 368 487V355Q259 351 200 286V0H61V479H200Z" />
<glyph unicode="&#x15a;" glyph-name="Sacute" horiz-adv-x="672" d="M346 907H497L397 753H271L346 907ZM335 695Q382 695 426 685T512 650T583 581T618 472H475Q460 574 345 574Q291 574 259 552T227 490Q227 457 251 439T324 411L408 394Q511 373 563 329T615
202Q615 104 541 45T345 -14Q220 -14 138 50T47 225H191Q199 173 242 143T353 112Q406 112 435 131T465 186Q465 241 380 256L269 278Q169 298 122 347T75 477Q75 575 146 635T335 695Z" />
<glyph unicode="&#x15b;" glyph-name="sacute" horiz-adv-x="508" d="M415 709L315 555H189L264 709H415ZM28 166L155 165Q166 94 255 94Q291 94 313 105T336 135Q336 167 289 174L186 192Q124 203 85 237T45 333Q45 407 101 449T252 492Q287 492 319 485T385
462T441 411T467 329L340 328Q338 358 314 373T252 388Q218 388 200 377T181 347Q181 312 238 302L325 288Q470 262 470 147Q470 69 410 27T254 -15Q161 -15 98 28T28 166Z" />
<glyph unicode="&#x15e;" glyph-name="Scedilla" horiz-adv-x="672" d="M335 695Q382 695 426 685T512 650T583 581T618 472H475Q460 574 345 574Q291 574 259 552T227 490Q227 457 251 439T324 411L408 394Q511 373 563 329T615 202Q615 104 541 45T345 -14Q220
-14 138 50T47 225H191Q199 173 242 143T353 112Q406 112 435 131T465 186Q465 241 380 256L269 278Q169 298 122 347T75 477Q75 575 146 635T335 695ZM420 -50L358 -211H239L285 -50H420Z" />
<glyph unicode="&#x15f;" glyph-name="scedilla" horiz-adv-x="508" d="M28 166L155 165Q166 94 255 94Q291 94 313 105T336 135Q336 167 289 174L186 192Q124 203 85 237T45 333Q45 407 101 449T252 492Q287 492 319 485T385 462T441 411T467 329L340 328Q338
358 314 373T252 388Q218 388 200 377T181 347Q181 312 238 302L325 288Q470 262 470 147Q470 69 410 27T254 -15Q161 -15 98 28T28 166ZM264 -211H145L191 -50H326L264 -211Z" />
<glyph unicode="&#x160;" glyph-name="Scaron" horiz-adv-x="672" d="M392 900H519L401 744H270L152 900H279L336 830L392 900ZM335 695Q382 695 426 685T512 650T583 581T618 472H475Q460 574 345 574Q291 574 259 552T227 490Q227 457 251 439T324 411L408 394Q511
373 563 329T615 202Q615 104 541 45T345 -14Q220 -14 138 50T47 225H191Q199 173 242 143T353 112Q406 112 435 131T465 186Q465 241 380 256L269 278Q169 298 122 347T75 477Q75 575 146 635T335 695Z" />
<glyph unicode="&#x161;" glyph-name="scaron" horiz-adv-x="508" d="M437 703L319 547H188L70 703H197L254 633L310 703H437ZM28 166L155 165Q166 94 255 94Q291 94 313 105T336 135Q336 167 289 174L186 192Q124 203 85 237T45 333Q45 407 101 449T252 492Q287
492 319 485T385 462T441 411T467 329L340 328Q338 358 314 373T252 388Q218 388 200 377T181 347Q181 312 238 302L325 288Q470 262 470 147Q470 69 410 27T254 -15Q161 -15 98 28T28 166Z" />
<glyph unicode="&#x162;" glyph-name="Tcedilla" horiz-adv-x="651" d="M625 548H398V0H253V548H26V680H625V548ZM262 -50H397L335 -211H216L262 -50Z" />
<glyph unicode="&#x163;" glyph-name="tcedilla" horiz-adv-x="457" d="M299 -15Q212 -15 160 41T107 191V362H6V479H107V650H245V479H418V362H245V192Q245 113 329 113Q360 113 410 126L428 7Q357 -15 299 -15ZM161 -211L207 -50H342L280 -211H161Z" />
<glyph unicode="&#x164;" glyph-name="Tcaron" horiz-adv-x="651" d="M260 744L142 900H269L326 830L382 900H509L391 744H260ZM625 548H398V0H253V548H26V680H625V548Z" />
<glyph unicode="&#x165;" glyph-name="tcaron" horiz-adv-x="457" d="M431 714L392 510H289L294 714H431ZM329 113Q360 113 410 126L428 7Q357 -15 299 -15Q212 -15 160 41T107 191V362H6V479H107V650H245V479H418V362H245V192Q245 113 329 113Z" />
<glyph unicode="&#x16a;" glyph-name="Umacron" horiz-adv-x="730" d="M506 866V755H224V866H506ZM672 680V309Q672 158 589 72T364 -15Q224 -15 141 71T58 309V680H202V308Q202 223 246 172T364 120Q438 120 483 171T528 308V680H672Z" />
<glyph unicode="&#x16b;" glyph-name="umacron" horiz-adv-x="601" d="M442 573H160V684H442V573ZM540 479V0H401V34Q339 -15 264 -15Q169 -15 112 48T54 215V479H193V228Q193 171 220 141T296 111Q352 111 401 171V479H540Z" />
<glyph unicode="&#x16e;" glyph-name="Uring" horiz-adv-x="730" d="M312 978T365 978T450 948T483 868T451 788T365 758T280 788T247 868T279 948ZM346 825T365 825T396 836T408 868T396 899T365 911T334 900T322 868T334 837ZM672 680V309Q672 158 589 72T364
-15Q224 -15 141 71T58 309V680H202V308Q202 223 246 172T364 120Q438 120 483 171T528 308V680H672Z" />
<glyph unicode="&#x16f;" glyph-name="uring" horiz-adv-x="601" d="M354 543T301 543T216 573T183 653T215 733T301 763T386 733T419 653T387 573ZM320 696T301 696T270 684T258 653T270 622T301 610T332 622T344 653T332 684ZM540 479V0H401V34Q339 -15 264
-15Q169 -15 112 48T54 215V479H193V228Q193 171 220 141T296 111Q352 111 401 171V479H540Z" />
<glyph unicode="&#x170;" glyph-name="Uhungarumlaut" horiz-adv-x="730" d="M421 907L342 754H230L283 907H421ZM574 907L496 754H384L437 907H574ZM672 680V309Q672 158 589 72T364 -15Q224 -15 141 71T58 309V680H202V308Q202 223 246 172T364 120Q438 120
483 171T528 308V680H672Z" />
<glyph unicode="&#x171;" glyph-name="uhungarumlaut" horiz-adv-x="601" d="M277 556H165L218 709H356L277 556ZM319 556L372 709H509L431 556H319ZM540 479V0H401V34Q339 -15 264 -15Q169 -15 112 48T54 215V479H193V228Q193 171 220 141T296 111Q352 111 401
171V479H540Z" />
<glyph unicode="&#x172;" glyph-name="Uogonek" horiz-adv-x="730" d="M672 680V309Q672 206 632 132T519 20Q447 -32 447 -73Q447 -108 497 -108Q516 -108 541 -101L554 -215Q528 -225 479 -225Q412 -225 373 -193T333 -108Q333 -62 377 -15H364Q224 -15 141
71T58 309V680H202V308Q202 223 246 172T364 120Q438 120 483 171T528 308V680H672Z" />
<glyph unicode="&#x173;" glyph-name="uogonek" horiz-adv-x="601" d="M572 -62L585 -164Q557 -177 510 -177Q443 -177 401 -145T359 -58Q359 -14 401 18V34Q339 -15 264 -15Q169 -15 112 48T54 215V479H193V228Q193 171 220 141T296 111Q352 111 401 171V479H540V0H537Q474
-9 474 -40Q474 -68 528 -68Q545 -68 572 -62Z" />
<glyph unicode="&#x174;" glyph-name="Wcircumflex" horiz-adv-x="1081" d="M484 754H358L475 911H606L723 754H597L541 825L484 754ZM1053 680L830 -4H689L540 429L392 -4H250L28 680H180L323 222L480 680H601L758 222L901 680H1053Z" />
<glyph unicode="&#x175;" glyph-name="wcircumflex" horiz-adv-x="799" d="M343 546H217L334 703H465L582 546H456L400 617L343 546ZM785 479L610 0H487L400 264L312 0H190L15 479H164L252 212L342 479H457L548 211L636 479H785Z" />
<glyph unicode="&#x176;" glyph-name="Ycircumflex" horiz-adv-x="703" d="M295 754H169L286 911H417L534 754H408L352 825L295 754ZM694 680L425 219V0H279V219L8 680H168L351 365L534 680H694Z" />
<glyph unicode="&#x177;" glyph-name="ycircumflex" horiz-adv-x="635" d="M262 546H136L253 703H384L501 546H375L319 617L262 546ZM612 480L309 -230H163L256 -12L23 480H171L326 153L466 480H612Z" />
<glyph unicode="&#x178;" glyph-name="Ydieresis" horiz-adv-x="703" d="M278 748T243 748T184 770T160 827T184 884T243 907T302 884T326 827T302 771ZM495 748T460 748T401 770T377 827T401 884T460 907T518 884T542 827T519 771ZM694 680L425 219V0H279V219L8
680H168L351 365L534 680H694Z" />
<glyph unicode="&#x179;" glyph-name="Zacute" horiz-adv-x="654" d="M389 753H263L338 907H489L389 753ZM613 130V0H39V68L398 550H55V680H608V612L265 130H613Z" />
<glyph unicode="&#x17a;" glyph-name="zacute" horiz-adv-x="502" d="M412 709L312 555H186L261 709H412ZM470 479V405L236 115H470V0H31V65L273 364H37V479H470Z" />
<glyph unicode="&#x17b;" glyph-name="Zdotaccent" horiz-adv-x="654" d="M363 747T328 747T269 770T244 828T268 885T328 908T387 885T412 828T388 771ZM613 130V0H39V68L398 550H55V680H608V612L265 130H613Z" />
<glyph unicode="&#x17c;" glyph-name="zdotaccent" horiz-adv-x="502" d="M286 549T251 549T192 572T167 630T191 687T251 710T310 687T335 630T311 573ZM470 479V405L236 115H470V0H31V65L273 364H37V479H470Z" />
<glyph unicode="&#x17d;" glyph-name="Zcaron" horiz-adv-x="654" d="M262 744L144 900H271L328 830L384 900H511L393 744H262ZM613 130V0H39V68L398 550H55V680H608V612L265 130H613Z" />
<glyph unicode="&#x17e;" glyph-name="zcaron" horiz-adv-x="502" d="M316 547H185L67 703H194L251 633L307 703H434L316 547ZM470 479V405L236 115H470V0H31V65L273 364H37V479H470Z" />
<glyph unicode="&#x192;" glyph-name="florin" horiz-adv-x="586" d="M458 557Q376 557 365 469L353 379H517V264H337L315 100Q301 -1 248 -58T107 -116Q49 -116 -11 -100L8 21Q44 12 79 12Q161 12 172 100L194 264H66V379H209L221 469Q235 570 288 627T430 685Q490
685 548 668L529 548Q486 557 458 557Z" />
<glyph unicode="&#x1cd;" glyph-name="Acaron" horiz-adv-x="755" d="M311 744L193 900H320L377 830L433 900H560L442 744H311ZM532 131H224L171 0H17L310 684H446L738 0H585L532 131ZM479 262L377 511L277 262H479Z" />
<glyph unicode="&#x1ce;" glyph-name="acaron" horiz-adv-x="613" d="M380 547H249L131 703H258L315 633L371 703H498L380 547ZM413 479H552V0H413V28Q354 -10 277 -10Q178 -10 108 62T38 239Q38 344 108 416T277 489Q354 489 413 451V479ZM300 108Q371 108 413
163V316Q372 372 300 372Q246 372 211 333T176 239Q176 185 211 147T300 108Z" />
<glyph unicode="&#x218;" glyph-name="Scommaaccent" horiz-adv-x="672" d="M335 695Q382 695 426 685T512 650T583 581T618 472H475Q460 574 345 574Q291 574 259 552T227 490Q227 457 251 439T324 411L408 394Q511 373 563 329T615 202Q615 104 541 45T345 -14Q220
-14 138 50T47 225H191Q199 173 242 143T353 112Q406 112 435 131T465 186Q465 241 380 256L269 278Q169 298 122 347T75 477Q75 575 146 635T335 695ZM258 -255L296 -179Q250 -161 250 -116Q250 -87 273 -66T327 -45Q359 -45 381 -66T404 -116Q404 -121 404 -125T403
-134T400 -142T395 -153T389 -165T379 -180T367 -199T352 -224T332 -255H258Z" />
<glyph unicode="&#x219;" glyph-name="scommaaccent" horiz-adv-x="508" d="M28 166L155 165Q166 94 255 94Q291 94 313 105T336 135Q336 167 289 174L186 192Q124 203 85 237T45 333Q45 407 101 449T252 492Q287 492 319 485T385 462T441 411T467 329L340 328Q338
358 314 373T252 388Q218 388 200 377T181 347Q181 312 238 302L325 288Q470 262 470 147Q470 69 410 27T254 -15Q161 -15 98 28T28 166ZM163 -255L201 -179Q155 -161 155 -116Q155 -87 178 -66T232 -45Q264 -45 286 -66T309 -116Q309 -121 309 -125T308 -134T305
-142T300 -153T294 -165T284 -180T272 -199T257 -224T237 -255H163Z" />
<glyph unicode="&#x21a;" glyph-name="uni021A" horiz-adv-x="651" d="M625 548H398V0H253V548H26V680H625V548ZM303 -45Q335 -45 357 -66T380 -116Q380 -121 380 -125T379 -134T376 -142T371 -153T365 -165T355 -180T343 -199T328 -224T308 -255H234L272 -179Q226
-161 226 -116Q226 -87 249 -66T303 -45Z" />
<glyph unicode="&#x21b;" glyph-name="uni021B" horiz-adv-x="457" d="M410 126L428 7Q357 -15 299 -15Q212 -15 160 41T107 191V362H6V479H107V650H245V479H418V362H245V192Q245 113 329 113Q360 113 410 126ZM248 -45Q280 -45 302 -66T325 -116Q325 -121 325
-125T324 -134T321 -142T316 -153T310 -165T300 -180T288 -199T273 -224T253 -255H179L217 -179Q171 -161 171 -116Q171 -87 194 -66T248 -45Z" />
<glyph unicode="&#x2c6;" glyph-name="circumflex" horiz-adv-x="600" d="M301 618L244 547H118L235 704H366L483 547H357L301 618Z" />
<glyph unicode="&#x2c7;" glyph-name="caron" horiz-adv-x="600" d="M484 703L366 547H235L117 703H244L301 633L357 703H484Z" />
<glyph unicode="&#x2d8;" glyph-name="breve" horiz-adv-x="600" d="M363 698H463Q463 621 418 579T300 536T182 578T137 698H237Q237 628 300 628T363 698Z" />
<glyph unicode="&#x2d9;" glyph-name="dotaccent" horiz-adv-x="600" d="M335 549T300 549T241 572T216 630T240 687T300 710T359 687T384 630T360 573Z" />
<glyph unicode="&#x2da;" glyph-name="ring" horiz-adv-x="600" d="M244 763T297 763T382 733T415 653T383 573T297 543T212 573T179 653T211 733ZM278 610T297 610T328 622T340 653T328 684T297 696T266 684T254 653T266 622Z" />
<glyph unicode="&#x2db;" glyph-name="ogonek" horiz-adv-x="600" d="M358 65L371 6Q308 -3 308 -34Q308 -62 362 -62Q379 -62 406 -56L419 -158Q391 -171 344 -171Q277 -171 235 -139T193 -52Q193 -8 236 25T358 65Z" />
<glyph unicode="&#x2dc;" glyph-name="tilde" horiz-adv-x="600" d="M381 694H489Q489 647 471 614T426 568T368 555T312 571L266 598Q241 609 233 601T224 574H116Q116 621 134 654T179 700T237 713T293 698L339 670Q355 660 364 663T377 675T381 694Z" />
<glyph unicode="&#x2dd;" glyph-name="hungarumlaut" horiz-adv-x="600" d="M354 709L275 556H163L216 709H354ZM507 709L429 556H317L370 709H507Z" />
<glyph unicode="&#x326;" glyph-name="uni0326" horiz-adv-x="0" d="M228 -255L266 -179Q220 -161 220 -116Q220 -87 243 -66T297 -45Q329 -45 351 -66T374 -116Q374 -121 374 -125T373 -134T370 -142T365 -153T359 -165T349 -180T337 -199T322 -224T302 -255H228Z" />
<glyph unicode="&#x1e80;" glyph-name="Wgrave" horiz-adv-x="1081" d="M491 753L391 907H543L617 753H491ZM1053 680L830 -4H689L540 429L392 -4H250L28 680H180L323 222L480 680H601L758 222L901 680H1053Z" />
<glyph unicode="&#x1e81;" glyph-name="wgrave" horiz-adv-x="799" d="M348 555L248 709H400L474 555H348ZM785 479L610 0H487L400 264L312 0H190L15 479H164L252 212L342 479H457L548 211L636 479H785Z" />
<glyph unicode="&#x1e82;" glyph-name="Wacute" horiz-adv-x="1081" d="M602 753H476L551 907H702L602 753ZM1053 680L830 -4H689L540 429L392 -4H250L28 680H180L323 222L480 680H601L758 222L901 680H1053Z" />
<glyph unicode="&#x1e83;" glyph-name="wacute" horiz-adv-x="799" d="M461 555H335L410 709H561L461 555ZM785 479L610 0H487L400 264L312 0H190L15 479H164L252 212L342 479H457L548 211L636 479H785Z" />
<glyph unicode="&#x1e84;" glyph-name="Wdieresis" horiz-adv-x="1081" d="M467 748T432 748T373 770T349 827T373 884T432 907T491 884T515 827T491 771ZM684 748T649 748T590 770T566 827T590 884T649 907T707 884T731 827T708 771ZM1053 680L830 -4H689L540
429L392 -4H250L28 680H180L323 222L480 680H601L758 222L901 680H1053Z" />
<glyph unicode="&#x1e85;" glyph-name="wdieresis" horiz-adv-x="799" d="M327 550T292 550T233 572T209 629T233 686T292 709T351 686T375 629T351 573ZM544 550T509 550T450 572T426 629T450 686T509 709T567 686T591 629T568 573ZM785 479L610 0H487L400 264L312
0H190L15 479H164L252 212L342 479H457L548 211L636 479H785Z" />
<glyph unicode="&#x1ef2;" glyph-name="Ygrave" horiz-adv-x="703" d="M302 753L202 907H354L428 753H302ZM694 680L425 219V0H279V219L8 680H168L351 365L534 680H694Z" />
<glyph unicode="&#x1ef3;" glyph-name="ygrave" horiz-adv-x="635" d="M266 555L166 709H318L392 555H266ZM612 480L309 -230H163L256 -12L23 480H171L326 153L466 480H612Z" />
<glyph unicode="&#x2013;" glyph-name="endash" horiz-adv-x="695" d="M596 192V329H99V192H596Z" />
<glyph unicode="&#x2014;" glyph-name="emdash" horiz-adv-x="1056" d="M957 192V329H99V192H957Z" />
<glyph unicode="&#x2018;" glyph-name="quoteleft" horiz-adv-x="222" d="M193 679L144 575Q192 554 192 509Q192 476 169 454T111 431Q76 431 53 453T29 509Q29 535 56 583L112 679H193Z" />
<glyph unicode="&#x2019;" glyph-name="quoteright" horiz-adv-x="222" d="M29 441L78 546Q30 566 30 612Q30 644 53 666T111 689T169 667T193 612Q193 585 166 538L110 441H29Z" />
<glyph unicode="&#x201a;" glyph-name="quotesinglbase" horiz-adv-x="222" d="M29 -109L78 -5Q30 16 30 61Q30 94 53 116T111 139Q146 139 169 117T193 61Q193 34 166 -13L110 -109H29Z" />
<glyph unicode="&#x201c;" glyph-name="quotedblleft" horiz-adv-x="416" d="M193 679L144 575Q192 554 192 509Q192 476 169 454T111 431Q76 431 53 453T29 509Q29 535 56 583L112 679H193ZM387 679L338 575Q386 555 386 509Q386 476 363 454T305 431T247 453T223
509Q223 535 251 583L306 679H387Z" />
<glyph unicode="&#x201d;" glyph-name="quotedblright" horiz-adv-x="416" d="M29 441L78 546Q30 566 30 612Q30 644 53 666T111 689T169 667T193 612Q193 585 166 538L110 441H29ZM223 441L272 546Q224 566 224 612Q224 644 248 666T305 689Q339 689 363 667T387
612Q387 585 360 538L304 441H223Z" />
<glyph unicode="&#x201e;" glyph-name="quotedblbase" horiz-adv-x="419" d="M29 -109L78 -5Q30 16 30 61Q30 94 53 116T111 139Q146 139 169 117T193 61Q193 34 166 -13L110 -109H29ZM226 -109L275 -5Q227 16 227 61Q227 94 250 116T308 139Q343 139 366 117T390
61Q390 34 363 -13L307 -109H226Z" />
<glyph unicode="&#x2020;" glyph-name="dagger" horiz-adv-x="407" d="M248 515V300H159V515H44V604H159V719H248V604H363V515H248Z" />
<glyph unicode="&#x2021;" glyph-name="daggerdbl" horiz-adv-x="407" d="M248 485H363V395H248V300H159V395H44V485H159V538H44V627H159V719H248V627H363V538H248V485Z" />
<glyph unicode="&#x2022;" glyph-name="bullet" horiz-adv-x="341" d="M170 157Q114 157 72 199T29 297T71 395T170 437Q227 437 269 395T312 297T270 199T170 157Z" />
<glyph unicode="&#x2026;" glyph-name="ellipsis" horiz-adv-x="699" d="M111 -19Q77 -19 53 4T29 61Q29 94 53 117T111 140Q146 140 170 118T194 61T170 4T111 -19ZM346 -19Q312 -19 288 4T264 61Q264 94 288 117T346 140Q381 140 405 118T429 61T405 4T346 -19ZM587
-19Q553 -19 529 4T505 61Q505 94 529 117T587 140Q622 140 646 118T670 61T646 4T587 -19Z" />
<glyph unicode="&#x2030;" glyph-name="perthousand" horiz-adv-x="1548" d="M276 695Q362 695 419 641T477 499Q477 411 420 356T276 301Q189 301 132 356T75 499Q75 586 132 640T276 695ZM353 0H258L720 680H816L353 0ZM234 397T276 397T346 425T375 499Q375
543 346 571T276 599Q234 599 205 571T176 499Q176 454 205 426ZM811 379Q898 379 955 325T1012 183Q1012 95 955 40T811 -15Q725 -15 668 40T611 183Q611 270 668 324T811 379ZM1272 379Q1359 379 1416 325T1473 183Q1473 95 1416 40T1272 -15Q1186 -15 1129 40T1071
183Q1071 270 1128 324T1272 379ZM769 81T811 81T882 109T911 183Q911 227 882 255T811 283Q770 283 741 255T712 183Q712 138 740 110ZM1230 81T1272 81T1343 109T1372 183Q1372 227 1343 255T1272 283Q1231 283 1202 255T1173 183Q1173 138 1201 110Z" />
<glyph unicode="&#x2039;" glyph-name="guilsinglleft" horiz-adv-x="272" d="M248 408L155 252L248 96H117L24 252L117 408H248Z" />
<glyph unicode="&#x203a;" glyph-name="guilsinglright" horiz-adv-x="273" d="M248 252L156 96H25L118 252L25 408H156L248 252Z" />
<glyph unicode="&#x2044;" glyph-name="fraction" horiz-adv-x="505" d="M69 0H-26L436 680H531L69 0Z" />
<glyph unicode="&#x2070;" glyph-name="zerosuperior" horiz-adv-x="453" d="M226 701Q318 701 371 641T424 487T371 333T226 273Q135 273 82 333T29 487T82 640T226 701ZM180 367T226 367T296 401T320 487T296 573T226 607T156 573T132 487T156 401Z" />
<glyph unicode="&#x2074;" glyph-name="foursuperior" horiz-adv-x="419" d="M389 360H338V286H238V360H25V425L140 695H245L144 449H238V555H338V449H389V360Z" />
<glyph unicode="&#x2075;" glyph-name="fivesuperior" horiz-adv-x="396" d="M158 554H202Q275 554 313 517T352 419Q352 357 309 317T195 277Q127 277 85 311T34 402H135Q150 365 196 365Q223 365 239 380T256 417Q256 468 198 468H64V695H336V603H158V554Z" />
<glyph unicode="&#x2076;" glyph-name="sixsuperior" horiz-adv-x="392" d="M292 695L213 570Q280 566 321 526T362 426Q362 363 316 320T197 277T77 320T29 424Q29 466 70 531L172 695H292ZM197 360Q225 360 243 377T262 421Q262 449 244 466T196 484Q168 484
148 467Q129 438 129 423Q129 397 148 379T197 360Z" />
<glyph unicode="&#x2077;" glyph-name="sevensuperior" horiz-adv-x="343" d="M324 695V633L162 286H47L193 598H19V695H324Z" />
<glyph unicode="&#x2078;" glyph-name="eightsuperior" horiz-adv-x="413" d="M315 498Q375 464 375 399Q375 343 330 308T206 273Q129 273 84 308T38 399Q38 465 98 498Q54 528 54 580Q54 634 96 667T206 700Q274 700 316 667T358 580Q358 527 315 498ZM228 621T206
621T169 608T154 574Q154 552 169 539T206 525T243 538T258 574Q258 595 243 608ZM181 358T206 358T246 371T262 406T247 441T206 455T166 442T150 406T165 371Z" />
<glyph unicode="&#x2079;" glyph-name="ninesuperior" horiz-adv-x="392" d="M195 701Q267 701 314 658T362 555Q362 512 321 447L219 283H99L178 408Q111 412 70 452T29 552Q29 615 75 658T195 701ZM195 494Q223 494 243 511Q262 540 262 555Q262 581 243 599T195
618Q167 618 148 601T129 557Q129 529 147 512T195 494Z" />
<glyph unicode="&#x2080;" glyph-name="zeroinferior" horiz-adv-x="453" d="M226 239Q318 239 371 179T424 25T371 -129T226 -189Q135 -189 82 -129T29 25T82 178T226 239ZM180 -96T226 -96T296 -62T320 25T296 111T226 145T156 111T132 25T156 -61Z" />
<glyph unicode="&#x2081;" glyph-name="oneinferior" horiz-adv-x="340" d="M335 -95V-180H29V-95H135V121L33 92V181L176 229H232V-95H335Z" />
<glyph unicode="&#x2082;" glyph-name="twoinferior" horiz-adv-x="369" d="M340 -95V-180H36V-128L182 30Q232 81 232 109Q232 127 220 137T187 148Q136 148 134 96H34Q35 160 75 199T186 238Q256 238 295 203T334 116Q334 59 266 -17L195 -95H340Z" />
<glyph unicode="&#x2083;" glyph-name="threeinferior" horiz-adv-x="382" d="M294 26Q347 -2 347 -62Q347 -117 305 -153T194 -190Q126 -190 84 -156T32 -60H133Q147 -102 194 -102Q219 -102 234 -91T250 -61Q250 -19 182 -19H150V62H182Q207 62 222 74T237 106T225
136T190 147Q169 147 157 135T143 105H42Q47 165 86 200T190 235Q256 235 294 200T333 108Q333 54 294 26Z" />
<glyph unicode="&#x2084;" glyph-name="fourinferior" horiz-adv-x="419" d="M389 -106H338V-180H238V-106H25V-41L140 229H245L144 -17H238V89H338V-17H389V-106Z" />
<glyph unicode="&#x2085;" glyph-name="fiveinferior" horiz-adv-x="396" d="M158 88H202Q275 88 313 51T352 -47Q352 -109 309 -149T195 -189Q127 -189 85 -155T34 -64H135Q150 -101 196 -101Q223 -101 239 -86T256 -49Q256 2 198 2H64V229H336V137H158V88Z" />
<glyph unicode="&#x2086;" glyph-name="sixinferior" horiz-adv-x="392" d="M292 229L213 104Q280 100 321 60T362 -40Q362 -103 316 -146T197 -189T77 -146T29 -43Q29 0 70 65L172 229H292ZM197 -106Q225 -106 243 -89T262 -45Q262 -17 244 0T196 18Q168 18 148
1Q129 -28 129 -43Q129 -69 148 -87T197 -106Z" />
<glyph unicode="&#x2087;" glyph-name="seveninferior" horiz-adv-x="343" d="M324 229V167L162 -180H47L193 132H19V229H324Z" />
<glyph unicode="&#x2088;" glyph-name="eightinferior" horiz-adv-x="413" d="M315 36Q375 2 375 -63Q375 -119 330 -154T206 -189Q129 -189 84 -154T38 -63Q38 3 98 36Q54 66 54 118Q54 172 96 205T206 238Q274 238 316 205T358 118Q358 65 315 36ZM228 158T206
158T169 146T154 112Q154 90 169 77T206 63T243 76T258 112Q258 133 243 145ZM181 -104T206 -104T246 -91T262 -56T247 -21T206 -7T166 -20T150 -56T165 -91Z" />
<glyph unicode="&#x2089;" glyph-name="nineinferior" horiz-adv-x="392" d="M195 239Q267 239 314 196T362 93Q362 50 321 -15L219 -179H99L178 -54Q111 -50 70 -10T29 90Q29 153 75 196T195 239ZM195 32Q223 32 243 49Q262 77 262 93Q262 119 243 137T195 156Q167
156 148 139T129 95Q129 67 147 50T195 32Z" />
<glyph unicode="&#x20ac;" glyph-name="Euro" horiz-adv-x="855" d="M469 124Q542 124 590 163T656 275H805Q783 144 692 65T470 -14Q355 -14 265 47T136 211H39V302H116Q114 326 114 340V359H39V450H130Q164 560 256 627T470 694Q601 694 692 615T805 405H656Q639
478 591 517T469 556Q408 556 360 528T286 450H538L514 359H261L260 340Q260 320 263 302H501L479 211H297Q356 124 469 124Z" />
<glyph unicode="&#x2116;" glyph-name="uni2116" horiz-adv-x="1375" d="M1053 181Q942 181 870 253T797 435Q797 544 869 614T1053 685Q1163 685 1235 615T1308 435Q1308 325 1236 253T1053 181ZM536 256V680H681V0H569L212 413V0H67V680H176L536 256ZM1053 561Q999
561 966 525T933 435Q933 379 966 342T1053 305Q1106 305 1139 342T1172 435Q1172 489 1139 525T1053 561ZM811 0V117H1293V0H811Z" />
<glyph unicode="&#x2117;" glyph-name="uni2117" horiz-adv-x="829" d="M265 695T415 695T672 593T779 340T672 87T415 -15T158 87T51 340T158 593ZM525 608T414 608T223 530T142 340T222 150T414 72T606 150T687 340T606 530ZM302 506H438Q496 506 531 475T566
393T531 313T436 283H382V196H302V506ZM382 432V354H437Q483 354 483 394Q483 411 471 421T437 432H382Z" />
<glyph unicode="&#x2122;" glyph-name="trademark" horiz-adv-x="699" d="M295 679V606H200V387H124V606H29V679H295ZM655 679V387H578V526L508 421H467V422L396 528L397 387H321V679H377L488 519L598 679H655Z" />
<glyph unicode="&#x215b;" glyph-name="oneeighth" horiz-adv-x="968" d="M29 271V356H135V572L33 543V632L176 680H232V356H335V271H29ZM760 680L298 0H202L665 680H760ZM871 216Q930 182 930 117Q930 61 885 26T762 -9T639 26T593 117Q593 181 653 216Q609 246
609 298Q609 352 651 385T762 418Q829 418 871 385T914 298Q914 246 871 216ZM762 338Q739 338 724 326T709 292Q709 270 724 257T762 243Q784 243 799 256T814 292Q814 313 799 325T762 338ZM737 76T762 76T802 89T817 124T802 159T762 173T722 160T706 124T721
89Z" />
<glyph unicode="&#x215c;" glyph-name="threeeighths" horiz-adv-x="944" d="M349 393Q349 338 307 302T196 265Q128 265 86 299T34 395H135Q149 353 196 353Q221 353 236 364T252 394Q252 436 184 436H152V517H184Q209 517 224 529T239 561T227 591T192 602Q171
602 159 590T145 560H44Q49 620 88 655T192 690Q258 690 296 655T335 563Q335 509 296 481Q349 453 349 393ZM736 680L274 0H179L641 680H736ZM847 216Q906 182 906 117Q906 61 861 26T738 -9T615 26T569 117Q569 181 629 216Q585 246 585 298Q585 352 627 385T738
418Q805 418 847 385T890 298Q890 246 847 216ZM760 338T738 338T701 326T686 292Q686 270 701 257T738 243T775 256T790 292Q790 313 775 325ZM713 76T738 76T778 89T794 124T779 159T738 173T698 160T682 124T697 89Z" />
<glyph unicode="&#x215d;" glyph-name="fiveeighths" horiz-adv-x="949" d="M352 404Q352 342 309 302T195 262Q127 262 85 296T34 387H135Q150 350 196 350Q223 350 239 365T256 402Q256 453 198 453H64V680H336V588H158V539H202Q275 539 313 502T352 404ZM742
680L279 0H184L646 680H742ZM852 216Q911 182 911 117Q911 61 866 26T743 -9Q666 -9 621 26T575 117Q575 183 635 216Q591 246 591 298Q591 352 633 385T743 418T853 385T895 298Q895 246 852 216ZM765 338T743 338T706 326T691 292Q691 270 706 257T743 243T780
256T795 292Q795 313 780 325ZM718 76T743 76T783 89T799 124T784 159T743 173T703 160T687 124T702 89Z" />
<glyph unicode="&#x215e;" glyph-name="seveneighths" horiz-adv-x="863" d="M65 271L211 583H37V680H342V618L180 271H65ZM655 680L193 0H98L560 680H655ZM766 216Q825 182 825 117Q825 61 780 26T657 -9T534 26T488 117Q488 183 549 216Q505 246 505 298Q505
352 547 385T657 418Q724 418 766 385T809 298Q809 246 766 216ZM679 338T657 338T620 326T605 292Q605 270 620 257T657 243T694 256T709 292Q709 313 694 325ZM632 76T657 76T697 89T713 124T698 159T657 173T617 160T601 124T616 89Z" />
<glyph unicode="&#x2190;" glyph-name="arrowleft" horiz-adv-x="766" d="M274 276L469 87L378 -4L34 341L378 686L469 595L275 407H726V276H274Z" />
<glyph unicode="&#x2191;" glyph-name="arrowup" horiz-adv-x="779" d="M325 452L135 257L45 348L390 692L734 348L644 257L455 451V0H325V452Z" />
<glyph unicode="&#x2192;" glyph-name="arrowright" horiz-adv-x="766" d="M40 407H491L297 595L388 686L732 341L388 -4L297 87L492 276H40V407Z" />
<glyph unicode="&#x2193;" glyph-name="arrowdown" horiz-adv-x="779" d="M455 680V229L644 423L734 332L390 -12L45 332L135 423L325 228V680H455Z" />
<glyph unicode="&#x2196;" glyph-name="uni2196" horiz-adv-x="795" d="M678 -1L217 460L218 192H90V680H578V552L309 553L770 92L678 -1Z" />
<glyph unicode="&#x2197;" glyph-name="uni2197" horiz-adv-x="795" d="M485 553L217 552V680H705V192H577V460L117 -1L25 92L485 553Z" />
<glyph unicode="&#x2198;" glyph-name="uni2198" horiz-adv-x="795" d="M117 680L577 220V488H705V0H217V128L485 127L25 588L117 680Z" />
<glyph unicode="&#x2199;" glyph-name="uni2199" horiz-adv-x="795" d="M309 127L578 128V0H90V488H218L217 220L678 680L770 588L309 127Z" />
<glyph unicode="&#x2212;" glyph-name="minus" horiz-adv-x="679" d="M99 393H580V270H99V393Z" />
<glyph unicode="&#xfb01;" glyph-name="fi" horiz-adv-x="722" d="M657 479V0H519V362H272V0H133V362H5V479H133V519Q133 630 195 696T356 763Q368 763 379 763T402 761T421 760T441 757T460 753T481 748T500 743T523 737T548 731L522 613Q421 635 375 635Q326
635 299 604T272 519V479H657Z" />
<glyph unicode="&#xfb02;" glyph-name="fl" horiz-adv-x="714" d="M133 479V547Q133 644 189 703T337 763Q392 763 455 746L436 627Q393 636 365 636Q323 636 298 612T272 548V479H433V362H272V0H133V362H5V479H133ZM653 710V0H514V710H653Z" />
</font>
</defs>
</svg>
