<?xml version="1.0" standalone="no"?> <!DOCTYPE svg PUBLIC "-//W3C//DTD SVG 1.0//EN" "http://www.w3.org/TR/2001/REC-SVG-20010904/DTD/svg10.dtd" > 
<svg xmlns="http://www.w3.org/2000/svg" width="100%" height="100%">
<metadata version="1.0"><uniqueid id="com.myfonts.rene-bieder.campton.bold.wfkit2.guhU"/><vendor name="MyFonts" url="http://www.myfonts.com/"/><credits><credit name="Rene Bieder" url="http://www.myfonts.com/person/bieder/rene/"/></credits><description><text lang="en">This is a Webfont from MyFonts. Full information about this font:
http://www.myfonts.com/fonts/rene-bieder/campton/
</text></description><license url="http://www.myfonts.com/viewlicense?lid=1630"/><copyright><text lang="en">Copyright © 2014 by René Bieder. All rights reserved.</text></copyright></metadata>
<defs >
<font id="wf" horiz-adv-x="608" ><font-face
    font-family="campton-700"
    units-per-em="1000"
    panose-1="0 0 8 0 0 0 0 0 0 0"
    ascent="768"
    descent="-232"
    alphabetic="0" />
<missing-glyph horiz-adv-x="870" d="M770 680V0H100V680H770ZM700 610H219L700 129V610ZM170 70H647L170 547V70Z" />
<glyph unicode=" " glyph-name="space" horiz-adv-x="257" />
<glyph unicode="!" glyph-name="exclam" horiz-adv-x="295" d="M218 222H76L62 680H232L218 222ZM183 -11T147 -11T86 13T60 73T85 133T147 157T209 133T235 73T209 13Z" />
<glyph unicode="&quot;" glyph-name="quotedbl" horiz-adv-x="368" d="M163 680V384H32V680H163ZM337 680V384H206V680H337Z" />
<glyph unicode="#" glyph-name="numbersign" horiz-adv-x="793" d="M603 282H712V146H560L514 0H358L404 146H268L223 0H67L112 146H27V282H155L186 382H82V518H229L280 681H436L385 518H520L571 681H727L676 518H767V382H634L603 282ZM342 382L311 282H447L478 382H342Z" />
<glyph unicode="$" glyph-name="dollar" horiz-adv-x="676" d="M629 207Q629 120 572 63T415 -9V-110H284V-10Q183 5 117 65T40 228H210Q218 182 255 156T352 129Q397 129 422 145T448 191Q448 238 376 251L264 275Q163 297 115 344T67 473Q67 562 126 620T284
692V799H415V688Q500 671 559 619T628 469H458Q442 561 346 561Q301 561 274 543T247 491Q247 463 267 448T329 424L424 402Q525 380 577 335T629 207Z" />
<glyph unicode="%" glyph-name="percent" horiz-adv-x="1091" d="M271 695Q359 695 417 639T475 495T417 351T271 294Q182 294 124 350T65 495T123 639T271 695ZM366 0H258L712 680H820L366 0ZM271 400Q310 400 337 426T365 495T338 563T271 590Q231 590 204 564T176
495T203 427T271 400ZM732 386T820 386T966 330T1025 186Q1025 97 967 41T820 -15Q732 -15 674 41T615 186T673 330ZM781 90T820 90T887 117T915 186Q915 227 887 253T820 280T754 254T726 186Q726 144 753 117Z" />
<glyph unicode="&amp;" glyph-name="ampersand" horiz-adv-x="738" d="M523 0L480 41Q397 -15 283 -15Q166 -15 95 44T23 199Q23 316 138 378Q97 437 97 497Q97 581 159 638T324 695Q424 695 484 638T552 481H400Q396 517 378 537T329 557Q301 557 283 540T265
493Q265 465 285 439T363 359L476 249L548 367H713L584 154L580 147L731 0H523ZM286 121Q328 121 372 142L264 243L226 279Q179 249 179 205Q179 170 210 146T286 121Z" />
<glyph unicode="&apos;" glyph-name="quotesingle" horiz-adv-x="194" d="M163 680V384H32V680H163Z" />
<glyph unicode="(" glyph-name="parenleft" horiz-adv-x="389" d="M258 738L369 627Q290 543 253 467T215 291Q215 192 252 117T369 -42L258 -153Q44 44 44 291Q44 541 258 738Z" />
<glyph unicode=")" glyph-name="parenright" horiz-adv-x="386" d="M20 627L131 738Q345 541 345 291Q345 44 131 -153L20 -42Q99 42 136 117T174 291Q174 391 137 467T20 627Z" />
<glyph unicode="*" glyph-name="asterisk" horiz-adv-x="412" d="M379 470L337 398L248 451V355H164V451L75 398L33 470L124 525L33 580L75 653L164 599V693H248V599L337 653L379 580L288 525L379 470Z" />
<glyph unicode="+" glyph-name="plus" horiz-adv-x="669" d="M401 264V100H268V264H97V392H268V556H401V392H573V264H401Z" />
<glyph unicode="," glyph-name="comma" horiz-adv-x="234" d="M27 -113L79 -2Q27 20 27 71Q27 106 53 131T117 156Q155 156 181 132T207 70Q207 38 177 -13L117 -113H27Z" />
<glyph unicode="-" glyph-name="hyphen" horiz-adv-x="554" d="M458 181V335H97V181H458Z" />
<glyph unicode="." glyph-name="period" horiz-adv-x="235" d="M117 -18Q80 -18 54 7T27 70Q27 106 53 131T117 157Q155 157 182 132T209 70Q209 33 182 8T117 -18Z" />
<glyph unicode="/" glyph-name="slash" horiz-adv-x="431" d="M187 -160H32L284 730H439L187 -160Z" />
<glyph unicode="0" glyph-name="zero" horiz-adv-x="718" d="M214 695T359 695T589 596T674 340T589 84T359 -15T129 84T44 340T129 596ZM286 132T359 132T473 190T514 340T473 490T359 548T245 490T204 340T245 190Z" />
<glyph unicode="1" glyph-name="one" horiz-adv-x="531" d="M526 137V0H35V137H205V502L45 457V603L267 680H368V137H526Z" />
<glyph unicode="2" glyph-name="two" horiz-adv-x="572" d="M531 137V0H46V81L275 345Q309 385 321 400T346 440T359 483Q359 512 340 532T281 552Q243 552 220 529T193 464H32Q35 569 105 632T291 695Q403 695 464 635T526 482Q526 435 499 389T408 271L288 137H531Z" />
<glyph unicode="3" glyph-name="three" horiz-adv-x="578" d="M449 341Q546 298 546 196Q546 103 477 44T295 -15Q177 -15 111 41T33 199H191Q199 161 223 141T295 121Q338 121 364 142T391 199T363 254T285 275H229V399H285Q327 399 351 420T376 477T354 533T293
554T231 533T204 475H47Q53 571 119 630T294 689Q400 689 463 632T527 481T449 341Z" />
<glyph unicode="4" glyph-name="four" horiz-adv-x="656" d="M622 120H537V0H378V120H32V225L217 680H379L219 261H378V448H537V261H622V120Z" />
<glyph unicode="5" glyph-name="five" horiz-adv-x="611" d="M236 442H323Q435 442 500 380T566 221Q566 116 494 51T305 -15Q192 -15 120 44T37 202H196Q218 124 307 124Q354 124 383 150T412 220Q412 261 382 286T299 311H84L85 680H534V536H237L236 442Z" />
<glyph unicode="6" glyph-name="six" horiz-adv-x="624" d="M464 680L334 477Q446 471 516 403T587 237Q587 129 510 57T312 -15T115 57T38 234Q38 305 96 399L273 680H464ZM262 120T312 120T395 153T428 231T396 308T312 341Q264 341 232 318L228 311Q195 264
195 230Q195 186 228 153Z" />
<glyph unicode="7" glyph-name="seven" horiz-adv-x="524" d="M506 680V585L245 0H61L301 529H10V680H506Z" />
<glyph unicode="8" glyph-name="eight" horiz-adv-x="623" d="M478 361Q587 307 587 197Q587 100 514 43T311 -15Q183 -15 110 42T37 197Q37 307 145 361Q65 409 65 499Q65 586 134 640T311 695Q420 695 489 641T558 499Q558 411 478 361ZM352 573T311 573T244
549T218 489T244 429T311 405T378 429T405 489Q405 525 379 549ZM267 117T311 117T384 143T414 208T385 271T311 296Q267 296 238 271T209 208Q209 169 238 143Z" />
<glyph unicode="9" glyph-name="nine" horiz-adv-x="624" d="M191 695T312 695T509 623T586 446Q586 375 528 281L351 0H160L290 203Q178 209 108 277T37 443Q37 551 114 623ZM392 362L396 369Q429 416 429 450Q429 494 396 527T312 560T229 527T196 449T228 372T312
339Q360 339 392 362Z" />
<glyph unicode=":" glyph-name="colon" horiz-adv-x="235" d="M117 322Q80 322 54 347T27 410Q27 446 53 471T117 496Q155 496 182 471T209 410Q209 372 182 347T117 322ZM117 -18Q80 -18 54 7T27 70Q27 106 53 131T117 157Q155 157 182 132T209 70Q209 33 182
8T117 -18Z" />
<glyph unicode=";" glyph-name="semicolon" horiz-adv-x="235" d="M117 322Q80 322 54 347T27 410Q27 446 53 471T117 496Q155 496 182 471T209 410Q209 372 182 347T117 322ZM28 -113L80 -2Q28 20 28 71Q28 106 54 131T118 156Q156 156 182 132T208 70Q208 38
178 -13L118 -113H28Z" />
<glyph unicode="&lt;" glyph-name="less" horiz-adv-x="529" d="M465 570V423L207 307L465 190V43L43 233V380L465 570Z" />
<glyph unicode="=" glyph-name="equal" horiz-adv-x="675" d="M579 361H97V489H579V361ZM579 154H97V282H579V154Z" />
<glyph unicode="&gt;" glyph-name="greater" horiz-adv-x="529" d="M485 233L63 43V190L321 307L63 423V570L485 380V233Z" />
<glyph unicode="?" glyph-name="question" horiz-adv-x="539" d="M183 219L173 382H255Q298 382 326 405T354 469Q354 507 330 530T266 554T202 533T174 475H17Q23 574 86 631T261 689Q367 689 435 628T504 469Q504 390 452 340T311 277L306 219H183ZM276 -11T240
-11T179 13T153 73T178 133T240 157T302 133T328 73T302 13Z" />
<glyph unicode="@" glyph-name="at" horiz-adv-x="990" d="M713 442V200Q713 130 761 130Q831 130 831 258Q831 394 739 483T506 573Q361 573 261 477T161 242T259 7T498 -89Q620 -89 712 -16L770 -103Q654 -190 499 -190Q313 -190 183 -66T53 242Q53 362 113
461T277 617T503 673Q689 673 813 556T937 261Q937 155 892 92T754 28Q651 28 608 93Q548 30 461 30Q377 30 319 90T260 241T318 391T461 452Q525 452 575 418V442H713ZM490 145Q542 145 578 191Q575 218 575 245V294Q539 338 490 338Q453 338 425 312T396 241T424
171T490 145Z" />
<glyph unicode="A" glyph-name="A" horiz-adv-x="763" d="M525 117H237L192 0H12L301 684H463L751 0H571L525 117ZM469 261L381 487L293 261H469Z" />
<glyph unicode="B" glyph-name="B" horiz-adv-x="694" d="M535 350Q595 337 627 292T659 189Q659 103 594 52T416 0H60V680H396Q506 680 567 632T629 499Q629 450 604 408T535 350ZM229 542V403H369Q416 403 442 422T468 476Q468 542 369 542H229ZM229 140H393Q443
140 468 159T494 211Q494 274 397 274H229V140Z" />
<glyph unicode="C" glyph-name="C" horiz-adv-x="789" d="M403 144Q470 144 513 180T571 282H745Q728 149 635 68T404 -14Q250 -14 147 86T44 340T147 593T404 694Q542 694 635 613T745 398H571Q557 463 514 499T403 536Q320 536 268 481T215 340T267 200T403 144Z" />
<glyph unicode="D" glyph-name="D" horiz-adv-x="737" d="M60 680H333Q494 680 597 586T700 342Q700 191 597 96T333 0H60V680ZM229 152H333Q416 152 472 206T528 342Q528 421 472 474T333 528H229V152Z" />
<glyph unicode="E" glyph-name="E" horiz-adv-x="610" d="M229 533V409H531V265H229V147H574V0H60V680H574V533H229Z" />
<glyph unicode="F" glyph-name="F" horiz-adv-x="583" d="M229 531V387H521V240H229V0H60V680H568V531H229Z" />
<glyph unicode="G" glyph-name="G" horiz-adv-x="809" d="M754 382V0H628L621 82Q543 -14 406 -14Q248 -14 146 85T44 333Q44 491 147 592T407 694Q536 694 631 626T747 438H569Q532 539 411 539Q323 539 269 483T215 337Q215 255 269 199T412 143Q531 143 585
247L390 249V382H754Z" />
<glyph unicode="H" glyph-name="H" horiz-adv-x="734" d="M674 680V0H506V255H229V0H60V680H229V407H506V680H674Z" />
<glyph unicode="I" glyph-name="I" horiz-adv-x="289" d="M229 680V0H60V680H229Z" />
<glyph unicode="J" glyph-name="J" horiz-adv-x="623" d="M573 680V272Q573 134 499 60T292 -15Q171 -15 97 52T18 241H186Q189 193 219 166T297 139Q344 139 372 174T401 272V680H573Z" />
<glyph unicode="K" glyph-name="K" horiz-adv-x="728" d="M326 250L229 138V0H60V680H229V371L500 680H700L441 382L722 0H516L326 250Z" />
<glyph unicode="L" glyph-name="L" horiz-adv-x="585" d="M565 149V0H60V680H229V149H565Z" />
<glyph unicode="M" glyph-name="M" horiz-adv-x="854" d="M794 680V0H625V341L474 108V107H380V108L228 343L229 0H60V680H186L427 317L668 680H794Z" />
<glyph unicode="N" glyph-name="N" horiz-adv-x="745" d="M685 680V0H555L229 373V0H60V680H189L517 297V680H685Z" />
<glyph unicode="O" glyph-name="O" horiz-adv-x="808" d="M251 694T404 694T660 592T764 340T661 89T404 -14T148 88T44 340T147 591ZM323 143T404 143T539 200T593 340T539 479T404 537T269 480T215 340T269 201Z" />
<glyph unicode="P" glyph-name="P" horiz-adv-x="641" d="M60 680H334Q467 680 544 613T622 431Q622 312 541 243T321 173H229V0H60V680ZM229 321H331Q387 321 420 351T454 431Q454 477 421 504T331 531H229V321Z" />
<glyph unicode="Q" glyph-name="Q" horiz-adv-x="808" d="M764 340Q764 182 649 77L756 -49L637 -158L503 -1Q458 -14 404 -14Q251 -14 148 88T44 340T147 591T404 694T660 592T764 340ZM215 422T215 340T269 201T404 143T539 200T593 340T539 479T404 537T269 480Z" />
<glyph unicode="R" glyph-name="R" horiz-adv-x="701" d="M487 0L357 197H229V0H60V680H357Q485 680 562 616T639 441Q639 375 609 323T524 238L684 0H487ZM229 349H354Q404 349 437 374T470 441Q470 481 437 506T354 531H229V349Z" />
<glyph unicode="S" glyph-name="S" horiz-adv-x="676" d="M337 695Q383 695 427 685T516 652T591 581T628 469H458Q442 561 346 561Q301 561 274 543T247 491Q247 463 267 448T329 424L424 402Q525 380 577 335T629 207Q629 105 552 46T347 -14Q268 -14 203 10T93
91T40 228H210Q218 182 255 156T352 129Q397 129 422 145T448 191Q448 238 376 251L264 275Q163 297 115 344T67 473Q67 574 141 634T337 695Z" />
<glyph unicode="T" glyph-name="T" horiz-adv-x="648" d="M625 529H408V0H240V529H23V680H625V529Z" />
<glyph unicode="U" glyph-name="U" horiz-adv-x="733" d="M683 680V317Q683 160 598 73T366 -15T135 72T50 317V680H220V314Q220 236 259 190T366 143T473 189T513 314V680H683Z" />
<glyph unicode="V" glyph-name="V" horiz-adv-x="780" d="M770 680L476 -4H305L10 680H196L390 219L584 680H770Z" />
<glyph unicode="W" glyph-name="W" horiz-adv-x="1080" d="M1060 680L841 -4H677L540 413L403 -4H240L20 680H199L326 258L470 680H610L754 258L881 680H1060Z" />
<glyph unicode="X" glyph-name="X" horiz-adv-x="696" d="M495 0L349 209L202 0H8L235 335L11 680H214L348 470L482 680H685L461 335L688 0H495Z" />
<glyph unicode="Y" glyph-name="Y" horiz-adv-x="719" d="M713 680L445 205V0H275V205L6 680H193L359 384L526 680H713Z" />
<glyph unicode="Z" glyph-name="Z" horiz-adv-x="658" d="M623 149V0H34V80L371 531H51V680H617V600L294 149H623Z" />
<glyph unicode="[" glyph-name="bracketleft" horiz-adv-x="383" d="M211 5H356V-147H49V730H356V579H211V5Z" />
<glyph unicode="\" glyph-name="backslash" horiz-adv-x="431" d="M167 730L419 -160H264L12 730H167Z" />
<glyph unicode="]" glyph-name="bracketright" horiz-adv-x="383" d="M27 579V730H334V-147H27V5H172V579H27Z" />
<glyph unicode="^" glyph-name="asciicircum" horiz-adv-x="438" d="M421 435H280L219 558L158 435H17L156 680H282L421 435Z" />
<glyph unicode="_" glyph-name="underscore" horiz-adv-x="621" d="M27 -91H595V-228H27V-91Z" />
<glyph unicode="`" glyph-name="grave" horiz-adv-x="600" d="M406 557H255L155 717H326L406 557Z" />
<glyph unicode="a" glyph-name="a" horiz-adv-x="624" d="M407 485H569V0H407V27Q349 -10 274 -10Q175 -10 104 63T33 243T104 423T274 496Q349 496 407 459V485ZM307 123Q367 123 407 168V319Q366 364 307 364Q258 364 225 329T192 243T225 158T307 123Z" />
<glyph unicode="b" glyph-name="b" horiz-adv-x="624" d="M350 494Q449 494 520 422T591 242Q591 134 520 61T350 -12Q277 -12 218 24V0H55V710H218V458Q277 494 350 494ZM318 121Q367 121 399 156T432 242Q432 292 400 327T318 362Q258 362 218 317V165Q257 121
318 121Z" />
<glyph unicode="c" glyph-name="c" horiz-adv-x="580" d="M299 126Q336 126 362 146T394 199H547Q538 106 469 48T298 -11Q184 -11 109 60T33 243Q33 353 108 424T298 496Q399 496 468 438T547 286H394Q388 319 362 339T299 359Q248 359 218 327T188 243T218 159T299
126Z" />
<glyph unicode="d" glyph-name="d" horiz-adv-x="624" d="M569 710V0H407V25Q349 -12 274 -12Q175 -12 104 61T33 242Q33 349 104 421T274 494Q349 494 407 457V710H569ZM307 121Q367 121 407 166V317Q366 362 307 362Q258 362 225 327T192 242Q192 191 225 156T307 121Z" />
<glyph unicode="e" glyph-name="e" horiz-adv-x="573" d="M539 253Q539 226 536 203H191Q211 117 300 117Q352 117 374 152H535Q517 77 453 32T298 -14Q180 -14 107 58T33 243Q33 356 104 428T290 500Q398 500 468 432T539 253ZM293 375Q212 375 192 293H384Q371
375 293 375Z" />
<glyph unicode="f" glyph-name="f" horiz-adv-x="455" d="M284 485H455V346H284V0H122V346H3V485H122V543Q122 647 181 708T335 770Q395 770 464 752L442 617Q399 626 368 626Q330 626 307 605T284 547V485Z" />
<glyph unicode="g" glyph-name="g" horiz-adv-x="628" d="M410 485H572V8Q572 -104 501 -168T313 -232Q202 -232 129 -174T50 -22H211Q222 -95 312 -95Q356 -95 383 -69T410 5V48Q352 14 278 14Q179 14 108 83T37 250Q37 359 107 429T278 500Q351 500 410 464V485ZM310
143Q370 143 410 188V322Q371 367 310 367Q260 367 228 335T195 250Q195 209 228 176T310 143Z" />
<glyph unicode="h" glyph-name="h" horiz-adv-x="606" d="M351 500Q443 500 500 440T557 277V0H395V251Q395 301 372 327T306 353Q260 353 218 305V0H55V710H218V453Q279 500 351 500Z" />
<glyph unicode="i" glyph-name="i" horiz-adv-x="279" d="M139 561Q99 561 72 587T44 652T71 717T139 744Q178 744 206 718T234 652T206 587T139 561ZM59 485H221V0H59V485Z" />
<glyph unicode="j" glyph-name="j" horiz-adv-x="276" d="M136 561Q97 561 69 587T41 652T69 717T136 744Q176 744 203 718T231 652T204 587T136 561ZM218 485V39Q218 -81 167 -139T-21 -201L-35 -66Q17 -61 36 -43T55 18V485H218Z" />
<glyph unicode="k" glyph-name="k" horiz-adv-x="598" d="M285 168L218 96V0H55V710H218V304L386 485H579L395 287L595 0H401L285 168Z" />
<glyph unicode="l" glyph-name="l" horiz-adv-x="273" d="M218 710V0H55V710H218Z" />
<glyph unicode="m" glyph-name="m" horiz-adv-x="912" d="M659 500Q748 500 804 440T860 277V0H698V251Q698 302 675 327T611 353T537 313Q539 289 539 277V0H377V251Q377 302 354 327T290 353Q250 353 218 311V0H55V485H218V457Q267 500 337 500Q430 500 487
434Q560 500 659 500Z" />
<glyph unicode="n" glyph-name="n" horiz-adv-x="606" d="M351 500Q443 500 500 440T557 277V0H395V251Q395 301 372 327T306 353Q260 353 218 305V0H55V485H218V453Q279 500 351 500Z" />
<glyph unicode="o" glyph-name="o" horiz-adv-x="593" d="M297 496Q411 496 485 425T559 243Q559 132 485 59T297 -15Q182 -15 108 58T33 243Q33 353 107 424T297 496ZM297 125Q345 125 375 158T406 242Q406 290 376 323T297 356Q248 356 218 323T187 242Q187
192 217 159T297 125Z" />
<glyph unicode="p" glyph-name="p" horiz-adv-x="624" d="M350 496Q449 496 520 423T591 243T520 63T350 -10Q277 -10 218 26V-225H55V485H218V460Q277 496 350 496ZM318 123Q367 123 399 157T432 243T400 329T318 364Q258 364 218 319V167Q257 123 318 123Z" />
<glyph unicode="q" glyph-name="q" horiz-adv-x="624" d="M567 485V-225H405V26Q346 -10 273 -10Q173 -10 103 63T32 243Q32 351 102 423T273 496Q346 496 405 460V485H567ZM305 123Q366 123 405 167V319Q365 364 305 364Q256 364 223 329T190 243T223 158T305 123Z" />
<glyph unicode="r" glyph-name="r" horiz-adv-x="410" d="M385 493V339Q276 335 218 278V0H55V485H218V433Q288 493 385 493Z" />
<glyph unicode="s" glyph-name="s" horiz-adv-x="521" d="M22 167L166 166Q176 104 259 104Q328 104 328 139Q328 165 284 172L183 190Q118 200 79 237T40 335Q40 411 99 454T257 498Q347 498 412 458T484 330H339Q337 357 314 371T257 386Q227 386 212 376T196
350Q196 320 247 311L337 296Q489 268 489 152Q489 71 426 28T261 -15Q160 -15 95 30T22 167Z" />
<glyph unicode="t" glyph-name="t" horiz-adv-x="470" d="M426 146L444 9Q368 -15 297 -15Q209 -15 156 44T102 202V346H7V485H102V650H264V485H429V346H264V207Q264 134 340 134Q364 134 426 146Z" />
<glyph unicode="u" glyph-name="u" horiz-adv-x="606" d="M551 485V0H389V32Q328 -15 256 -15Q163 -15 106 45T49 208V485H211V233Q211 183 235 157T300 131Q346 131 389 179V485H551Z" />
<glyph unicode="v" glyph-name="v" horiz-adv-x="594" d="M584 485L374 0H220L10 485H181L297 205L413 485H584Z" />
<glyph unicode="w" glyph-name="w" horiz-adv-x="810" d="M796 485L630 0H483L405 252L327 0H180L13 485H183L258 226L341 485H469L551 227L627 485H796Z" />
<glyph unicode="x" glyph-name="x" horiz-adv-x="568" d="M389 241L559 0H381L284 139L187 0H8L178 242L8 485H193L284 357L374 485H559L389 241Z" />
<glyph unicode="y" glyph-name="y" horiz-adv-x="641" d="M624 485L326 -224H155L247 -6L17 485H188L328 186L454 485H624Z" />
<glyph unicode="z" glyph-name="z" horiz-adv-x="512" d="M482 485V399L262 134H482V0H30V79L258 350H34V485H482Z" />
<glyph unicode="{" glyph-name="braceleft" horiz-adv-x="368" d="M268 538V421Q268 365 254 337T191 293Q239 278 253 251T268 168V51Q268 28 288 13T341 -2V-153Q234 -153 170 -101T106 41V173Q106 211 91 220T27 229V357Q75 357 90 366T106 413V548Q106 637
170 689T341 742V591Q308 591 288 576T268 538Z" />
<glyph unicode="|" glyph-name="bar" horiz-adv-x="330" d="M237 730V-160H93V730H237Z" />
<glyph unicode="}" glyph-name="braceright" horiz-adv-x="378" d="M110 421V538Q110 561 90 576T37 591V742Q144 742 208 690T272 548V413Q272 375 287 366T351 357V229Q303 229 288 220T272 173V41Q272 -48 208 -100T37 -153V-2Q70 -2 90 13T110 51V168Q110
223 124 250T187 293Q139 308 125 336T110 421Z" />
<glyph unicode="~" glyph-name="asciitilde" horiz-adv-x="473" d="M321 418H459Q459 358 437 317T380 261T309 246T240 265L198 291Q172 303 162 294T152 263H15Q15 323 37 363T93 419T164 434T233 415L276 390Q302 378 311 387T321 418Z" />
<glyph unicode="&#xa1;" glyph-name="exclamdown" horiz-adv-x="295" d="M111 499T147 499T209 475T235 415T209 355T147 331T86 355T60 415T85 475ZM62 -192L76 266H218L232 -192H62Z" />
<glyph unicode="&#xa2;" glyph-name="cent" horiz-adv-x="580" d="M299 126Q336 126 362 146T394 199H547Q540 123 491 69T365 -3V-104H234V-4Q144 15 89 82T33 243Q33 336 88 403T234 489V606H365V488Q441 471 490 417T547 286H394Q388 319 362 339T299 359Q248
359 218 327T188 243T218 159T299 126Z" />
<glyph unicode="&#xa3;" glyph-name="sterling" horiz-adv-x="617" d="M245 139H579V0H28V139H84V269H28V395H84V450Q84 560 154 626T339 692Q447 692 515 634T593 476H431Q424 512 400 532T339 552Q296 552 271 525T245 450V395H427V269H245V139Z" />
<glyph unicode="&#xa5;" glyph-name="yen" horiz-adv-x="719" d="M509 318H623V213H450L445 205V171H623V66H445V0H275V66H96V171H275V205L270 213H96V318H211L6 680H193L359 384L526 680H713L509 318Z" />
<glyph unicode="&#xa6;" glyph-name="brokenbar" horiz-adv-x="330" d="M237 336H93V730H237V336ZM237 -160H93V234H237V-160Z" />
<glyph unicode="&#xa7;" glyph-name="section" horiz-adv-x="561" d="M534 241Q534 155 465 111Q494 69 494 13Q494 -66 434 -114T279 -162Q179 -162 116 -108T45 38H208Q210 9 227 -8T276 -26Q299 -26 313 -15T328 16Q328 48 288 66L174 116Q95 150 61 191T27
288Q27 373 97 417Q67 462 67 516Q67 595 126 642T282 690Q381 690 445 637T516 491H353Q351 520 334 537T285 555Q262 555 248 544T233 513Q233 481 273 463L387 412Q466 378 500 337T534 241ZM241 241L356 191Q383 203 383 229Q383 246 368 259T320 287L206 337Q178
329 178 299T241 241Z" />
<glyph unicode="&#xa8;" glyph-name="dieresis" horiz-adv-x="600" d="M190 721Q226 721 252 697T278 636T252 576T190 552Q153 552 128 576T102 636T127 696T190 721ZM411 721Q447 721 473 697T499 636T473 576T411 552Q374 552 348 576T322 636T348 696T411 721Z" />
<glyph unicode="&#xa9;" glyph-name="copyright" horiz-adv-x="815" d="M258 695T408 695T665 593T772 340T665 87T408 -15T151 87T44 340T151 593ZM407 75Q517 75 597 152T677 340T597 528T407 605Q298 605 218 528T138 340T218 152T407 75ZM409 404Q380 404
362 386T344 339Q344 312 362 293T409 274Q429 274 444 284T466 311H572Q564 252 519 215T409 178Q336 178 289 224T241 339Q241 409 288 455T409 501Q474 501 519 464T572 367H466Q453 404 409 404Z" />
<glyph unicode="&#xaa;" glyph-name="ordfeminine" horiz-adv-x="363" d="M182 685Q252 685 294 648T337 545V351H231V363Q193 345 151 345Q90 345 53 373T16 450Q16 495 50 520T145 545H231Q231 599 182 599Q162 599 148 589T133 562H29Q30 623 74 654T182 685ZM166
429Q200 429 231 448V481H148Q119 481 119 460Q119 447 130 438T166 429Z" />
<glyph unicode="&#xab;" glyph-name="guillemotleft" horiz-adv-x="486" d="M261 413L166 252L261 91H117L22 252L117 413H261ZM464 413L369 252L464 91H320L225 252L320 413H464Z" />
<glyph unicode="&#xae;" glyph-name="registered" horiz-adv-x="557" d="M172 692T278 692T458 621T533 443Q533 338 458 267T278 195T98 266T23 443Q23 549 97 620ZM205 265T278 265T404 317T458 443T405 569T278 622T152 570T99 443T152 317ZM374 476Q374 437
339 417L384 349H314L280 404H255V349H197V551H287Q327 551 350 531T374 476ZM255 453H286Q314 453 314 477Q314 500 286 500H255V453Z" />
<glyph unicode="&#xaf;" glyph-name="overscore" horiz-adv-x="600" d="M443 694V570H157V694H443Z" />
<glyph unicode="&#xb0;" glyph-name="degree" horiz-adv-x="462" d="M155 695T231 695T358 646T410 521T359 396T231 347T104 396T52 521T103 646ZM202 451T231 451T281 471T302 521Q302 551 281 571T231 591T181 571T160 521Q160 492 181 472Z" />
<glyph unicode="&#xb1;" glyph-name="plusminus" horiz-adv-x="669" d="M572 324H401V201H268V324H97V452H268V576H401V452H572V324ZM572 162V34H97V162H572Z" />
<glyph unicode="&#xb2;" glyph-name="twosuperior" horiz-adv-x="373" d="M345 375V278H34V335L177 491Q224 541 224 564Q224 580 214 589T186 598Q141 598 139 553H32Q33 618 74 658T188 698Q260 698 298 662T337 572Q337 541 322 511T262 434L208 375H345Z" />
<glyph unicode="&#xb3;" glyph-name="threesuperior" horiz-adv-x="384" d="M295 487Q351 460 351 398Q351 343 309 307T195 271Q123 271 80 307T29 407H141Q152 368 194 368Q215 368 228 378T241 404Q241 440 184 440H151V528H184Q207 528 220 538T234 565Q234
601 192 601Q154 601 150 561H38Q42 624 83 660T194 697Q261 697 301 663T341 572Q341 513 295 487Z" />
<glyph unicode="&#xb4;" glyph-name="acute" horiz-adv-x="600" d="M469 717L369 557H218L298 717H469Z" />
<glyph unicode="&#xb6;" glyph-name="paragraph" horiz-adv-x="770" d="M714 680V-160H568V556H497V-160H350V203H278Q168 203 94 271T20 449Q20 552 93 616T278 680H714ZM350 556H278Q225 556 193 527T160 448Q160 396 192 365T278 333H350V556Z" />
<glyph unicode="&#xb7;" glyph-name="middot" horiz-adv-x="235" d="M117 189Q80 189 54 214T27 276T53 338T117 363Q155 363 182 338T209 276T182 214T117 189Z" />
<glyph unicode="&#xb8;" glyph-name="cedilla" horiz-adv-x="600" d="M316 -215H181L235 -51H387L316 -215Z" />
<glyph unicode="&#xb9;" glyph-name="onesuperior" horiz-adv-x="341" d="M336 378V281H25V378H127V570L30 543V646L171 692H238V378H336Z" />
<glyph unicode="&#xba;" glyph-name="ordmasculine" horiz-adv-x="390" d="M195 687Q272 687 321 639T370 517Q370 442 321 394T195 345Q119 345 70 394T20 517Q20 590 69 638T195 687ZM195 440Q226 440 245 462T265 517Q265 548 246 569T195 590Q163 590 144
569T124 517Q124 484 143 462T195 440Z" />
<glyph unicode="&#xbb;" glyph-name="guillemotright" horiz-adv-x="486" d="M261 252L166 91H22L117 252L22 413H166L261 252ZM464 252L369 91H225L320 252L225 413H369L464 252Z" />
<glyph unicode="&#xbc;" glyph-name="onequarter" horiz-adv-x="953" d="M25 269V366H127V558L30 531V634L171 680H238V366H336V269H25ZM762 680L308 0H200L654 680H762ZM926 68H878V0H764V68H556V143L666 411H781L689 168H764V261H878V168H926V68Z" />
<glyph unicode="&#xbd;" glyph-name="onehalf" horiz-adv-x="933" d="M25 269V366H127V558L30 531V634L171 680H238V366H336V269H25ZM766 680L312 0H204L658 680H766ZM905 97V0H594V57L737 213Q784 263 784 286Q784 302 774 311T746 320Q701 320 699 275H592Q593
340 634 380T748 420Q820 420 858 384T897 294Q897 263 882 233T822 156L768 97H905Z" />
<glyph unicode="&#xbe;" glyph-name="threequarters" horiz-adv-x="939" d="M353 390Q353 335 311 299T197 263Q125 263 82 299T31 399H143Q154 360 196 360Q217 360 230 370T243 396Q243 432 186 432H153V520H186Q209 520 222 530T236 557Q236 593 194 593Q156
593 152 553H40Q44 616 85 652T196 689Q263 689 303 655T343 564Q343 505 297 479Q353 452 353 390ZM749 680L295 0H186L640 680H749ZM913 68H865V0H751V68H542V143L652 411H768L676 168H751V261H865V168H913V68Z" />
<glyph unicode="&#xbf;" glyph-name="questiondown" horiz-adv-x="539" d="M262 552T298 552T360 528T386 468T360 408T298 384T236 408T210 468T236 528ZM356 322L366 159H284Q241 159 213 136T185 72Q185 34 209 11T273 -13Q312 -13 336 8T365 66H522Q516 -33
453 -90T278 -148Q172 -148 104 -87T35 72Q35 151 86 201T228 264L233 322H356Z" />
<glyph unicode="&#xc0;" glyph-name="Agrave" horiz-adv-x="763" d="M319 750L219 910H390L470 750H319ZM525 117H237L192 0H12L301 684H463L751 0H571L525 117ZM469 261L381 487L293 261H469Z" />
<glyph unicode="&#xc1;" glyph-name="Aacute" horiz-adv-x="763" d="M458 750H307L387 910H558L458 750ZM525 117H237L192 0H12L301 684H463L751 0H571L525 117ZM469 261L381 487L293 261H469Z" />
<glyph unicode="&#xc2;" glyph-name="Acircumflex" horiz-adv-x="763" d="M329 750H188L305 914H458L574 750H433L382 816L329 750ZM525 117H237L192 0H12L301 684H463L751 0H571L525 117ZM469 261L381 487L293 261H469Z" />
<glyph unicode="&#xc3;" glyph-name="Atilde" horiz-adv-x="763" d="M389 760L351 782Q328 793 320 785T311 758H192Q192 810 211 845T260 893T322 906T381 890L419 868Q442 857 450 865T459 892H578Q578 840 559 805T510 756T448 743T389 760ZM525 117H237L192
0H12L301 684H463L751 0H571L525 117ZM469 261L381 487L293 261H469Z" />
<glyph unicode="&#xc4;" glyph-name="Adieresis" horiz-adv-x="763" d="M271 745Q234 745 209 769T183 829T208 889T271 914Q307 914 333 890T359 829T333 769T271 745ZM492 745Q455 745 429 769T403 829T429 889T492 914Q528 914 554 890T580 829T554 769T492
745ZM525 117H237L192 0H12L301 684H463L751 0H571L525 117ZM469 261L381 487L293 261H469Z" />
<glyph unicode="&#xc5;" glyph-name="Aring" horiz-adv-x="763" d="M436 748T381 748T292 780T257 864T291 947T381 979T470 948T505 864T471 780ZM401 906T381 906T349 895T337 864Q337 844 349 832T381 820T413 832T425 864Q425 883 413 894ZM525 117H237L192
0H12L301 684H463L751 0H571L525 117ZM469 261L381 487L293 261H469Z" />
<glyph unicode="&#xc6;" glyph-name="AE" horiz-adv-x="1116" d="M734 533V409H1036V265H734V147H1079V0H565V117H300L216 0H12L517 680H1079V533H734ZM565 261V484L404 261H565Z" />
<glyph unicode="&#xc7;" glyph-name="Ccedilla" horiz-adv-x="789" d="M403 144Q470 144 513 180T571 282H745Q728 149 635 68T404 -14Q250 -14 147 86T44 340T147 593T404 694Q542 694 635 613T745 398H571Q557 463 514 499T403 536Q320 536 268 481T215 340T267
200T403 144ZM326 -51H478L407 -215H272L326 -51Z" />
<glyph unicode="&#xc8;" glyph-name="Egrave" horiz-adv-x="610" d="M249 750L149 910H320L400 750H249ZM229 533V409H531V265H229V147H574V0H60V680H574V533H229Z" />
<glyph unicode="&#xc9;" glyph-name="Eacute" horiz-adv-x="610" d="M389 750H238L318 910H489L389 750ZM229 533V409H531V265H229V147H574V0H60V680H574V533H229Z" />
<glyph unicode="&#xca;" glyph-name="Ecircumflex" horiz-adv-x="610" d="M259 750H118L235 914H388L504 750H363L312 816L259 750ZM229 533V409H531V265H229V147H574V0H60V680H574V533H229Z" />
<glyph unicode="&#xcb;" glyph-name="Edieresis" horiz-adv-x="610" d="M201 745Q164 745 139 769T113 829T138 889T201 914Q237 914 263 890T289 829T263 769T201 745ZM422 745Q385 745 359 769T333 829T359 889T422 914Q458 914 484 890T510 829T484 769T422
745ZM229 533V409H531V265H229V147H574V0H60V680H574V533H229Z" />
<glyph unicode="&#xcc;" glyph-name="Igrave" horiz-adv-x="289" d="M233 750H82L-18 910H153L233 750ZM229 680V0H60V680H229Z" />
<glyph unicode="&#xcd;" glyph-name="Iacute" horiz-adv-x="289" d="M321 910L221 750H70L150 910H321ZM229 680V0H60V680H229Z" />
<glyph unicode="&#xce;" glyph-name="Icircumflex" horiz-adv-x="289" d="M145 816L92 750H-49L68 914H221L337 750H196L145 816ZM229 680V0H60V680H229Z" />
<glyph unicode="&#xcf;" glyph-name="Idieresis" horiz-adv-x="289" d="M34 914Q70 914 96 890T122 829T96 769T34 745Q-3 745 -28 769T-54 829T-29 889T34 914ZM255 914Q291 914 317 890T343 829T317 769T255 745Q218 745 192 769T166 829T192 889T255 914ZM229
680V0H60V680H229Z" />
<glyph unicode="&#xd0;" glyph-name="Eth" horiz-adv-x="737" d="M60 680H333Q494 680 597 586T700 342Q700 191 597 96T333 0H60V262H4V408H60V680ZM229 152H333Q416 152 472 206T528 342Q528 421 472 474T333 528H229V408H341V262H229V152Z" />
<glyph unicode="&#xd1;" glyph-name="Ntilde" horiz-adv-x="745" d="M380 760L342 782Q320 793 311 785T302 758H183Q183 810 202 845T251 893T313 906T372 890L410 868Q432 857 441 865T450 892H569Q569 840 550 805T501 756T439 743T380 760ZM685 680V0H555L229
373V0H60V680H189L517 297V680H685Z" />
<glyph unicode="&#xd2;" glyph-name="Ograve" horiz-adv-x="808" d="M492 750H341L241 910H412L492 750ZM251 694T404 694T660 592T764 340T661 89T404 -14T148 88T44 340T147 591ZM323 143T404 143T539 200T593 340T539 479T404 537T269 480T215 340T269 201Z" />
<glyph unicode="&#xd3;" glyph-name="Oacute" horiz-adv-x="808" d="M581 910L481 750H330L410 910H581ZM251 694T404 694T660 592T764 340T661 89T404 -14T148 88T44 340T147 591ZM323 143T404 143T539 200T593 340T539 479T404 537T269 480T215 340T269 201Z" />
<glyph unicode="&#xd4;" glyph-name="Ocircumflex" horiz-adv-x="808" d="M404 816L351 750H210L327 914H480L596 750H455L404 816ZM251 694T404 694T660 592T764 340T661 89T404 -14T148 88T44 340T147 591ZM323 143T404 143T539 200T593 340T539 479T404 537T269
480T215 340T269 201Z" />
<glyph unicode="&#xd5;" glyph-name="Otilde" horiz-adv-x="808" d="M481 892H600Q600 840 581 805T532 756T470 743T411 760L373 782Q350 793 342 785T333 758H214Q214 810 233 845T282 893T344 906T403 890L441 868Q464 857 472 865T481 892ZM251 694T404 694T660
592T764 340T661 89T404 -14T148 88T44 340T147 591ZM323 143T404 143T539 200T593 340T539 479T404 537T269 480T215 340T269 201Z" />
<glyph unicode="&#xd6;" glyph-name="Odieresis" horiz-adv-x="808" d="M293 914Q329 914 355 890T381 829T355 769T293 745Q256 745 231 769T205 829T230 889T293 914ZM514 914Q550 914 576 890T602 829T576 769T514 745Q477 745 451 769T425 829T451 889T514
914ZM251 694T404 694T660 592T764 340T661 89T404 -14T148 88T44 340T147 591ZM323 143T404 143T539 200T593 340T539 479T404 537T269 480T215 340T269 201Z" />
<glyph unicode="&#xd7;" glyph-name="multiply" horiz-adv-x="654" d="M557 183L466 92L327 231L188 92L97 183L236 322L97 461L188 552L327 413L466 552L557 461L418 322L557 183Z" />
<glyph unicode="&#xd8;" glyph-name="Oslash" horiz-adv-x="808" d="M711 632L669 582Q764 482 764 340Q764 191 661 89T404 -14Q298 -14 213 38L164 -20L87 45L135 102Q44 201 44 340Q44 489 147 591T404 694Q506 694 590 645L634 697L711 632ZM215 340Q215 282
245 233L485 519Q449 537 404 537Q323 537 269 480T215 340ZM404 143Q485 143 539 200T593 340Q593 402 560 452L318 164Q356 143 404 143Z" />
<glyph unicode="&#xd9;" glyph-name="Ugrave" horiz-adv-x="733" d="M455 750H304L204 910H375L455 750ZM683 680V317Q683 160 598 73T366 -15T135 72T50 317V680H220V314Q220 236 259 190T366 143T473 189T513 314V680H683Z" />
<glyph unicode="&#xda;" glyph-name="Uacute" horiz-adv-x="733" d="M544 910L444 750H293L373 910H544ZM683 680V317Q683 160 598 73T366 -15T135 72T50 317V680H220V314Q220 236 259 190T366 143T473 189T513 314V680H683Z" />
<glyph unicode="&#xdb;" glyph-name="Ucircumflex" horiz-adv-x="733" d="M367 816L314 750H173L290 914H443L559 750H418L367 816ZM683 680V317Q683 160 598 73T366 -15T135 72T50 317V680H220V314Q220 236 259 190T366 143T473 189T513 314V680H683Z" />
<glyph unicode="&#xdc;" glyph-name="Udieresis" horiz-adv-x="733" d="M256 914Q292 914 318 890T344 829T318 769T256 745Q219 745 194 769T168 829T193 889T256 914ZM477 914Q513 914 539 890T565 829T539 769T477 745Q440 745 414 769T388 829T414 889T477
914ZM683 680V317Q683 160 598 73T366 -15T135 72T50 317V680H220V314Q220 236 259 190T366 143T473 189T513 314V680H683Z" />
<glyph unicode="&#xdd;" glyph-name="Yacute" horiz-adv-x="719" d="M437 750H286L366 910H537L437 750ZM713 680L445 205V0H275V205L6 680H193L359 384L526 680H713Z" />
<glyph unicode="&#xde;" glyph-name="Thorn" horiz-adv-x="641" d="M229 594H334Q467 594 544 527T622 345Q622 226 541 157T321 87H229V0H60V680H229V594ZM229 235H331Q387 235 420 265T454 345Q454 391 421 418T331 445H229V235Z" />
<glyph unicode="&#xdf;" glyph-name="germandbls" horiz-adv-x="665" d="M492 359Q623 323 623 193Q623 99 556 47T366 -5Q355 -5 295 -3V126H345Q403 126 433 147T463 205Q463 240 439 259T371 278H305V386Q360 396 385 423T410 483Q410 518 388 538T323 559Q217
559 217 395V0H55V405Q55 544 123 619T322 695Q434 695 501 642T570 495Q572 398 492 359Z" />
<glyph unicode="&#xe0;" glyph-name="agrave" horiz-adv-x="624" d="M405 557H254L154 717H325L405 557ZM407 485H569V0H407V27Q349 -10 274 -10Q175 -10 104 63T33 243T104 423T274 496Q349 496 407 459V485ZM307 123Q367 123 407 168V319Q366 364 307 364Q258
364 225 329T192 243T225 158T307 123Z" />
<glyph unicode="&#xe1;" glyph-name="aacute" horiz-adv-x="624" d="M501 717L401 557H250L330 717H501ZM407 485H569V0H407V27Q349 -10 274 -10Q175 -10 104 63T33 243T104 423T274 496Q349 496 407 459V485ZM307 123Q367 123 407 168V319Q366 364 307 364Q258
364 225 329T192 243T225 158T307 123Z" />
<glyph unicode="&#xe2;" glyph-name="acircumflex" horiz-adv-x="624" d="M324 616L271 550H130L247 714H400L516 550H375L324 616ZM407 485H569V0H407V27Q349 -10 274 -10Q175 -10 104 63T33 243T104 423T274 496Q349 496 407 459V485ZM307 123Q367 123 407 168V319Q366
364 307 364Q258 364 225 329T192 243T225 158T307 123Z" />
<glyph unicode="&#xe3;" glyph-name="atilde" horiz-adv-x="624" d="M331 573L293 595Q270 606 262 598T253 571H134Q134 623 153 658T202 706T264 719T323 703L361 681Q384 670 392 678T401 705H520Q520 653 501 618T452 569T390 556T331 573ZM407 485H569V0H407V27Q349
-10 274 -10Q175 -10 104 63T33 243T104 423T274 496Q349 496 407 459V485ZM307 123Q367 123 407 168V319Q366 364 307 364Q258 364 225 329T192 243T225 158T307 123Z" />
<glyph unicode="&#xe4;" glyph-name="adieresis" horiz-adv-x="624" d="M214 552Q177 552 152 576T126 636T151 696T214 721Q250 721 276 697T302 636T276 576T214 552ZM435 552Q398 552 372 576T346 636T372 696T435 721Q471 721 497 697T523 636T497 576T435
552ZM407 485H569V0H407V27Q349 -10 274 -10Q175 -10 104 63T33 243T104 423T274 496Q349 496 407 459V485ZM307 123Q367 123 407 168V319Q366 364 307 364Q258 364 225 329T192 243T225 158T307 123Z" />
<glyph unicode="&#xe5;" glyph-name="aring" horiz-adv-x="624" d="M379 548T324 548T235 580T200 664T234 747T324 779T413 748T448 664T414 580ZM344 706T324 706T292 695T280 664Q280 644 292 632T324 620T356 632T368 664Q368 683 356 694ZM407 485H569V0H407V27Q349
-10 274 -10Q175 -10 104 63T33 243T104 423T274 496Q349 496 407 459V485ZM307 123Q367 123 407 168V319Q366 364 307 364Q258 364 225 329T192 243T225 158T307 123Z" />
<glyph unicode="&#xe6;" glyph-name="ae" horiz-adv-x="893" d="M859 253Q859 226 856 203H511Q531 117 620 117Q672 117 694 152H855Q837 77 773 32T618 -14Q507 -14 434 51Q347 -9 235 -9Q141 -9 85 32T28 147Q28 216 80 255T222 294H356Q356 374 281 374Q250
374 230 360T206 320H52Q56 407 122 453T284 500Q384 500 444 446Q512 500 610 500Q718 500 788 432T859 253ZM613 375Q532 375 512 293H704Q691 375 613 375ZM181 158Q181 138 199 124T253 110Q310 110 369 150Q361 171 358 191H227Q206 191 194 182T181 158Z"
/>
<glyph unicode="&#xe7;" glyph-name="ccedilla" horiz-adv-x="580" d="M299 126Q336 126 362 146T394 199H547Q538 106 469 48T298 -11Q184 -11 109 60T33 243Q33 353 108 424T298 496Q399 496 468 438T547 286H394Q388 319 362 339T299 359Q248 359 218 327T188
243T218 159T299 126ZM221 -51H373L302 -215H167L221 -51Z" />
<glyph unicode="&#xe8;" glyph-name="egrave" horiz-adv-x="573" d="M373 557H222L122 717H293L373 557ZM539 253Q539 226 536 203H191Q211 117 300 117Q352 117 374 152H535Q517 77 453 32T298 -14Q180 -14 107 58T33 243Q33 356 104 428T290 500Q398 500 468
432T539 253ZM293 375Q212 375 192 293H384Q371 375 293 375Z" />
<glyph unicode="&#xe9;" glyph-name="eacute" horiz-adv-x="573" d="M469 717L369 557H218L298 717H469ZM539 253Q539 226 536 203H191Q211 117 300 117Q352 117 374 152H535Q517 77 453 32T298 -14Q180 -14 107 58T33 243Q33 356 104 428T290 500Q398 500 468
432T539 253ZM293 375Q212 375 192 293H384Q371 375 293 375Z" />
<glyph unicode="&#xea;" glyph-name="ecircumflex" horiz-adv-x="573" d="M292 616L239 550H98L215 714H368L484 550H343L292 616ZM539 253Q539 226 536 203H191Q211 117 300 117Q352 117 374 152H535Q517 77 453 32T298 -14Q180 -14 107 58T33 243Q33 356 104
428T290 500Q398 500 468 432T539 253ZM293 375Q212 375 192 293H384Q371 375 293 375Z" />
<glyph unicode="&#xeb;" glyph-name="edieresis" horiz-adv-x="573" d="M182 552Q145 552 120 576T94 636T119 696T182 721Q218 721 244 697T270 636T244 576T182 552ZM403 552Q366 552 340 576T314 636T340 696T403 721Q439 721 465 697T491 636T465 576T403
552ZM539 253Q539 226 536 203H191Q211 117 300 117Q352 117 374 152H535Q517 77 453 32T298 -14Q180 -14 107 58T33 243Q33 356 104 428T290 500Q398 500 468 432T539 253ZM293 375Q212 375 192 293H384Q371 375 293 375Z" />
<glyph unicode="&#xec;" glyph-name="igrave" horiz-adv-x="279" d="M221 557H70L-30 717H141L221 557ZM221 485V0H59V485H221Z" />
<glyph unicode="&#xed;" glyph-name="iacute" horiz-adv-x="279" d="M317 717L217 557H66L146 717H317ZM221 485V0H59V485H221Z" />
<glyph unicode="&#xee;" glyph-name="icircumflex" horiz-adv-x="279" d="M140 616L87 550H-54L63 714H216L332 550H191L140 616ZM221 485V0H59V485H221Z" />
<glyph unicode="&#xef;" glyph-name="idieresis" horiz-adv-x="279" d="M30 721Q66 721 92 697T118 636T92 576T30 552Q-7 552 -32 576T-58 636T-33 696T30 721ZM251 721Q287 721 313 697T339 636T313 576T251 552Q214 552 188 576T162 636T188 696T251 721ZM221
485V0H59V485H221Z" />
<glyph unicode="&#xf0;" glyph-name="eth" horiz-adv-x="593" d="M468 621L414 601Q559 449 559 243Q559 132 485 59T297 -15Q182 -15 108 58T33 243Q33 353 107 424T297 496Q318 496 337 493Q312 526 280 553L132 500L98 588L184 619Q151 640 98 665L238 726Q285
704 331 673L434 710L468 621ZM297 125Q345 125 375 158T406 242Q406 290 376 323T297 356Q248 356 218 323T187 242Q187 192 217 159T297 125Z" />
<glyph unicode="&#xf1;" glyph-name="ntilde" horiz-adv-x="606" d="M311 573L273 595Q250 606 242 598T233 571H114Q114 623 133 658T182 706T244 719T303 703L341 681Q364 670 372 678T381 705H500Q500 653 481 618T432 569T370 556T311 573ZM351 500Q443 500
500 440T557 277V0H395V251Q395 301 372 327T306 353Q260 353 218 305V0H55V485H218V453Q279 500 351 500Z" />
<glyph unicode="&#xf2;" glyph-name="ograve" horiz-adv-x="593" d="M298 717L378 557H227L127 717H298ZM297 496Q411 496 485 425T559 243Q559 132 485 59T297 -15Q182 -15 108 58T33 243Q33 353 107 424T297 496ZM297 125Q345 125 375 158T406 242Q406 290 376
323T297 356Q248 356 218 323T187 242Q187 192 217 159T297 125Z" />
<glyph unicode="&#xf3;" glyph-name="oacute" horiz-adv-x="593" d="M303 717H474L374 557H223L303 717ZM297 496Q411 496 485 425T559 243Q559 132 485 59T297 -15Q182 -15 108 58T33 243Q33 353 107 424T297 496ZM297 125Q345 125 375 158T406 242Q406 290 376
323T297 356Q248 356 218 323T187 242Q187 192 217 159T297 125Z" />
<glyph unicode="&#xf4;" glyph-name="ocircumflex" horiz-adv-x="593" d="M348 550L297 616L244 550H103L220 714H373L489 550H348ZM297 496Q411 496 485 425T559 243Q559 132 485 59T297 -15Q182 -15 108 58T33 243Q33 353 107 424T297 496ZM297 125Q345 125
375 158T406 242Q406 290 376 323T297 356Q248 356 218 323T187 242Q187 192 217 159T297 125Z" />
<glyph unicode="&#xf5;" glyph-name="otilde" horiz-adv-x="593" d="M374 705H493Q493 653 474 618T425 569T363 556T304 573L266 595Q244 606 235 598T226 571H107Q107 623 126 658T175 706T237 719T296 703L334 681Q356 670 365 678T374 705ZM297 496Q411 496
485 425T559 243Q559 132 485 59T297 -15Q182 -15 108 58T33 243Q33 353 107 424T297 496ZM297 125Q345 125 375 158T406 242Q406 290 376 323T297 356Q248 356 218 323T187 242Q187 192 217 159T297 125Z" />
<glyph unicode="&#xf6;" glyph-name="odieresis" horiz-adv-x="593" d="M187 721Q223 721 249 697T275 636T249 576T187 552Q150 552 125 576T99 636T124 696T187 721ZM408 721Q444 721 470 697T496 636T470 576T408 552Q371 552 345 576T319 636T345 696T408
721ZM297 496Q411 496 485 425T559 243Q559 132 485 59T297 -15Q182 -15 108 58T33 243Q33 353 107 424T297 496ZM297 125Q345 125 375 158T406 242Q406 290 376 323T297 356Q248 356 218 323T187 242Q187 192 217 159T297 125Z" />
<glyph unicode="&#xf7;" glyph-name="divide" horiz-adv-x="682" d="M376 447T341 447T282 470T257 528T281 585T341 609T401 586T426 528T401 471ZM97 392H585V264H97V392ZM376 52T341 52T282 75T257 133T281 190T341 214T401 191T426 133T401 76Z" />
<glyph unicode="&#xf8;" glyph-name="oslash" horiz-adv-x="593" d="M520 447L494 416Q559 345 559 243Q559 132 485 59T297 -15Q220 -15 160 19L130 -17L68 34L97 69Q33 141 33 243Q33 353 107 424T297 496Q370 496 429 465L457 498L520 447ZM187 242Q187 214
198 189L333 350Q316 356 297 356Q248 356 218 323T187 242ZM297 125Q345 125 375 158T406 242Q406 272 394 297L256 132Q277 125 297 125Z" />
<glyph unicode="&#xf9;" glyph-name="ugrave" horiz-adv-x="606" d="M234 557L134 717H305L385 557H234ZM551 485V0H389V32Q328 -15 256 -15Q163 -15 106 45T49 208V485H211V233Q211 183 235 157T300 131Q346 131 389 179V485H551Z" />
<glyph unicode="&#xfa;" glyph-name="uacute" horiz-adv-x="606" d="M381 557H230L310 717H481L381 557ZM551 485V0H389V32Q328 -15 256 -15Q163 -15 106 45T49 208V485H211V233Q211 183 235 157T300 131Q346 131 389 179V485H551Z" />
<glyph unicode="&#xfb;" glyph-name="ucircumflex" horiz-adv-x="606" d="M251 550H110L227 714H380L496 550H355L304 616L251 550ZM551 485V0H389V32Q328 -15 256 -15Q163 -15 106 45T49 208V485H211V233Q211 183 235 157T300 131Q346 131 389 179V485H551Z" />
<glyph unicode="&#xfc;" glyph-name="udieresis" horiz-adv-x="606" d="M194 552Q157 552 132 576T106 636T131 696T194 721Q230 721 256 697T282 636T256 576T194 552ZM415 552Q378 552 352 576T326 636T352 696T415 721Q451 721 477 697T503 636T477 576T415
552ZM551 485V0H389V32Q328 -15 256 -15Q163 -15 106 45T49 208V485H211V233Q211 183 235 157T300 131Q346 131 389 179V485H551Z" />
<glyph unicode="&#xfd;" glyph-name="yacute" horiz-adv-x="641" d="M400 557H249L329 717H500L400 557ZM624 485L326 -224H155L247 -6L17 485H188L328 186L454 485H624Z" />
<glyph unicode="&#xfe;" glyph-name="thorn" horiz-adv-x="618" d="M350 496Q449 496 520 423T591 243T520 63T350 -10Q277 -10 218 26V-225H55V680H218V460Q277 496 350 496ZM318 123Q367 123 399 157T432 243T400 329T318 364Q258 364 218 319V167Q257 123 318 123Z" />
<glyph unicode="&#xff;" glyph-name="ydieresis" horiz-adv-x="641" d="M213 552Q176 552 151 576T125 636T150 696T213 721Q249 721 275 697T301 636T275 576T213 552ZM434 552Q397 552 371 576T345 636T371 696T434 721Q470 721 496 697T522 636T496 576T434
552ZM624 485L326 -224H155L247 -6L17 485H188L328 186L454 485H624Z" />
<glyph unicode="&#x100;" glyph-name="Amacron" horiz-adv-x="763" d="M524 751H238V875H524V751ZM525 117H237L192 0H12L301 684H463L751 0H571L525 117ZM469 261L381 487L293 261H469Z" />
<glyph unicode="&#x101;" glyph-name="amacron" horiz-adv-x="624" d="M467 694V570H181V694H467ZM407 485H569V0H407V27Q349 -10 274 -10Q175 -10 104 63T33 243T104 423T274 496Q349 496 407 459V485ZM307 123Q367 123 407 168V319Q366 364 307 364Q258 364
225 329T192 243T225 158T307 123Z" />
<glyph unicode="&#x102;" glyph-name="Abreve" horiz-adv-x="763" d="M460 748T381 748T254 792T206 917H321Q321 885 337 869T381 852Q407 852 424 868T441 917H556Q556 837 508 793ZM525 117H237L192 0H12L301 684H463L751 0H571L525 117ZM469 261L381 487L293
261H469Z" />
<glyph unicode="&#x103;" glyph-name="abreve" horiz-adv-x="624" d="M403 544T324 544T197 588T149 713H264Q264 681 280 665T324 648Q350 648 367 664T384 713H499Q499 633 451 589ZM407 485H569V0H407V27Q349 -10 274 -10Q175 -10 104 63T33 243T104 423T274
496Q349 496 407 459V485ZM307 123Q367 123 407 168V319Q366 364 307 364Q258 364 225 329T192 243T225 158T307 123Z" />
<glyph unicode="&#x104;" glyph-name="Aogonek" horiz-adv-x="763" d="M746 -53L761 -173Q733 -187 680 -187Q608 -187 562 -153T516 -60Q516 -13 562 24L525 117H237L192 0H12L301 684H463L751 0H679Q649 -11 649 -32Q649 -60 699 -60Q719 -60 746 -53ZM469 261L381
487L293 261H469Z" />
<glyph unicode="&#x105;" glyph-name="aogonek" horiz-adv-x="624" d="M591 -56L606 -176Q578 -190 525 -190Q453 -190 407 -156T361 -63Q361 -15 407 21V27Q349 -10 274 -10Q175 -10 104 63T33 243T104 423T274 496Q349 496 407 459V485H569V0H533Q494 -11 494
-35Q494 -63 544 -63Q564 -63 591 -56ZM307 123Q367 123 407 168V319Q366 364 307 364Q258 364 225 329T192 243T225 158T307 123Z" />
<glyph unicode="&#x106;" glyph-name="Cacute" horiz-adv-x="789" d="M478 750H327L407 910H578L478 750ZM403 144Q470 144 513 180T571 282H745Q728 149 635 68T404 -14Q250 -14 147 86T44 340T147 593T404 694Q542 694 635 613T745 398H571Q557 463 514 499T403
536Q320 536 268 481T215 340T267 200T403 144Z" />
<glyph unicode="&#x107;" glyph-name="cacute" horiz-adv-x="580" d="M370 557H219L299 717H470L370 557ZM299 126Q336 126 362 146T394 199H547Q538 106 469 48T298 -11Q184 -11 109 60T33 243Q33 353 108 424T298 496Q399 496 468 438T547 286H394Q388 319 362
339T299 359Q248 359 218 327T188 243T218 159T299 126Z" />
<glyph unicode="&#x10a;" glyph-name="Cdotaccent" horiz-adv-x="789" d="M439 743T401 743T336 768T309 831T336 893T401 919T465 894T492 831T466 769ZM403 144Q470 144 513 180T571 282H745Q728 149 635 68T404 -14Q250 -14 147 86T44 340T147 593T404 694Q542
694 635 613T745 398H571Q557 463 514 499T403 536Q320 536 268 481T215 340T267 200T403 144Z" />
<glyph unicode="&#x10b;" glyph-name="cdotaccent" horiz-adv-x="580" d="M331 550T293 550T228 575T201 638T228 700T293 726T357 701T384 638T358 576ZM299 126Q336 126 362 146T394 199H547Q538 106 469 48T298 -11Q184 -11 109 60T33 243Q33 353 108 424T298
496Q399 496 468 438T547 286H394Q388 319 362 339T299 359Q248 359 218 327T188 243T218 159T299 126Z" />
<glyph unicode="&#x10c;" glyph-name="Ccaron" horiz-adv-x="789" d="M323 740L207 900H349L402 834L453 900H595L479 740H323ZM403 144Q470 144 513 180T571 282H745Q728 149 635 68T404 -14Q250 -14 147 86T44 340T147 593T404 694Q542 694 635 613T745 398H571Q557
463 514 499T403 536Q320 536 268 481T215 340T267 200T403 144Z" />
<glyph unicode="&#x10d;" glyph-name="ccaron" horiz-adv-x="580" d="M214 551L98 711H240L293 645L344 711H486L370 551H214ZM299 126Q336 126 362 146T394 199H547Q538 106 469 48T298 -11Q184 -11 109 60T33 243Q33 353 108 424T298 496Q399 496 468 438T547
286H394Q388 319 362 339T299 359Q248 359 218 327T188 243T218 159T299 126Z" />
<glyph unicode="&#x10e;" glyph-name="Dcaron" horiz-adv-x="737" d="M260 740L144 900H286L339 834L390 900H532L416 740H260ZM60 680H333Q494 680 597 586T700 342Q700 191 597 96T333 0H60V680ZM229 152H333Q416 152 472 206T528 342Q528 421 472 474T333 528H229V152Z"
/>
<glyph unicode="&#x10f;" glyph-name="dcaron" horiz-adv-x="624" d="M407 710H569V0H407V25Q349 -12 274 -12Q175 -12 104 61T33 242Q33 349 104 421T274 494Q349 494 407 457V710ZM770 710L731 506H616L622 710H770ZM307 121Q367 121 407 166V317Q366 362 307
362Q258 362 225 327T192 242Q192 191 225 156T307 121Z" />
<glyph unicode="&#x110;" glyph-name="Dcroat" horiz-adv-x="737" d="M60 680H333Q494 680 597 586T700 342Q700 191 597 96T333 0H60V262H4V408H60V680ZM229 152H333Q416 152 472 206T528 342Q528 421 472 474T333 528H229V408H341V262H229V152Z" />
<glyph unicode="&#x111;" glyph-name="" horiz-adv-x="624" d="M606 545H569V0H407V25Q349 -12 274 -12Q175 -12 104 61T33 242Q33 349 104 421T274 494Q349 494 407 457V545H259V659H407V710H569V659H606V545ZM307 121Q367 121 407 166V317Q366 362 307 362Q258
362 225 327T192 242Q192 191 225 156T307 121Z" />
<glyph unicode="&#x112;" glyph-name="Emacron" horiz-adv-x="610" d="M455 751H169V875H455V751ZM229 533V409H531V265H229V147H574V0H60V680H574V533H229Z" />
<glyph unicode="&#x113;" glyph-name="emacron" horiz-adv-x="573" d="M435 694V570H149V694H435ZM539 253Q539 226 536 203H191Q211 117 300 117Q352 117 374 152H535Q517 77 453 32T298 -14Q180 -14 107 58T33 243Q33 356 104 428T290 500Q398 500 468 432T539
253ZM293 375Q212 375 192 293H384Q371 375 293 375Z" />
<glyph unicode="&#x116;" glyph-name="Edotaccent" horiz-adv-x="610" d="M350 743T312 743T247 768T220 831T247 893T312 919T376 894T403 831T377 769ZM229 533V409H531V265H229V147H574V0H60V680H574V533H229Z" />
<glyph unicode="&#x117;" glyph-name="edotaccent" horiz-adv-x="573" d="M330 550T292 550T227 575T200 638T227 700T292 726T356 701T383 638T357 576ZM539 253Q539 226 536 203H191Q211 117 300 117Q352 117 374 152H535Q517 77 453 32T298 -14Q180 -14 107
58T33 243Q33 356 104 428T290 500Q398 500 468 432T539 253ZM293 375Q212 375 192 293H384Q371 375 293 375Z" />
<glyph unicode="&#x118;" glyph-name="Eogonek" horiz-adv-x="610" d="M596 -56L611 -176Q583 -190 530 -190Q458 -190 412 -156T366 -63Q366 -30 390 0H60V680H574V533H229V409H531V265H229V147H574V0H538Q499 -11 499 -35Q499 -63 549 -63Q569 -63 596 -56Z" />
<glyph unicode="&#x119;" glyph-name="eogonek" horiz-adv-x="573" d="M539 253Q539 226 536 203H191Q211 117 300 117Q352 117 374 152H535Q515 69 442 24Q409 -3 409 -31Q409 -65 458 -65Q479 -65 506 -58L521 -178Q493 -192 439 -192Q370 -192 326 -158T282
-69Q282 -41 297 -14Q179 -13 106 59T33 243Q33 356 104 428T290 500Q398 500 468 432T539 253ZM293 375Q212 375 192 293H384Q371 375 293 375Z" />
<glyph unicode="&#x11a;" glyph-name="Ecaron" horiz-adv-x="610" d="M233 740L117 900H259L312 834L363 900H505L389 740H233ZM229 533V409H531V265H229V147H574V0H60V680H574V533H229Z" />
<glyph unicode="&#x11b;" glyph-name="ecaron" horiz-adv-x="573" d="M369 551H213L97 711H239L292 645L343 711H485L369 551ZM539 253Q539 226 536 203H191Q211 117 300 117Q352 117 374 152H535Q517 77 453 32T298 -14Q180 -14 107 58T33 243Q33 356 104 428T290
500Q398 500 468 432T539 253ZM293 375Q212 375 192 293H384Q371 375 293 375Z" />
<glyph unicode="&#x11e;" glyph-name="Gbreve" horiz-adv-x="809" d="M482 748T403 748T276 792T228 917H343Q343 885 359 869T403 852Q429 852 446 868T463 917H578Q578 837 530 793ZM754 382V0H628L621 82Q543 -14 406 -14Q248 -14 146 85T44 333Q44 491 147
592T407 694Q536 694 631 626T747 438H569Q532 539 411 539Q323 539 269 483T215 337Q215 255 269 199T412 143Q531 143 585 247L390 249V382H754Z" />
<glyph unicode="&#x11f;" glyph-name="gbreve" horiz-adv-x="628" d="M406 544T327 544T200 588T152 713H267Q267 681 283 665T327 648Q353 648 370 664T387 713H502Q502 633 454 589ZM410 485H572V8Q572 -104 501 -168T313 -232Q202 -232 129 -174T50 -22H211Q222
-95 312 -95Q356 -95 383 -69T410 5V48Q352 14 278 14Q179 14 108 83T37 250Q37 359 107 429T278 500Q351 500 410 464V485ZM310 143Q370 143 410 188V322Q371 367 310 367Q260 367 228 335T195 250Q195 209 228 176T310 143Z" />
<glyph unicode="&#x120;" glyph-name="Gdotaccent" horiz-adv-x="809" d="M441 743T403 743T338 768T311 831T338 893T403 919T467 894T494 831T468 769ZM754 382V0H628L621 82Q543 -14 406 -14Q248 -14 146 85T44 333Q44 491 147 592T407 694Q536 694 631 626T747
438H569Q532 539 411 539Q323 539 269 483T215 337Q215 255 269 199T412 143Q531 143 585 247L390 249V382H754Z" />
<glyph unicode="&#x121;" glyph-name="gdotaccent" horiz-adv-x="628" d="M365 550T327 550T262 575T235 638T262 700T327 726T391 701T418 638T392 576ZM410 485H572V8Q572 -104 501 -168T313 -232Q202 -232 129 -174T50 -22H211Q222 -95 312 -95Q356 -95 383
-69T410 5V48Q352 14 278 14Q179 14 108 83T37 250Q37 359 107 429T278 500Q351 500 410 464V485ZM310 143Q370 143 410 188V322Q371 367 310 367Q260 367 228 335T195 250Q195 209 228 176T310 143Z" />
<glyph unicode="&#x122;" glyph-name="Gcommaaccent" horiz-adv-x="809" d="M754 382V0H628L621 82Q543 -14 406 -14Q248 -14 146 85T44 333Q44 491 147 592T407 694Q536 694 631 626T747 438H569Q532 539 411 539Q323 539 269 483T215 337Q215 255 269 199T412
143Q531 143 585 247L390 249V382H754ZM368 -44T403 -44T462 -67T487 -124Q487 -131 487 -136T483 -148T478 -161T468 -177T454 -198T434 -227T408 -265H325L366 -191Q318 -171 318 -124Q318 -91 343 -68Z" />
<glyph unicode="&#x123;" glyph-name="gcommaaccent" horiz-adv-x="628" d="M362 529T327 529T268 552T243 609Q243 616 243 621T247 633T252 646T262 662T276 683T296 712T322 750H405L364 676Q412 656 412 609Q412 576 387 553ZM410 485H572V8Q572 -104 501
-168T313 -232Q202 -232 129 -174T50 -22H211Q222 -95 312 -95Q356 -95 383 -69T410 5V48Q352 14 278 14Q179 14 108 83T37 250Q37 359 107 429T278 500Q351 500 410 464V485ZM310 143Q370 143 410 188V322Q371 367 310 367Q260 367 228 335T195 250Q195 209 228
176T310 143Z" />
<glyph unicode="&#x126;" glyph-name="Hbar" horiz-adv-x="734" d="M712 485H674V0H506V255H229V0H60V485H15V600H60V680H229V600H506V680H674V600H712V485ZM506 485H229V407H506V485Z" />
<glyph unicode="&#x127;" glyph-name="hbar" horiz-adv-x="606" d="M351 500Q443 500 500 440T557 277V0H395V251Q395 301 372 327T306 353Q260 353 218 305V0H55V575H22V670H55V710H218V670H327V575H218V453Q279 500 351 500Z" />
<glyph unicode="&#x12a;" glyph-name="Imacron" horiz-adv-x="289" d="M287 875V751H1V875H287ZM229 680V0H60V680H229Z" />
<glyph unicode="&#x12b;" glyph-name="imacron" horiz-adv-x="279" d="M283 694V570H-3V694H283ZM221 485V0H59V485H221Z" />
<glyph unicode="&#x12e;" glyph-name="Iogonek" horiz-adv-x="289" d="M249 -56L264 -176Q236 -190 183 -190Q111 -190 65 -156T19 -63Q19 -18 60 17V680H229V0H191Q152 -11 152 -35Q152 -63 202 -63Q222 -63 249 -56Z" />
<glyph unicode="&#x12f;" glyph-name="iogonek" horiz-adv-x="279" d="M139 561Q99 561 72 587T44 652T71 717T139 744Q178 744 206 718T234 652T206 587T139 561ZM242 -56L257 -176Q229 -190 176 -190Q104 -190 58 -156T12 -63Q12 -15 59 22V485H221V0H184Q145
-11 145 -35Q145 -63 195 -63Q215 -63 242 -56Z" />
<glyph unicode="&#x130;" glyph-name="Idot" horiz-adv-x="289" d="M144 745Q104 745 77 771T49 836T76 901T144 927Q183 927 210 901T238 836T211 771T144 745ZM229 680V0H60V680H229Z" />
<glyph unicode="&#x131;" glyph-name="dotlessi" horiz-adv-x="279" d="M221 485V0H59V485H221Z" />
<glyph unicode="&#x132;" glyph-name="IJ" horiz-adv-x="902" d="M229 680V0H60V680H229ZM852 680V272Q852 134 778 60T571 -15Q450 -15 376 52T297 241H465Q468 193 498 166T576 139Q623 139 651 174T680 272V680H852Z" />
<glyph unicode="&#x133;" glyph-name="ij" horiz-adv-x="555" d="M139 561Q99 561 72 587T44 652T71 717T139 744Q178 744 206 718T234 652T206 587T139 561ZM415 561Q376 561 348 587T320 652T348 717T415 744Q455 744 482 718T510 652T483 587T415 561ZM59 485H221V0H59V485ZM497
485V39Q497 -81 446 -139T258 -201L244 -66Q296 -61 315 -43T334 18V485H497Z" />
<glyph unicode="&#x136;" glyph-name="Kcommaaccent" horiz-adv-x="728" d="M722 0H516L326 250L229 138V0H60V680H229V371L500 680H700L441 382L722 0ZM330 -44T365 -44T424 -67T449 -124Q449 -131 449 -136T445 -148T440 -161T430 -177T416 -198T396 -227T370
-265H287L328 -191Q280 -171 280 -124Q280 -91 305 -68Z" />
<glyph unicode="&#x137;" glyph-name="kcommaaccent" horiz-adv-x="598" d="M595 0H401L285 168L218 96V0H55V710H218V304L386 485H579L395 287L595 0ZM265 -44T300 -44T359 -67T384 -124Q384 -131 384 -136T380 -148T375 -161T365 -177T351 -198T331 -227T305
-265H222L263 -191Q215 -171 215 -124Q215 -91 240 -68Z" />
<glyph unicode="&#x139;" glyph-name="Lacute" horiz-adv-x="585" d="M221 750H70L150 910H321L221 750ZM565 149V0H60V680H229V149H565Z" />
<glyph unicode="&#x13a;" glyph-name="lacute" horiz-adv-x="273" d="M314 942L214 782H63L143 942H314ZM218 710V0H55V710H218Z" />
<glyph unicode="&#x13b;" glyph-name="Lcommaaccent" horiz-adv-x="585" d="M565 149V0H60V680H229V149H565ZM285 -44T320 -44T379 -67T404 -124Q404 -131 404 -136T400 -148T395 -161T385 -177T371 -198T351 -227T325 -265H242L283 -191Q235 -171 235 -124Q235
-91 260 -68Z" />
<glyph unicode="&#x13c;" glyph-name="lcommaaccent" horiz-adv-x="273" d="M218 710V0H55V710H218ZM56 -265L97 -191Q49 -171 49 -124Q49 -91 74 -68T134 -44T193 -67T218 -124Q218 -131 218 -136T214 -148T209 -161T199 -177T185 -198T165 -227T139 -265H56Z" />
<glyph unicode="&#x13d;" glyph-name="Lcaron" horiz-adv-x="585" d="M565 149V0H60V680H229V149H565ZM446 476H331L337 680H485L446 476Z" />
<glyph unicode="&#x13e;" glyph-name="lcaron" horiz-adv-x="273" d="M218 710V0H55V710H218ZM403 710L364 506H249L255 710H403Z" />
<glyph unicode="&#x13f;" glyph-name="Ldot" horiz-adv-x="585" d="M565 149V0H60V680H229V149H565ZM450 272T412 272T347 297T320 360T347 422T412 448T476 423T503 360T477 298Z" />
<glyph unicode="&#x140;" glyph-name="ldot" horiz-adv-x="464" d="M218 710V0H55V710H218ZM371 256T333 256T268 281T241 344T268 406T333 432T397 407T424 344T398 282Z" />
<glyph unicode="&#x141;" glyph-name="Lslash" horiz-adv-x="585" d="M565 149V0H60V235L7 216V349L60 368V680H229V429L380 483V350L229 296V149H565Z" />
<glyph unicode="&#x142;" glyph-name="lslash" horiz-adv-x="273" d="M271 338L218 318V0H55V258L2 238V385L55 405V710H218V464L271 484V338Z" />
<glyph unicode="&#x143;" glyph-name="Nacute" horiz-adv-x="745" d="M450 750H299L379 910H550L450 750ZM685 680V0H555L229 373V0H60V680H189L517 297V680H685Z" />
<glyph unicode="&#x144;" glyph-name="nacute" horiz-adv-x="606" d="M381 557H230L310 717H481L381 557ZM351 500Q443 500 500 440T557 277V0H395V251Q395 301 372 327T306 353Q260 353 218 305V0H55V485H218V453Q279 500 351 500Z" />
<glyph unicode="&#x145;" glyph-name="Ncommaaccent" horiz-adv-x="745" d="M685 680V0H555L229 373V0H60V680H189L517 297V680H685ZM338 -44T373 -44T432 -67T457 -124Q457 -131 457 -136T453 -148T448 -161T438 -177T424 -198T404 -227T378 -265H295L336 -191Q288
-171 288 -124Q288 -91 313 -68Z" />
<glyph unicode="&#x146;" glyph-name="ncommaaccent" horiz-adv-x="606" d="M351 500Q443 500 500 440T557 277V0H395V251Q395 301 372 327T306 353Q260 353 218 305V0H55V485H218V453Q279 500 351 500ZM269 -44T304 -44T363 -67T388 -124Q388 -131 388 -136T384
-148T379 -161T369 -177T355 -198T335 -227T309 -265H226L267 -191Q219 -171 219 -124Q219 -91 244 -68Z" />
<glyph unicode="&#x147;" glyph-name="Ncaron" horiz-adv-x="745" d="M294 740L178 900H320L373 834L424 900H566L450 740H294ZM685 680V0H555L229 373V0H60V680H189L517 297V680H685Z" />
<glyph unicode="&#x148;" glyph-name="ncaron" horiz-adv-x="606" d="M225 551L109 711H251L304 645L355 711H497L381 551H225ZM351 500Q443 500 500 440T557 277V0H395V251Q395 301 372 327T306 353Q260 353 218 305V0H55V485H218V453Q279 500 351 500Z" />
<glyph unicode="&#x14c;" glyph-name="Omacron" horiz-adv-x="808" d="M547 875V751H261V875H547ZM251 694T404 694T660 592T764 340T661 89T404 -14T148 88T44 340T147 591ZM323 143T404 143T539 200T593 340T539 479T404 537T269 480T215 340T269 201Z" />
<glyph unicode="&#x14d;" glyph-name="omacron" horiz-adv-x="593" d="M154 694H440V570H154V694ZM297 496Q411 496 485 425T559 243Q559 132 485 59T297 -15Q182 -15 108 58T33 243Q33 353 107 424T297 496ZM297 125Q345 125 375 158T406 242Q406 290 376 323T297
356Q248 356 218 323T187 242Q187 192 217 159T297 125Z" />
<glyph unicode="&#x150;" glyph-name="Ohungarumlaut" horiz-adv-x="808" d="M455 911L382 751H258L311 911H455ZM619 911L546 751H422L475 911H619ZM251 694T404 694T660 592T764 340T661 89T404 -14T148 88T44 340T147 591ZM323 143T404 143T539 200T593 340T539
479T404 537T269 480T215 340T269 201Z" />
<glyph unicode="&#x151;" glyph-name="ohungarumlaut" horiz-adv-x="593" d="M204 718H348L275 558H151L204 718ZM368 718H512L439 558H315L368 718ZM297 496Q411 496 485 425T559 243Q559 132 485 59T297 -15Q182 -15 108 58T33 243Q33 353 107 424T297 496ZM297
125Q345 125 375 158T406 242Q406 290 376 323T297 356Q248 356 218 323T187 242Q187 192 217 159T297 125Z" />
<glyph unicode="&#x152;" glyph-name="OE" horiz-adv-x="986" d="M604 533V409H906V265H604V147H949V0H397Q234 0 129 95T24 340T129 584T397 680H949V533H604ZM435 158V522H397Q306 522 251 472T195 340T250 209T397 158H435Z" />
<glyph unicode="&#x153;" glyph-name="oe" horiz-adv-x="946" d="M912 253Q912 218 910 203H564Q584 117 673 117Q726 117 748 152H908Q891 77 826 32T672 -14Q557 -14 482 56Q409 -15 297 -15Q182 -15 108 58T33 243Q33 353 107 424T297 496Q405 496 479 430Q551
500 663 500Q771 500 841 432T912 253ZM666 375Q585 375 565 293H756Q744 375 666 375ZM297 125Q345 125 375 158T406 242Q406 290 376 323T297 356Q248 356 218 323T187 242Q187 192 217 159T297 125Z" />
<glyph unicode="&#x154;" glyph-name="Racute" horiz-adv-x="701" d="M391 750H240L320 910H491L391 750ZM487 0L357 197H229V0H60V680H357Q485 680 562 616T639 441Q639 375 609 323T524 238L684 0H487ZM229 349H354Q404 349 437 374T470 441Q470 481 437 506T354
531H229V349Z" />
<glyph unicode="&#x155;" glyph-name="racute" horiz-adv-x="410" d="M294 557H143L223 717H394L294 557ZM218 485V433Q288 493 385 493V339Q276 335 218 278V0H55V485H218Z" />
<glyph unicode="&#x156;" glyph-name="Rcommaaccent" horiz-adv-x="701" d="M684 0H487L357 197H229V0H60V680H357Q485 680 562 616T639 441Q639 375 609 323T524 238L684 0ZM229 349H354Q404 349 437 374T470 441Q470 481 437 506T354 531H229V349ZM311 -44T346
-44T405 -67T430 -124Q430 -131 430 -136T426 -148T421 -161T411 -177T397 -198T377 -227T351 -265H268L309 -191Q261 -171 261 -124Q261 -91 286 -68Z" />
<glyph unicode="&#x157;" glyph-name="rcommaaccent" horiz-adv-x="410" d="M385 493V339Q276 335 218 278V0H55V485H218V433Q288 493 385 493ZM99 -44T134 -44T193 -67T218 -124Q218 -131 218 -136T214 -148T209 -161T199 -177T185 -198T165 -227T139 -265H56L97
-191Q49 -171 49 -124Q49 -91 74 -68Z" />
<glyph unicode="&#x158;" glyph-name="Rcaron" horiz-adv-x="701" d="M236 740L120 900H262L315 834L366 900H508L392 740H236ZM487 0L357 197H229V0H60V680H357Q485 680 562 616T639 441Q639 375 609 323T524 238L684 0H487ZM229 349H354Q404 349 437 374T470
441Q470 481 437 506T354 531H229V349Z" />
<glyph unicode="&#x159;" glyph-name="rcaron" horiz-adv-x="410" d="M138 551L22 711H164L217 645L268 711H410L294 551H138ZM218 485V433Q288 493 385 493V339Q276 335 218 278V0H55V485H218Z" />
<glyph unicode="&#x15a;" glyph-name="Sacute" horiz-adv-x="676" d="M344 910H515L415 750H264L344 910ZM337 695Q383 695 427 685T516 652T591 581T628 469H458Q442 561 346 561Q301 561 274 543T247 491Q247 463 267 448T329 424L424 402Q525 380 577 335T629
207Q629 105 552 46T347 -14Q268 -14 203 10T93 91T40 228H210Q218 182 255 156T352 129Q397 129 422 145T448 191Q448 238 376 251L264 275Q163 297 115 344T67 473Q67 574 141 634T337 695Z" />
<glyph unicode="&#x15b;" glyph-name="sacute" horiz-adv-x="521" d="M437 717L337 557H186L266 717H437ZM22 167L166 166Q176 104 259 104Q328 104 328 139Q328 165 284 172L183 190Q118 200 79 237T40 335Q40 411 99 454T257 498Q347 498 412 458T484 330H339Q337
357 314 371T257 386Q227 386 212 376T196 350Q196 320 247 311L337 296Q489 268 489 152Q489 71 426 28T261 -15Q160 -15 95 30T22 167Z" />
<glyph unicode="&#x15e;" glyph-name="Scedilla" horiz-adv-x="676" d="M337 695Q383 695 427 685T516 652T591 581T628 469H458Q442 561 346 561Q301 561 274 543T247 491Q247 463 267 448T329 424L424 402Q525 380 577 335T629 207Q629 105 552 46T347 -14Q268
-14 203 10T93 91T40 228H210Q218 182 255 156T352 129Q397 129 422 145T448 191Q448 238 376 251L264 275Q163 297 115 344T67 473Q67 574 141 634T337 695ZM428 -51L357 -215H222L276 -51H428Z" />
<glyph unicode="&#x15f;" glyph-name="scedilla" horiz-adv-x="521" d="M22 167L166 166Q176 104 259 104Q328 104 328 139Q328 165 284 172L183 190Q118 200 79 237T40 335Q40 411 99 454T257 498Q347 498 412 458T484 330H339Q337 357 314 371T257 386Q227 386
212 376T196 350Q196 320 247 311L337 296Q489 268 489 152Q489 71 426 28T261 -15Q160 -15 95 30T22 167ZM270 -215H135L189 -51H341L270 -215Z" />
<glyph unicode="&#x160;" glyph-name="Scaron" horiz-adv-x="676" d="M390 900H532L416 740H260L144 900H286L339 834L390 900ZM337 695Q383 695 427 685T516 652T591 581T628 469H458Q442 561 346 561Q301 561 274 543T247 491Q247 463 267 448T329 424L424 402Q525
380 577 335T629 207Q629 105 552 46T347 -14Q268 -14 203 10T93 91T40 228H210Q218 182 255 156T352 129Q397 129 422 145T448 191Q448 238 376 251L264 275Q163 297 115 344T67 473Q67 574 141 634T337 695Z" />
<glyph unicode="&#x161;" glyph-name="scaron" horiz-adv-x="521" d="M454 711L338 551H182L66 711H208L261 645L312 711H454ZM22 167L166 166Q176 104 259 104Q328 104 328 139Q328 165 284 172L183 190Q118 200 79 237T40 335Q40 411 99 454T257 498Q347 498
412 458T484 330H339Q337 357 314 371T257 386Q227 386 212 376T196 350Q196 320 247 311L337 296Q489 268 489 152Q489 71 426 28T261 -15Q160 -15 95 30T22 167Z" />
<glyph unicode="&#x162;" glyph-name="Tcedilla" horiz-adv-x="648" d="M625 529H408V0H240V529H23V680H625V529ZM251 -51H403L332 -215H197L251 -51Z" />
<glyph unicode="&#x163;" glyph-name="tcedilla" horiz-adv-x="470" d="M297 -15Q209 -15 156 44T102 202V346H7V485H102V650H264V485H429V346H264V207Q264 134 340 134Q364 134 426 146L444 9Q368 -15 297 -15ZM146 -215L200 -51H352L281 -215H146Z" />
<glyph unicode="&#x164;" glyph-name="Tcaron" horiz-adv-x="648" d="M245 740L129 900H271L324 834L375 900H517L401 740H245ZM625 529H408V0H240V529H23V680H625V529Z" />
<glyph unicode="&#x165;" glyph-name="tcaron" horiz-adv-x="470" d="M460 718L421 514H306L312 718H460ZM340 134Q364 134 426 146L444 9Q368 -15 297 -15Q209 -15 156 44T102 202V346H7V485H102V650H264V485H429V346H264V207Q264 134 340 134Z" />
<glyph unicode="&#x16a;" glyph-name="Umacron" horiz-adv-x="733" d="M510 875V751H224V875H510ZM683 680V317Q683 160 598 73T366 -15T135 72T50 317V680H220V314Q220 236 259 190T366 143T473 189T513 314V680H683Z" />
<glyph unicode="&#x16b;" glyph-name="umacron" horiz-adv-x="606" d="M447 570H161V694H447V570ZM551 485V0H389V32Q328 -15 256 -15Q163 -15 106 45T49 208V485H211V233Q211 183 235 157T300 131Q346 131 389 179V485H551Z" />
<glyph unicode="&#x16e;" glyph-name="Uring" horiz-adv-x="733" d="M311 979T366 979T455 948T490 864T456 780T366 748T277 780T242 864T276 947ZM346 820T366 820T398 832T410 864Q410 883 398 894T366 906T334 895T322 864Q322 844 334 832ZM683 680V317Q683
160 598 73T366 -15T135 72T50 317V680H220V314Q220 236 259 190T366 143T473 189T513 314V680H683Z" />
<glyph unicode="&#x16f;" glyph-name="uring" horiz-adv-x="606" d="M358 548T303 548T214 580T179 664T213 747T303 779T392 748T427 664T393 580ZM323 706T303 706T271 695T259 664Q259 644 271 632T303 620T335 632T347 664Q347 683 335 694ZM551 485V0H389V32Q328
-15 256 -15Q163 -15 106 45T49 208V485H211V233Q211 183 235 157T300 131Q346 131 389 179V485H551Z" />
<glyph unicode="&#x170;" glyph-name="Uhungarumlaut" horiz-adv-x="733" d="M418 911L345 751H221L274 911H418ZM582 911L509 751H385L438 911H582ZM683 680V317Q683 160 598 73T366 -15T135 72T50 317V680H220V314Q220 236 259 190T366 143T473 189T513 314V680H683Z" />
<glyph unicode="&#x171;" glyph-name="uhungarumlaut" horiz-adv-x="606" d="M282 558H158L211 718H355L282 558ZM322 558L375 718H519L446 558H322ZM551 485V0H389V32Q328 -15 256 -15Q163 -15 106 45T49 208V485H211V233Q211 183 235 157T300 131Q346 131 389
179V485H551Z" />
<glyph unicode="&#x172;" glyph-name="Uogonek" horiz-adv-x="733" d="M683 680V317Q683 207 641 130T520 16Q455 -29 455 -68Q455 -101 502 -101Q522 -101 549 -94L564 -222Q534 -235 483 -235Q413 -235 371 -203T328 -115Q328 -65 375 -15H366Q219 -15 135 72T50
317V680H220V314Q220 236 259 190T366 143T473 189T513 314V680H683Z" />
<glyph unicode="&#x173;" glyph-name="uogonek" horiz-adv-x="606" d="M576 -61L591 -181Q563 -195 510 -195Q438 -195 392 -161T346 -68Q346 -22 389 14V32Q328 -15 256 -15Q163 -15 106 45T49 208V485H211V233Q211 183 235 157T300 131Q346 131 389 179V485H551V0H539Q479
-12 479 -40T529 -68Q549 -68 576 -61Z" />
<glyph unicode="&#x174;" glyph-name="Wcircumflex" horiz-adv-x="1080" d="M488 750H347L464 914H617L733 750H592L541 816L488 750ZM1060 680L841 -4H677L540 413L403 -4H240L20 680H199L326 258L470 680H610L754 258L881 680H1060Z" />
<glyph unicode="&#x175;" glyph-name="wcircumflex" horiz-adv-x="810" d="M352 550H211L328 714H481L597 550H456L405 616L352 550ZM796 485L630 0H483L405 252L327 0H180L13 485H183L258 226L341 485H469L551 227L627 485H796Z" />
<glyph unicode="&#x176;" glyph-name="Ycircumflex" horiz-adv-x="719" d="M307 750H166L283 914H436L552 750H411L360 816L307 750ZM713 680L445 205V0H275V205L6 680H193L359 384L526 680H713Z" />
<glyph unicode="&#x177;" glyph-name="ycircumflex" horiz-adv-x="641" d="M271 550H130L247 714H400L516 550H375L324 616L271 550ZM624 485L326 -224H155L247 -6L17 485H188L328 186L454 485H624Z" />
<glyph unicode="&#x178;" glyph-name="Ydieresis" horiz-adv-x="719" d="M249 745Q212 745 187 769T161 829T186 889T249 914Q285 914 311 890T337 829T311 769T249 745ZM470 745Q433 745 407 769T381 829T407 889T470 914Q506 914 532 890T558 829T532 769T470
745ZM713 680L445 205V0H275V205L6 680H193L359 384L526 680H713Z" />
<glyph unicode="&#x179;" glyph-name="Zacute" horiz-adv-x="658" d="M407 750H256L336 910H507L407 750ZM623 149V0H34V80L371 531H51V680H617V600L294 149H623Z" />
<glyph unicode="&#x17a;" glyph-name="zacute" horiz-adv-x="512" d="M433 717L333 557H182L262 717H433ZM482 485V399L262 134H482V0H30V79L258 350H34V485H482Z" />
<glyph unicode="&#x17b;" glyph-name="Zdotaccent" horiz-adv-x="658" d="M368 743T330 743T265 768T238 831T265 893T330 919T394 894T421 831T395 769ZM623 149V0H34V80L371 531H51V680H617V600L294 149H623Z" />
<glyph unicode="&#x17c;" glyph-name="zdotaccent" horiz-adv-x="512" d="M294 550T256 550T191 575T164 638T191 700T256 726T320 701T347 638T321 576ZM482 485V399L262 134H482V0H30V79L258 350H34V485H482Z" />
<glyph unicode="&#x17d;" glyph-name="Zcaron" horiz-adv-x="658" d="M251 740L135 900H277L330 834L381 900H523L407 740H251ZM623 149V0H34V80L371 531H51V680H617V600L294 149H623Z" />
<glyph unicode="&#x17e;" glyph-name="zcaron" horiz-adv-x="512" d="M333 551H177L61 711H203L256 645L307 711H449L333 551ZM482 485V399L262 134H482V0H30V79L258 350H34V485H482Z" />
<glyph unicode="&#x192;" glyph-name="florin" horiz-adv-x="591" d="M463 538Q391 538 379 458L369 385H523V256H351L330 105Q315 -3 260 -63T114 -123Q57 -123 -15 -104L7 34Q48 25 81 25Q155 25 165 104L186 256H64V385H204L214 458Q229 566 284 625T430 685Q491
685 559 667L538 529Q495 538 463 538Z" />
<glyph unicode="&#x1cd;" glyph-name="Acaron" horiz-adv-x="763" d="M303 740L187 900H329L382 834L433 900H575L459 740H303ZM525 117H237L192 0H12L301 684H463L751 0H571L525 117ZM469 261L381 487L293 261H469Z" />
<glyph unicode="&#x1ce;" glyph-name="acaron" horiz-adv-x="624" d="M401 551H245L129 711H271L324 645L375 711H517L401 551ZM407 485H569V0H407V27Q349 -10 274 -10Q175 -10 104 63T33 243T104 423T274 496Q349 496 407 459V485ZM307 123Q367 123 407 168V319Q366
364 307 364Q258 364 225 329T192 243T225 158T307 123Z" />
<glyph unicode="&#x218;" glyph-name="Scommaaccent" horiz-adv-x="676" d="M337 695Q383 695 427 685T516 652T591 581T628 469H458Q442 561 346 561Q301 561 274 543T247 491Q247 463 267 448T329 424L424 402Q525 380 577 335T629 207Q629 105 552 46T347 -14Q268
-14 203 10T93 91T40 228H210Q218 182 255 156T352 129Q397 129 422 145T448 191Q448 238 376 251L264 275Q163 297 115 344T67 473Q67 574 141 634T337 695ZM254 -265L295 -191Q247 -171 247 -124Q247 -91 272 -68T332 -44T391 -67T416 -124Q416 -131 416 -136T412
-148T407 -161T397 -177T383 -198T363 -227T337 -265H254Z" />
<glyph unicode="&#x219;" glyph-name="scommaaccent" horiz-adv-x="521" d="M22 167L166 166Q176 104 259 104Q328 104 328 139Q328 165 284 172L183 190Q118 200 79 237T40 335Q40 411 99 454T257 498Q347 498 412 458T484 330H339Q337 357 314 371T257 386Q227
386 212 376T196 350Q196 320 247 311L337 296Q489 268 489 152Q489 71 426 28T261 -15Q160 -15 95 30T22 167ZM167 -265L208 -191Q160 -171 160 -124Q160 -91 185 -68T245 -44T304 -67T329 -124Q329 -131 329 -136T325 -148T320 -161T310 -177T296 -198T276 -227T250
-265H167Z" />
<glyph unicode="&#x21a;" glyph-name="uni021A" horiz-adv-x="648" d="M625 529H408V0H240V529H23V680H625V529ZM272 -44T307 -44T366 -67T391 -124Q391 -131 391 -136T387 -148T382 -161T372 -177T358 -198T338 -227T312 -265H229L270 -191Q222 -171 222 -124Q222
-91 247 -68Z" />
<glyph unicode="&#x21b;" glyph-name="uni021B" horiz-adv-x="470" d="M426 146L444 9Q368 -15 297 -15Q209 -15 156 44T102 202V346H7V485H102V650H264V485H429V346H264V207Q264 134 340 134Q364 134 426 146ZM221 -44T256 -44T315 -67T340 -124Q340 -131 340
-136T336 -148T331 -161T321 -177T307 -198T287 -227T261 -265H178L219 -191Q171 -171 171 -124Q171 -91 196 -68Z" />
<glyph unicode="&#x2c6;" glyph-name="circumflex" horiz-adv-x="600" d="M301 619L248 553H107L224 717H377L493 553H352L301 619Z" />
<glyph unicode="&#x2c7;" glyph-name="caron" horiz-adv-x="600" d="M494 713L378 553H222L106 713H248L301 647L352 713H494Z" />
<glyph unicode="&#x2d8;" glyph-name="breve" horiz-adv-x="600" d="M360 710H475Q475 630 427 586T300 541T173 585T125 710H240Q240 678 256 662T300 645Q326 645 343 661T360 710Z" />
<glyph unicode="&#x2d9;" glyph-name="dotaccent" horiz-adv-x="600" d="M338 550T300 550T235 575T208 638T235 700T300 726T364 701T391 638T365 576Z" />
<glyph unicode="&#x2da;" glyph-name="ring" horiz-adv-x="600" d="M243 779T298 779T387 748T422 664T388 580T298 548T209 580T174 664T208 747ZM278 620T298 620T330 632T342 664Q342 683 330 694T298 706T266 695T254 664Q254 644 266 632Z" />
<glyph unicode="&#x2db;" glyph-name="ogonek" horiz-adv-x="600" d="M352 70L371 8Q311 -4 311 -32T361 -60Q381 -60 408 -53L423 -173Q395 -187 342 -187Q270 -187 224 -153T178 -60Q178 -14 223 23T352 70Z" />
<glyph unicode="&#x2dc;" glyph-name="tilde" horiz-adv-x="600" d="M378 705H497Q497 653 478 618T429 569T367 556T308 573L270 595Q248 606 239 598T230 571H111Q111 623 130 658T179 706T241 719T300 703L338 681Q360 670 369 678T378 705Z" />
<glyph unicode="&#x2dd;" glyph-name="hungarumlaut" horiz-adv-x="600" d="M352 718L279 558H155L208 718H352ZM516 718L443 558H319L372 718H516Z" />
<glyph unicode="&#x326;" glyph-name="uni0326" horiz-adv-x="0" d="M217 -265L258 -191Q210 -171 210 -124Q210 -91 235 -68T295 -44T354 -67T379 -124Q379 -131 379 -136T375 -148T370 -161T360 -177T346 -198T326 -227T300 -265H217Z" />
<glyph unicode="&#x1e80;" glyph-name="Wgrave" horiz-adv-x="1080" d="M478 750L378 910H549L629 750H478ZM1060 680L841 -4H677L540 413L403 -4H240L20 680H199L326 258L470 680H610L754 258L881 680H1060Z" />
<glyph unicode="&#x1e81;" glyph-name="wgrave" horiz-adv-x="810" d="M335 557L235 717H406L486 557H335ZM796 485L630 0H483L405 252L327 0H180L13 485H183L258 226L341 485H469L551 227L627 485H796Z" />
<glyph unicode="&#x1e82;" glyph-name="Wacute" horiz-adv-x="1080" d="M618 750H467L547 910H718L618 750ZM1060 680L841 -4H677L540 413L403 -4H240L20 680H199L326 258L470 680H610L754 258L881 680H1060Z" />
<glyph unicode="&#x1e83;" glyph-name="wacute" horiz-adv-x="810" d="M482 557H331L411 717H582L482 557ZM796 485L630 0H483L405 252L327 0H180L13 485H183L258 226L341 485H469L551 227L627 485H796Z" />
<glyph unicode="&#x1e84;" glyph-name="Wdieresis" horiz-adv-x="1080" d="M430 745Q393 745 368 769T342 829T367 889T430 914Q466 914 492 890T518 829T492 769T430 745ZM651 745Q614 745 588 769T562 829T588 889T651 914Q687 914 713 890T739 829T713 769T651
745ZM1060 680L841 -4H677L540 413L403 -4H240L20 680H199L326 258L470 680H610L754 258L881 680H1060Z" />
<glyph unicode="&#x1e85;" glyph-name="wdieresis" horiz-adv-x="810" d="M295 552Q258 552 233 576T207 636T232 696T295 721Q331 721 357 697T383 636T357 576T295 552ZM516 552Q479 552 453 576T427 636T453 696T516 721Q552 721 578 697T604 636T578 576T516
552ZM796 485L630 0H483L405 252L327 0H180L13 485H183L258 226L341 485H469L551 227L627 485H796Z" />
<glyph unicode="&#x1ef2;" glyph-name="Ygrave" horiz-adv-x="719" d="M297 750L197 910H368L448 750H297ZM713 680L445 205V0H275V205L6 680H193L359 384L526 680H713Z" />
<glyph unicode="&#x1ef3;" glyph-name="ygrave" horiz-adv-x="641" d="M254 557L154 717H325L405 557H254ZM624 485L326 -224H155L247 -6L17 485H188L328 186L454 485H624Z" />
<glyph unicode="&#x2013;" glyph-name="endash" horiz-adv-x="690" d="M594 182V337H97V182H594Z" />
<glyph unicode="&#x2014;" glyph-name="emdash" horiz-adv-x="1069" d="M972 182V337H97V182H972Z" />
<glyph unicode="&#x2018;" glyph-name="quoteleft" horiz-adv-x="234" d="M207 679L155 568Q207 546 207 496Q207 460 181 435T117 410T53 435T27 496Q27 515 32 530T57 579L117 679H207Z" />
<glyph unicode="&#x2019;" glyph-name="quoteright" horiz-adv-x="234" d="M27 422L79 533Q27 555 27 605Q27 641 53 666T117 691T181 666T207 605Q207 586 202 571T177 522L117 422H27Z" />
<glyph unicode="&#x201a;" glyph-name="quotesinglbase" horiz-adv-x="234" d="M27 -113L79 -2Q27 20 27 71Q27 106 53 131T117 156Q155 156 181 132T207 70Q207 38 177 -13L117 -113H27Z" />
<glyph unicode="&#x201c;" glyph-name="quotedblleft" horiz-adv-x="441" d="M207 679L155 568Q207 546 207 496Q207 460 181 435T117 410T53 435T27 496Q27 515 32 530T57 579L117 679H207ZM414 679L362 568Q413 546 413 496Q413 460 387 435T324 410Q286 410
260 435T233 496Q233 527 264 579L324 679H414Z" />
<glyph unicode="&#x201d;" glyph-name="quotedblright" horiz-adv-x="441" d="M27 422L79 533Q27 555 27 605Q27 641 53 666T117 691T181 666T207 605Q207 586 202 571T177 522L117 422H27ZM234 422L285 533Q234 556 234 605Q234 641 260 666T324 691T388 666T414
605Q414 586 409 571T383 522L324 422H234Z" />
<glyph unicode="&#x201e;" glyph-name="quotedblbase" horiz-adv-x="443" d="M27 -113L79 -2Q27 20 27 71Q27 106 53 131T117 156Q155 156 181 132T207 70Q207 38 177 -13L117 -113H27ZM236 -113L288 -2Q236 20 236 71Q236 106 262 131T326 156Q364 156 390 132T416
70Q416 38 386 -13L326 -113H236Z" />
<glyph unicode="&#x2020;" glyph-name="dagger" horiz-adv-x="403" d="M251 509V297H152V509H40V607H152V719H251V607H363V509H251Z" />
<glyph unicode="&#x2021;" glyph-name="daggerdbl" horiz-adv-x="403" d="M251 483H363V385H251V297H152V385H40V483H152V535H40V633H152V719H251V633H363V535H251V483Z" />
<glyph unicode="&#x2022;" glyph-name="bullet" horiz-adv-x="358" d="M178 146Q117 146 72 191T27 297T72 403T178 448Q240 448 285 403T331 297T286 191T178 146Z" />
<glyph unicode="&#x2026;" glyph-name="ellipsis" horiz-adv-x="739" d="M117 -18Q80 -18 54 7T27 70Q27 106 53 131T117 157Q155 157 182 132T209 70Q209 33 182 8T117 -18ZM367 -18Q330 -18 304 7T277 70Q277 106 303 131T367 157Q405 157 432 132T459 70Q459
33 432 8T367 -18ZM659 -18T621 -18T557 7T530 70T556 132T621 157T685 132T712 70T686 8Z" />
<glyph unicode="&#x2030;" glyph-name="perthousand" horiz-adv-x="1554" d="M271 695Q359 695 417 639T475 495T417 351T271 294Q182 294 124 350T65 495T123 639T271 695ZM366 0H258L712 680H820L366 0ZM271 400Q310 400 337 426T365 495T338 563T271 590Q231
590 204 564T176 495T203 427T271 400ZM732 386T820 386T966 330T1025 186Q1025 97 967 41T820 -15Q732 -15 674 41T615 186T673 330ZM1283 386Q1372 386 1430 330T1489 186T1431 42T1283 -15Q1195 -15 1137 41T1079 186T1137 330T1283 386ZM781 90T820 90T887
117T915 186Q915 227 887 253T820 280T754 254T726 186Q726 144 753 117ZM1283 90Q1323 90 1350 116T1378 186Q1378 227 1351 253T1283 280Q1244 280 1217 254T1189 186Q1189 144 1216 117T1283 90Z" />
<glyph unicode="&#x2039;" glyph-name="guilsinglleft" horiz-adv-x="283" d="M261 413L166 252L261 91H117L22 252L117 413H261Z" />
<glyph unicode="&#x203a;" glyph-name="guilsinglright" horiz-adv-x="286" d="M264 252L169 91H25L120 252L25 413H169L264 252Z" />
<glyph unicode="&#x2044;" glyph-name="fraction" horiz-adv-x="533" d="M94 0H-15L439 680H548L94 0Z" />
<glyph unicode="&#x2070;" glyph-name="zerosuperior" horiz-adv-x="455" d="M227 702Q320 702 375 642T430 485Q430 390 375 330T227 269Q135 269 80 329T25 485T80 641T227 702ZM185 373T227 373T292 404T315 485T292 566T227 598T163 566T140 485T162 405Z" />
<glyph unicode="&#x2074;" glyph-name="foursuperior" horiz-adv-x="420" d="M394 349H346V281H232V349H23V424L133 692H249L157 449H232V542H346V449H394V349Z" />
<glyph unicode="&#x2075;" glyph-name="fivesuperior" horiz-adv-x="397" d="M162 550H209Q282 550 320 514T359 416Q359 352 315 312T197 272Q127 272 83 308T32 404H145Q156 368 198 368Q221 368 235 380T250 413Q250 459 196 459H60V692H340V593H162V550Z" />
<glyph unicode="&#x2076;" glyph-name="sixsuperior" horiz-adv-x="396" d="M300 692L224 572Q291 565 330 524T369 426Q369 361 322 317T198 272Q123 272 75 316T27 423Q27 469 65 528L165 692H300ZM198 367Q223 367 240 383T257 422Q257 447 241 462T198 478T155
463Q139 439 139 423Q139 399 155 383T198 367Z" />
<glyph unicode="&#x2077;" glyph-name="sevensuperior" horiz-adv-x="347" d="M330 692V625L175 281H44L184 585H17V692H330Z" />
<glyph unicode="&#x2078;" glyph-name="eightsuperior" horiz-adv-x="408" d="M315 496Q377 461 377 398Q377 339 331 304T204 269T78 304T32 398Q32 462 93 496Q48 525 48 577Q48 631 91 664T204 698T316 665T360 577Q360 525 315 496ZM224 612T204 612T171 601T158
570T171 539T204 527T237 539T250 570T237 600ZM182 362T204 362T240 374T254 406T240 438T204 450T169 438T155 406T168 374Z" />
<glyph unicode="&#x2079;" glyph-name="ninesuperior" horiz-adv-x="396" d="M198 699Q273 699 321 655T369 548Q369 502 331 443L231 279H96L172 399Q105 406 66 447T27 545Q27 610 74 654T198 699ZM172 493T198 493T241 508Q257 532 257 548Q257 572 241 588T198
604Q173 604 156 588T139 549Q139 524 155 509Z" />
<glyph unicode="&#x2080;" glyph-name="zeroinferior" horiz-adv-x="455" d="M227 244Q320 244 375 184T430 27Q430 -68 375 -128T227 -189Q135 -189 80 -129T25 27T80 183T227 244ZM185 -85T227 -85T292 -54T315 27T292 108T227 140T163 108T140 27T162 -53Z" />
<glyph unicode="&#x2081;" glyph-name="oneinferior" horiz-adv-x="341" d="M336 -83V-180H25V-83H127V109L30 82V185L171 231H238V-83H336Z" />
<glyph unicode="&#x2082;" glyph-name="twoinferior" horiz-adv-x="373" d="M345 -83V-180H34V-123L177 33Q224 83 224 106Q224 122 214 131T186 140Q141 140 139 95H32Q33 160 74 200T188 240Q260 240 298 204T337 114Q337 83 322 53T262 -24L208 -83H345Z" />
<glyph unicode="&#x2083;" glyph-name="threeinferior" horiz-adv-x="384" d="M295 26Q351 -1 351 -63Q351 -118 309 -154T195 -190Q123 -190 80 -154T29 -54H141Q152 -93 194 -93Q215 -93 228 -83T241 -57Q241 -21 184 -21H151V67H184Q207 67 220 77T234 104Q234
140 192 140Q154 140 150 100H38Q42 163 83 199T194 236Q261 236 301 202T341 111Q341 52 295 26Z" />
<glyph unicode="&#x2084;" glyph-name="fourinferior" horiz-adv-x="420" d="M394 -112H346V-180H232V-112H23V-37L133 231H249L157 -12H232V81H346V-12H394V-112Z" />
<glyph unicode="&#x2085;" glyph-name="fiveinferior" horiz-adv-x="397" d="M162 89H209Q282 89 320 53T359 -45Q359 -109 315 -149T197 -189Q127 -189 83 -153T32 -57H145Q156 -93 198 -93Q221 -93 235 -81T250 -48Q250 -2 196 -2H60V231H340V132H162V89Z" />
<glyph unicode="&#x2086;" glyph-name="sixinferior" horiz-adv-x="396" d="M300 231L224 111Q291 104 330 63T369 -35Q369 -100 322 -144T198 -189Q123 -189 75 -145T27 -38Q27 8 65 67L165 231H300ZM198 -94Q223 -94 240 -78T257 -39Q257 -14 241 1T198 17T155
2Q139 -22 139 -38Q139 -62 155 -78T198 -94Z" />
<glyph unicode="&#x2087;" glyph-name="seveninferior" horiz-adv-x="347" d="M330 231V164L175 -180H44L184 124H17V231H330Z" />
<glyph unicode="&#x2088;" glyph-name="eightinferior" horiz-adv-x="408" d="M315 38Q377 3 377 -60Q377 -119 331 -154T204 -189T78 -154T32 -60Q32 4 93 38Q48 67 48 119Q48 173 91 206T204 240T316 207T360 119Q360 67 315 38ZM224 154T204 154T171 143T158
112T171 81T204 69T237 81T250 112T237 142ZM182 -96T204 -96T240 -84T254 -52T240 -20T204 -8T169 -20T155 -52T168 -84Z" />
<glyph unicode="&#x2089;" glyph-name="nineinferior" horiz-adv-x="396" d="M198 241Q273 241 321 197T369 90Q369 44 331 -15L231 -179H96L172 -59Q105 -52 66 -11T27 87Q27 152 74 196T198 241ZM172 35T198 35T241 50Q257 74 257 90Q257 114 241 130T198 146Q173
146 156 130T139 91Q139 66 155 51Z" />
<glyph unicode="&#x20ac;" glyph-name="Euro" horiz-adv-x="847" d="M461 144Q528 144 572 180T630 282H803Q787 149 694 68T462 -14Q341 -14 250 49T122 218H35V307H103Q102 318 102 340V358H35V447H117Q150 559 244 626T462 694Q601 694 694 613T803 398H630Q616
463 572 499T461 536Q352 536 300 447H529L506 358H274L273 340Q273 329 275 307H494L471 218H310Q363 144 461 144Z" />
<glyph unicode="&#x2116;" glyph-name="uni2116" horiz-adv-x="1369" d="M1163 176T1049 176T861 249T786 434Q786 544 860 616T1049 688T1237 616T1312 434Q1312 323 1238 250ZM517 297V680H685V0H555L229 373V0H60V680H189L517 297ZM1098 547T1049 547T970 514T939
433Q939 384 970 350T1049 316T1127 350T1158 433Q1158 481 1128 514ZM808 1V120H1290V1H808Z" />
<glyph unicode="&#x2117;" glyph-name="uni2117" horiz-adv-x="815" d="M258 695T408 695T665 593T772 340T665 87T408 -15T151 87T44 340T151 593ZM407 605Q298 605 218 528T138 340T218 152T407 75Q517 75 597 152T677 340T597 528T407 605ZM295 501H433Q491
501 526 470T561 389T526 310T431 281H382V198H295V501ZM382 424V354H429Q470 354 470 390Q470 405 459 414T429 424H382Z" />
<glyph unicode="&#x2122;" glyph-name="trademark" horiz-adv-x="703" d="M294 679V599H203V387H117V599H27V679H294ZM662 679V387H576V518L512 424V423H467V424L402 519L403 387H318V679H382L490 530L597 679H662Z" />
<glyph unicode="&#x215b;" glyph-name="oneeighth" horiz-adv-x="976" d="M25 269V366H127V558L30 531V634L171 680H238V366H336V269H25ZM766 680L312 0H204L658 680H766ZM882 218Q944 184 944 120Q944 61 899 26T772 -9T645 26T599 120Q599 183 661 218Q616 249
616 299Q616 353 659 386T772 420T884 387T927 299Q927 246 882 218ZM792 334T772 334T739 323T726 292T739 261T772 249T805 261T818 292T805 322ZM750 84T772 84T807 96T821 128T808 160T772 172T736 160T722 128T736 96Z" />
<glyph unicode="&#x215c;" glyph-name="threeeighths" horiz-adv-x="959" d="M353 390Q353 335 311 299T197 263Q125 263 82 299T31 399H143Q154 360 196 360Q217 360 230 370T243 396Q243 432 186 432H153V520H186Q209 520 222 530T236 557Q236 593 194 593Q156
593 152 553H40Q44 616 85 652T196 689Q263 689 303 655T343 564Q343 505 297 479Q353 452 353 390ZM749 680L295 0H186L640 680H749ZM865 218Q927 184 927 120Q927 61 882 26T755 -9T628 26T582 120Q582 184 644 218Q599 247 599 299Q599 353 642 386T755 420T867
387T910 299Q910 247 865 218ZM775 334T755 334T722 323T708 292T721 261T755 249Q775 249 788 261T801 292T788 322ZM733 84T755 84T790 96T804 128T791 160T755 172T719 160T705 128T719 96Z" />
<glyph unicode="&#x215d;" glyph-name="fiveeighths" horiz-adv-x="965" d="M359 404Q359 340 315 300T197 260Q127 260 83 296T32 392H145Q156 356 198 356Q221 356 235 368T250 401Q250 447 196 447H60V680H340V581H162V538H209Q282 538 320 502T359 404ZM756
680L302 0H193L647 680H756ZM872 218Q934 183 934 120Q934 61 888 26T761 -9T635 26T589 120Q589 184 650 218Q605 247 605 299Q605 353 648 386T761 420T873 387T917 299Q917 247 872 218ZM781 334T761 334T728 323T715 292T728 261T761 249T794 261T807 292T794
322ZM739 84T761 84T797 96T811 128T797 160T761 172T726 160T712 128T725 96Z" />
<glyph unicode="&#x215e;" glyph-name="seveneighths" horiz-adv-x="875" d="M57 269L197 573H30V680H343V613L188 269H57ZM666 680L212 0H103L557 680H666ZM782 218Q844 183 844 120Q844 61 798 26T671 -9T545 26T499 120Q499 184 560 218Q515 247 515 299Q515
353 558 386T671 420T783 387T827 299Q827 247 782 218ZM691 334T671 334T638 323T625 292T638 261T671 249T704 261T717 292T704 322ZM649 84T671 84T707 96T721 128T707 160T671 172T636 160T622 128T635 96Z" />
<glyph unicode="&#x2190;" glyph-name="arrowleft" horiz-adv-x="766" d="M303 267L480 94L377 -5L34 341L377 687L480 588L304 415H726V267H303Z" />
<glyph unicode="&#x2191;" glyph-name="arrowup" horiz-adv-x="783" d="M318 423L145 246L45 349L391 692L738 349L638 246L466 422V0H318V423Z" />
<glyph unicode="&#x2192;" glyph-name="arrowright" horiz-adv-x="766" d="M40 415H462L286 588L389 687L732 341L389 -5L286 94L463 267H40V415Z" />
<glyph unicode="&#x2193;" glyph-name="arrowdown" horiz-adv-x="783" d="M466 680V258L638 434L738 331L391 -12L45 331L145 434L318 257V680H466Z" />
<glyph unicode="&#x2196;" glyph-name="uni2196" horiz-adv-x="796" d="M667 -2L232 433V190H90V680H580V538H336L771 102L667 -2Z" />
<glyph unicode="&#x2197;" glyph-name="uni2197" horiz-adv-x="796" d="M460 538H216V680H706V190H564V433L129 -2L25 102L460 538Z" />
<glyph unicode="&#x2198;" glyph-name="uni2198" horiz-adv-x="796" d="M129 682L564 247V490H706V0H216V142H460L25 578L129 682Z" />
<glyph unicode="&#x2199;" glyph-name="uni2199" horiz-adv-x="796" d="M336 142H580V0H90V490H232V247L667 682L771 578L336 142Z" />
<glyph unicode="&#x2212;" glyph-name="minus" horiz-adv-x="669" d="M97 392H572V264H97V392Z" />
<glyph unicode="&#xfb01;" glyph-name="fi" horiz-adv-x="734" d="M676 485V0H514V346H284V0H122V346H3V485H122V523Q122 636 186 703T351 770Q388 770 421 766T475 758T553 739L526 603Q426 623 378 623Q333 623 309 596T284 520V485H676Z" />
<glyph unicode="&#xfb02;" glyph-name="fl" horiz-adv-x="728" d="M122 485V543Q122 647 181 708T335 770Q395 770 464 752L442 617Q399 626 368 626Q330 626 307 605T284 547V485H432V346H284V0H122V346H3V485H122ZM673 710V0H511V710H673Z" />
</font>
</defs>
</svg>
