<?xml version="1.0" standalone="no"?> <!DOCTYPE svg PUBLIC "-//W3C//DTD SVG 1.0//EN" "http://www.w3.org/TR/2001/REC-SVG-20010904/DTD/svg10.dtd" > 
<svg xmlns="http://www.w3.org/2000/svg" width="100%" height="100%">
<metadata version="1.0"><uniqueid id="com.myfonts.rene-bieder.campton.light.wfkit2.guhU"/><vendor name="MyFonts" url="http://www.myfonts.com/"/><credits><credit name="Rene Bieder" url="http://www.myfonts.com/person/bieder/rene/"/></credits><description><text lang="en">This is a Webfont from MyFonts. Full information about this font:
http://www.myfonts.com/fonts/rene-bieder/campton/
</text></description><license url="http://www.myfonts.com/viewlicense?lid=1630"/><copyright><text lang="en">Copyright © 2014 by René Bieder. All rights reserved.</text></copyright></metadata>
<defs >
<font id="wf" horiz-adv-x="595" ><font-face
    font-family="campton-300"
    units-per-em="1000"
    panose-1="0 0 5 0 0 0 0 0 0 0"
    ascent="753"
    descent="-247"
    alphabetic="0" />
<missing-glyph horiz-adv-x="870" d="M770 680V0H100V680H770ZM700 610H219L700 129V610ZM170 70H647L170 547V70Z" />
<glyph unicode=" " glyph-name="space" horiz-adv-x="271" />
<glyph unicode="!" glyph-name="exclam" horiz-adv-x="263" d="M162 185H100L95 680H167L162 185ZM151 -8T131 -8T98 5T84 38Q84 57 97 70T131 83T165 70T179 38Q179 18 165 5Z" />
<glyph unicode="&quot;" glyph-name="quotedbl" horiz-adv-x="318" d="M115 680V412H55V680H115ZM263 680V412H203V680H263Z" />
<glyph unicode="#" glyph-name="numbersign" horiz-adv-x="736" d="M513 259H639V199H494L432 0H361L424 199H219L157 0H86L149 199H41V259H167L216 415H96V475H235L299 681H370L305 475H510L574 681H645L580 475H694V415H562L513 259ZM287 415L238 259H442L491 415H287Z" />
<glyph unicode="$" glyph-name="dollar" horiz-adv-x="660" d="M303 388L406 368Q595 332 595 191Q595 105 535 50T375 -14V-131H312V-14Q202 -6 136 54T59 217H129Q142 137 197 93T345 49Q426 49 474 85T522 183Q522 276 394 299L276 322Q183 339 136 384T88
500Q88 584 149 637T312 695V816H375V693Q466 683 525 633T595 496H525Q513 561 466 597T334 633Q256 633 210 598T163 504Q163 413 303 388Z" />
<glyph unicode="%" glyph-name="percent" horiz-adv-x="1084" d="M279 695Q358 695 412 642T466 506T413 371T279 317Q198 317 145 370T91 506Q91 588 144 641T279 695ZM338 0H285L738 680H791L338 0ZM279 369Q334 369 373 408T412 506T374 604T279 643Q222 643
184 604T145 506T183 408T279 369ZM726 363T806 363T940 310T994 175Q994 92 940 39T806 -15T672 38T618 175Q618 257 672 310ZM750 37T806 37T901 76T940 175T901 272T806 311T711 273T672 175T711 77Z" />
<glyph unicode="&amp;" glyph-name="ampersand" horiz-adv-x="730" d="M608 0L514 84Q422 -13 292 -13Q184 -13 119 42T53 186Q53 252 92 301T194 376Q129 448 129 518Q129 596 183 645T323 695Q404 695 456 648T518 516H450Q443 572 409 602T323 633Q268 633
234 601T199 516Q199 489 208 466T247 410T298 359T379 287L507 173L616 329H688L557 138L553 132L700 0H608ZM293 48Q393 48 468 125L322 255Q268 302 238 331Q184 311 152 274T120 187Q120 127 168 88T293 48Z" />
<glyph unicode="&apos;" glyph-name="quotesingle" horiz-adv-x="170" d="M115 680V412H55V680H115Z" />
<glyph unicode="(" glyph-name="parenleft" horiz-adv-x="346" d="M135 426T135 304T178 92T308 -77L265 -122Q66 39 66 304T265 729L308 684Q221 606 178 516Z" />
<glyph unicode=")" glyph-name="parenright" horiz-adv-x="346" d="M37 684L80 729Q280 568 280 304T80 -122L37 -77Q125 2 168 92T211 304T168 516T37 684Z" />
<glyph unicode="*" glyph-name="asterisk" horiz-adv-x="401" d="M350 468L329 433L221 496V381H179V496L72 433L51 468L160 534L51 598L72 635L179 571V684H221V571L329 635L350 598L241 534L350 468Z" />
<glyph unicode="+" glyph-name="plus" horiz-adv-x="693" d="M381 291V97H314V291H117V355H314V549H381V355H577V291H381Z" />
<glyph unicode="," glyph-name="comma" horiz-adv-x="195" d="M41 -138L91 -5Q60 4 60 33Q60 52 73 65T107 79T140 66T154 33Q154 19 139 -12L85 -138H41Z" />
<glyph unicode="-" glyph-name="hyphen" horiz-adv-x="563" d="M446 237V306H117V237H446Z" />
<glyph unicode="." glyph-name="period" horiz-adv-x="177" d="M88 -13Q69 -13 55 0T41 33T55 65T88 79Q108 79 122 66T136 33T122 1T88 -13Z" />
<glyph unicode="/" glyph-name="slash" horiz-adv-x="403" d="M114 -160H48L314 730H380L114 -160Z" />
<glyph unicode="0" glyph-name="zero" horiz-adv-x="717" d="M222 695T359 695T574 598T652 340T574 83T359 -15T144 82T66 340T144 597ZM359 49Q463 49 521 129T580 340T522 551T359 631Q254 631 196 551T137 340T195 129T359 49Z" />
<glyph unicode="1" glyph-name="one" horiz-adv-x="506" d="M492 59V0H49V59H243V601L61 538V600L274 680H313V59H492Z" />
<glyph unicode="2" glyph-name="two" horiz-adv-x="559" d="M509 59V0H62V37L283 270Q361 350 393 395T425 492Q425 553 384 593T272 633Q206 633 163 596T111 496H41Q46 585 109 640T273 695Q376 695 436 638T496 492Q496 433 461 380T340 239L168 59H509Z" />
<glyph unicode="3" glyph-name="three" horiz-adv-x="563" d="M403 345Q517 299 517 181Q517 96 453 42T286 -13Q182 -13 119 35T46 166H115Q124 111 168 80T286 48T404 85T450 181Q450 241 406 277T289 313H233V371H289Q352 371 390 406T429 500Q429 560 389
596T281 632Q220 632 180 601T133 516H64Q71 596 129 644T279 693Q378 693 437 640T496 500Q496 391 403 345Z" />
<glyph unicode="4" glyph-name="four" horiz-adv-x="643" d="M597 150H487V0H419V150H53V193L260 680H333L136 211H419V432H487V211H597V150Z" />
<glyph unicode="5" glyph-name="five" horiz-adv-x="585" d="M161 418H299Q404 418 467 361T531 210Q531 114 464 50T290 -15Q185 -15 119 37T37 181H107Q122 117 168 82T290 46T415 93T464 209Q464 275 417 316T291 357L95 356L96 680H496V617H161V418Z" />
<glyph unicode="6" glyph-name="six" horiz-adv-x="615" d="M308 454Q417 454 487 389T558 222Q558 119 488 52T307 -15Q198 -15 127 51T56 220Q56 294 111 377L326 680H410L246 447Q279 454 308 454ZM228 43T307 43T437 92T488 219Q488 294 437 343T307 392Q225
392 174 344L169 337Q126 283 126 218Q126 142 177 93Z" />
<glyph unicode="7" glyph-name="seven" horiz-adv-x="502" d="M480 680V637L165 0H85L390 614H16V680H480Z" />
<glyph unicode="8" glyph-name="eight" horiz-adv-x="622" d="M431 360Q495 337 530 293T565 187Q565 97 496 41T311 -15T126 41T56 187Q56 248 91 292T191 360Q86 404 86 510Q86 590 149 642T311 695T472 643T536 510Q536 404 431 360ZM155 507Q155 449 198 414T311
379Q379 379 423 414T467 507Q467 562 423 600T311 639Q243 639 199 601T155 507ZM232 44T311 44T439 85T489 191Q489 252 440 291T311 330T183 292T133 191Q133 127 182 86Z" />
<glyph unicode="9" glyph-name="nine" horiz-adv-x="615" d="M308 695Q417 695 488 629T559 460Q559 386 504 303L289 0H205L369 233Q336 226 307 226Q198 226 128 291T57 458Q57 561 127 628T308 695ZM441 336L446 343Q489 397 489 462Q489 538 438 587T308 637T178
588T127 461Q127 386 178 337T308 288Q390 288 441 336Z" />
<glyph unicode=":" glyph-name="colon" horiz-adv-x="177" d="M88 382Q69 382 55 395T41 428T55 460T88 474Q108 474 122 461T136 428T122 396T88 382ZM88 -13Q69 -13 55 0T41 33T55 65T88 79Q108 79 122 66T136 33T122 1T88 -13Z" />
<glyph unicode=";" glyph-name="semicolon" horiz-adv-x="184" d="M112 382T92 382T59 395T45 428T58 460T92 474T125 461T139 428T126 396ZM27 -138L76 -5Q46 4 46 33Q46 52 59 65T92 79T125 66T139 33Q139 17 125 -12L71 -138H27Z" />
<glyph unicode="&lt;" glyph-name="less" horiz-adv-x="553" d="M478 538V469L131 302L478 135V66L56 267V337L478 538Z" />
<glyph unicode="=" glyph-name="equal" horiz-adv-x="716" d="M599 391H117V455H599V391ZM599 197H117V261H599V197Z" />
<glyph unicode="&gt;" glyph-name="greater" horiz-adv-x="553" d="M498 267L76 66V135L422 302L76 469V538L498 337V267Z" />
<glyph unicode="?" glyph-name="question" horiz-adv-x="567" d="M221 189L215 334H259Q329 334 374 376T420 483T377 589T266 632Q213 632 172 601T121 519H51Q63 598 120 645T263 693Q360 693 423 634T487 484Q487 399 430 344T279 284L277 189H221ZM268 -8T248
-8T215 5T201 38Q201 57 214 70T248 83T281 70T295 38Q295 18 282 5Z" />
<glyph unicode="@" glyph-name="at" horiz-adv-x="990" d="M679 414V198Q679 89 753 89Q804 89 832 131T860 244Q860 390 754 491T497 593T239 490T131 237Q131 87 238 -16T495 -119Q627 -119 728 -37L758 -81Q646 -170 496 -170Q382 -170 287 -118T134 29T77
237Q77 410 200 527T497 644Q672 644 792 529T913 246Q913 153 873 95T753 36Q664 36 634 105Q577 33 482 33Q400 33 344 89T287 231T343 372T482 428Q562 428 617 375V414H679ZM491 89Q572 89 620 160Q617 184 617 210V306Q570 373 491 373Q433 373 392 334T350
231T391 129T491 89Z" />
<glyph unicode="A" glyph-name="A" horiz-adv-x="746" d="M551 198H195L107 0H31L339 685H407L715 0H639L551 198ZM522 263L373 599L224 263H522Z" />
<glyph unicode="B" glyph-name="B" horiz-adv-x="698" d="M484 352Q560 340 599 296T639 185Q639 102 571 51T390 0H96V680H383Q485 680 544 634T603 509Q603 451 572 410T484 352ZM167 617V376H365Q446 376 490 409T535 501Q535 554 493 585T376 617H167ZM167
63H387Q470 63 519 99T568 193T521 282T389 313H167V63Z" />
<glyph unicode="C" glyph-name="C" horiz-adv-x="808" d="M419 54Q514 54 580 104T669 239H742Q718 125 630 56T419 -14Q271 -14 169 88T66 340T168 591T419 694Q542 694 630 625T742 441H669Q647 526 581 576T419 626Q300 626 219 544T137 340T218 136T419 54Z" />
<glyph unicode="D" glyph-name="D" horiz-adv-x="751" d="M96 680H332Q489 680 589 586T690 345Q690 193 590 97T332 0H96V680ZM167 65H332Q457 65 537 143T617 345Q617 463 537 539T332 615H167V65Z" />
<glyph unicode="E" glyph-name="E" horiz-adv-x="632" d="M167 615V371H528V305H167V65H568V0H96V680H568V615H167Z" />
<glyph unicode="F" glyph-name="F" horiz-adv-x="597" d="M167 615V354H517V288H167V0H96V680H560V615H167Z" />
<glyph unicode="G" glyph-name="G" horiz-adv-x="832" d="M744 340H745V0H687L681 145Q644 70 577 28T417 -14Q268 -14 167 88T66 336Q66 488 169 591T422 694Q536 694 626 630T744 456H667Q643 537 575 581T423 626Q302 626 220 544T137 336Q137 219 217 137T417
55Q522 55 589 121T671 291H411V356H745L744 340Z" />
<glyph unicode="H" glyph-name="H" horiz-adv-x="745" d="M649 680V0H578V304H167V0H96V680H167V369H578V680H649Z" />
<glyph unicode="I" glyph-name="I" horiz-adv-x="262" d="M167 680V0H96V680H167Z" />
<glyph unicode="J" glyph-name="J" d="M509 680V245Q509 123 443 54T263 -15Q164 -15 99 41T21 194H93Q103 127 149 89T267 51Q343 51 390 103T437 246V680H509Z" />
<glyph unicode="K" glyph-name="K" horiz-adv-x="704" d="M300 318L167 178V0H96V680H167V276L557 680H644L350 370L680 0H589L300 318Z" />
<glyph unicode="L" glyph-name="L" horiz-adv-x="578" d="M546 64V0H96V680H167V64H546Z" />
<glyph unicode="M" glyph-name="M" horiz-adv-x="849" d="M753 680V0H682L683 526L449 134H401L165 527L167 0H96V680H151L425 220L699 680H753Z" />
<glyph unicode="N" glyph-name="N" horiz-adv-x="768" d="M672 680V0H611L167 551V0H96V680H154L601 122V680H672Z" />
<glyph unicode="O" glyph-name="O" horiz-adv-x="839" d="M273 694T420 694T670 591T774 340T671 90T420 -14T170 89T66 340T169 590ZM420 52Q538 52 620 136T702 340T620 543T420 628Q301 628 219 544T137 340T219 137T420 52Z" />
<glyph unicode="P" glyph-name="P" horiz-adv-x="632" d="M96 680H333Q450 680 521 618T593 455Q593 351 519 288T324 224H167V0H96V680ZM167 289H330Q417 289 470 335T523 455Q523 527 470 571T330 615H167V289Z" />
<glyph unicode="Q" glyph-name="Q" horiz-adv-x="839" d="M774 340Q774 245 728 165T604 37L732 -120L679 -168L538 6Q481 -14 420 -14Q273 -14 170 89T66 340T169 590T420 694T670 591T774 340ZM137 459T137 340T219 137T420 52Q538 52 620 136T702 340T620 543T420
628Q301 628 219 544Z" />
<glyph unicode="R" glyph-name="R" horiz-adv-x="674" d="M344 247H167V0H96V680H349Q464 680 536 621T608 463Q608 382 559 328T426 255L637 0H548L344 247ZM167 312H347Q432 312 484 353T537 463Q537 533 485 574T347 615H167V312Z" />
<glyph unicode="S" glyph-name="S" horiz-adv-x="660" d="M330 695Q437 695 510 644T595 496H525Q513 561 466 597T334 633Q256 633 210 598T163 504Q163 413 303 388L406 368Q595 332 595 191Q595 98 526 42T342 -15Q220 -15 146 46T59 217H129Q142 137 197 93T345
49Q426 49 474 85T522 183Q522 276 394 299L276 322Q183 339 136 384T88 500Q88 588 154 641T330 695Z" />
<glyph unicode="T" glyph-name="T" horiz-adv-x="635" d="M606 615H353V0H282V615H29V680H606V615Z" />
<glyph unicode="U" glyph-name="U" horiz-adv-x="750" d="M664 680V289Q664 154 585 70T375 -15T166 69T86 289V680H157V289Q157 186 217 119T375 51T533 118T594 289V680H664Z" />
<glyph unicode="V" glyph-name="V" horiz-adv-x="745" d="M720 680L406 -5H340L26 680H104L373 90L642 680H720Z" />
<glyph unicode="W" glyph-name="W" horiz-adv-x="1066" d="M1024 680L792 -5H722L533 556L343 -5H274L41 680H116L309 102L502 680H564L757 103L950 680H1024Z" />
<glyph unicode="X" glyph-name="X" horiz-adv-x="661" d="M553 0L331 284L108 0H25L284 338L33 680H120L331 394L541 680H628L377 338L636 0H553Z" />
<glyph unicode="Y" glyph-name="Y" horiz-adv-x="664" d="M649 680L368 243V0H297V243L15 680H94L332 309L570 680H649Z" />
<glyph unicode="Z" glyph-name="Z" horiz-adv-x="654" d="M590 65V0H60V37L486 615H73V680H588V643L170 65H590Z" />
<glyph unicode="[" glyph-name="bracketleft" horiz-adv-x="342" d="M157 -57H294V-123H88V730H294V665H157V-57Z" />
<glyph unicode="\" glyph-name="backslash" horiz-adv-x="403" d="M102 730L368 -160H301L35 730H102Z" />
<glyph unicode="]" glyph-name="bracketright" horiz-adv-x="342" d="M33 665V730H239V-123H33V-57H171V665H33Z" />
<glyph unicode="^" glyph-name="asciicircum" horiz-adv-x="393" d="M362 446H298L197 627L95 446H31L166 680H227L362 446Z" />
<glyph unicode="_" glyph-name="underscore" horiz-adv-x="651" d="M41 -129H609V-189H41V-129Z" />
<glyph unicode="`" glyph-name="grave" horiz-adv-x="600" d="M364 564H300L207 706H283L364 564Z" />
<glyph unicode="a" glyph-name="a" horiz-adv-x="619" d="M466 462H535V0H466V51Q399 -13 299 -13Q200 -13 130 58T60 231Q60 332 130 403T299 474Q399 474 466 410V462ZM308 47Q407 47 466 131V330Q407 414 308 414Q232 414 181 360T129 231Q129 155 180 101T308 47Z" />
<glyph unicode="b" glyph-name="b" horiz-adv-x="619" d="M320 474Q419 474 489 403T559 231T489 59T320 -12Q219 -12 152 52V0H84V710H152V410Q219 474 320 474ZM311 48Q386 48 438 102T490 231Q490 307 438 361T311 415Q210 415 152 328V134Q210 48 311 48Z" />
<glyph unicode="c" glyph-name="c" horiz-adv-x="578" d="M301 50Q357 50 396 78T447 154H518Q504 80 444 34T301 -13Q197 -13 129 57T60 231Q60 334 128 404T301 474Q384 474 444 428T518 307H447Q436 354 397 382T301 411Q225 411 177 359T129 231Q129 154 177
102T301 50Z" />
<glyph unicode="d" glyph-name="d" horiz-adv-x="619" d="M535 710V0H466V51Q400 -12 299 -12Q200 -12 130 59T60 231T130 403T299 474Q400 474 466 411V710H535ZM308 48Q407 48 466 132V330Q408 415 308 415Q232 415 181 361T129 231Q129 156 180 102T308 48Z" />
<glyph unicode="e" glyph-name="e" horiz-adv-x="585" d="M525 233Q525 218 524 211L520 212V211H127Q133 140 180 93T302 46Q402 46 436 117H510Q490 57 433 22T300 -14Q195 -14 128 56T60 231T127 405T299 476Q398 476 461 408T525 233ZM299 417Q227 417 181
372T127 257H456Q450 329 408 373T299 417Z" />
<glyph unicode="f" glyph-name="f" horiz-adv-x="398" d="M207 462H393V403H207V0H139V403H4V462H139V583Q139 662 184 709T303 757Q350 757 398 743L388 684Q346 694 314 694Q265 694 236 664T207 583V462Z" />
<glyph unicode="g" glyph-name="g" horiz-adv-x="621" d="M463 462H531V-15Q531 -119 468 -181T301 -243Q212 -243 149 -195T73 -71H144Q154 -120 196 -150T301 -180Q374 -180 418 -136T463 -15V64Q394 -2 290 -2Q191 -2 124 68T56 235Q56 338 123 407T290 476Q394
476 463 410V462ZM298 58Q404 58 463 145V329Q404 416 298 416Q223 416 174 364T125 235Q125 163 174 111T298 58Z" />
<glyph unicode="h" glyph-name="h" horiz-adv-x="584" d="M323 477Q411 477 465 420T520 266V0H451V263Q451 334 413 374T311 414Q215 414 152 328V0H84V710H152V407Q220 477 323 477Z" />
<glyph unicode="i" glyph-name="i" horiz-adv-x="266" d="M153 591T133 591T100 604T86 637T99 670T133 683T166 670T180 637Q180 617 167 604ZM99 462H168V0H99V462Z" />
<glyph unicode="j" glyph-name="j" horiz-adv-x="257" d="M144 591T124 591T91 604T77 637Q77 656 90 669T124 683T157 670T171 637T158 604ZM159 462V9Q159 -91 121 -136T-12 -182L-17 -122Q43 -120 66 -93T90 2V462H159Z" />
<glyph unicode="k" glyph-name="k" horiz-adv-x="564" d="M256 221L158 127V0H90V710H158V217L418 462H506L305 268L544 0H455L256 221Z" />
<glyph unicode="l" glyph-name="l" horiz-adv-x="236" d="M152 710V0H84V710H152Z" />
<glyph unicode="m" glyph-name="m" horiz-adv-x="904" d="M650 477Q734 477 786 420T838 266V0H770V263Q770 335 735 374T638 414Q543 414 490 325Q496 298 496 266V0H427V263Q427 335 392 374T294 414Q207 414 152 330V0H84V462H152V410Q213 477 306 477Q413
477 465 391Q535 477 650 477Z" />
<glyph unicode="n" glyph-name="n" horiz-adv-x="584" d="M323 477Q411 477 465 420T520 266V0H451V263Q451 334 413 374T311 414Q215 414 152 328V0H84V462H152V407Q220 477 323 477Z" />
<glyph unicode="o" glyph-name="o" horiz-adv-x="611" d="M202 474T306 474T480 404T551 231Q551 127 481 56T306 -15T131 56T60 231Q60 334 131 404ZM231 47T306 47T431 100T482 231Q482 306 431 358T306 411Q231 411 180 359T129 231Q129 154 180 101Z" />
<glyph unicode="p" glyph-name="p" horiz-adv-x="619" d="M320 474Q419 474 489 403T559 231Q559 129 489 58T320 -13Q219 -13 152 52V-248H84V462H152V409Q219 474 320 474ZM311 47Q386 47 438 101T490 231Q490 306 438 360T311 414Q210 414 152 328V133Q210 47 311 47Z" />
<glyph unicode="q" glyph-name="q" horiz-adv-x="619" d="M535 462V-248H466V51Q399 -13 299 -13Q200 -13 130 58T60 231Q60 332 130 403T299 474Q399 474 466 410V462H535ZM308 47Q407 47 466 131V330Q407 414 308 414Q232 414 181 360T129 231Q129 155 180 101T308 47Z" />
<glyph unicode="r" glyph-name="r" horiz-adv-x="359" d="M152 462V382Q220 474 333 474V409Q216 406 152 302V0H84V462H152Z" />
<glyph unicode="s" glyph-name="s" horiz-adv-x="527" d="M53 143H117Q139 42 269 42Q326 42 361 64T396 124Q396 154 375 173T316 197L210 215Q73 237 73 339Q73 401 124 438T259 476Q338 476 395 440T459 329H395Q389 374 354 397T259 421Q205 421 173 400T141
344Q141 286 232 272L324 256Q462 233 462 128Q462 62 408 24T268 -15Q176 -15 120 25T53 143Z" />
<glyph unicode="t" glyph-name="t" horiz-adv-x="430" d="M375 60L386 1Q330 -15 286 -15Q126 -15 126 166V403H3V462H126V633H194V462H369V403H194V166Q194 104 219 76T298 48Q332 48 375 60Z" />
<glyph unicode="u" glyph-name="u" horiz-adv-x="584" d="M499 462V0H431V54Q362 -15 261 -15Q173 -15 119 42T64 195V462H132V199Q132 127 170 87T273 47Q317 47 359 69T431 133V462H499Z" />
<glyph unicode="v" glyph-name="v" horiz-adv-x="573" d="M538 462L318 0H255L35 462H108L286 87L464 462H538Z" />
<glyph unicode="w" glyph-name="w" horiz-adv-x="779" d="M744 462L570 0H508L390 352L271 0H209L35 462H109L239 107L360 462H420L540 108L670 462H744Z" />
<glyph unicode="x" glyph-name="x" horiz-adv-x="535" d="M420 0L268 184L114 0H32L222 231L36 462H120L267 281L416 462H500L313 231L503 0H420Z" />
<glyph unicode="y" glyph-name="y" horiz-adv-x="592" d="M553 462L229 -248H156L258 -24L22 462H96L294 55L480 462H553Z" />
<glyph unicode="z" glyph-name="z" horiz-adv-x="493" d="M445 462V422L149 58H445V0H48V35L347 403H59V462H445Z" />
<glyph unicode="{" glyph-name="braceleft" horiz-adv-x="356" d="M208 570V444Q208 385 192 354T135 308Q176 294 192 263T208 171V45Q208 -4 235 -34T309 -64V-130Q233 -130 187 -82T140 45V170Q140 231 117 254T39 277V338Q94 338 117 361T140 446V570Q140
649 186 697T309 745V679Q263 679 236 649T208 570Z" />
<glyph unicode="|" glyph-name="bar" horiz-adv-x="311" d="M188 730V-160H123V730H188Z" />
<glyph unicode="}" glyph-name="braceright" horiz-adv-x="362" d="M155 444V570Q155 619 128 649T54 679V745Q130 745 176 697T223 570V446Q223 384 245 361T324 338V277Q268 277 246 254T223 170V45Q223 -34 177 -82T54 -130V-64Q100 -64 127 -34T155 45V171Q155
231 170 262T227 308Q186 322 171 353T155 444Z" />
<glyph unicode="~" glyph-name="asciitilde" horiz-adv-x="458" d="M349 395H409Q409 356 393 329T352 293T300 285T251 300L188 343Q160 362 135 350T110 304H49Q49 343 66 370T107 406T159 414T207 399L271 356Q299 337 324 349T349 395Z" />
<glyph unicode="&#xa1;" glyph-name="exclamdown" horiz-adv-x="263" d="M111 475T131 475T165 462T179 429T165 397T131 383T98 396T84 429T97 461ZM95 -213L100 282H162L167 -213H95Z" />
<glyph unicode="&#xa2;" glyph-name="cent" horiz-adv-x="578" d="M301 50Q357 50 396 78T447 154H518Q505 87 455 42T332 -11V-126H270V-11Q177 -1 119 67T60 231Q60 326 118 394T270 472V599H332V472Q404 464 454 419T518 307H447Q436 354 397 382T301 411Q225
411 177 359T129 231Q129 154 177 102T301 50Z" />
<glyph unicode="&#xa3;" glyph-name="sterling" horiz-adv-x="630" d="M188 60H578V0H44V60H119V283H44V343H119V466Q119 569 183 632T353 695Q450 695 512 642T586 498H516Q507 561 464 597T353 634Q279 634 234 588T188 466V343H427V283H188V60Z" />
<glyph unicode="&#xa5;" glyph-name="yen" horiz-adv-x="664" d="M381 263H553V210H368V143H553V90H368V0H297V90H111V143H297V210H111V263H284L15 680H94L332 309L570 680H649L381 263Z" />
<glyph unicode="&#xa6;" glyph-name="brokenbar" horiz-adv-x="311" d="M188 336H123V730H188V336ZM188 -160H123V234H188V-160Z" />
<glyph unicode="&#xa7;" glyph-name="section" horiz-adv-x="542" d="M500 224Q500 135 409 100Q456 56 456 -5Q456 -76 404 -117T270 -159Q185 -159 131 -114T66 9H139Q146 -40 180 -68T269 -97Q321 -97 353 -73T385 -4Q385 32 362 55T280 105L176 153Q104 186
73 222T41 308Q41 397 134 432Q86 474 86 537Q86 608 138 649T272 690Q356 690 410 645T476 523H402Q396 572 362 600T272 628Q221 628 189 603T157 535Q157 500 180 477T262 426L366 378Q437 344 468 308T500 224ZM346 142Q383 145 407 166T431 223Q431 253 409
276T334 324L230 373Q226 375 214 381T195 390Q159 386 135 365T111 308Q111 278 133 255T207 208L311 159Q335 147 346 142Z" />
<glyph unicode="&#xa8;" glyph-name="dieresis" horiz-adv-x="600" d="M207 659Q227 659 241 645T256 611T242 577T207 563Q186 563 172 577T158 611T172 645T207 659ZM394 659Q414 659 428 645T443 611T429 577T394 563Q373 563 359 577T345 611T359 645T394 659Z" />
<glyph unicode="&#xa9;" glyph-name="copyright" horiz-adv-x="859" d="M280 695T430 695T687 593T794 340T687 87T430 -15T173 87T66 340T173 593ZM301 33T429 33T650 122T743 340T650 558T429 647T209 558T116 340T208 122ZM429 473Q375 473 337 434T299 339T337
244T429 205Q471 205 504 228T548 287H603Q589 228 542 192T430 155Q353 155 300 208T246 339Q246 417 299 470T430 523Q494 523 541 487T603 391H548Q537 427 504 450T429 473Z" />
<glyph unicode="&#xaa;" glyph-name="ordfeminine" horiz-adv-x="354" d="M179 686Q241 686 276 650T312 547V370H263V396Q214 362 155 362Q98 362 64 388T29 460Q29 501 59 524T147 547H263Q263 642 179 642Q147 642 123 628T94 589H45Q49 635 88 660T179 686ZM157
405Q217 405 263 443V508H145Q76 508 76 462Q76 437 97 421T157 405Z" />
<glyph unicode="&#xab;" glyph-name="guillemotleft" horiz-adv-x="429" d="M222 400L113 252L222 104H154L45 252L154 400H222ZM384 400L275 252L384 104H316L206 252L316 400H384Z" />
<glyph unicode="&#xae;" glyph-name="registered" horiz-adv-x="554" d="M180 694T277 694T443 628T513 464T444 301T277 235T111 301T41 464T110 627ZM277 273Q355 273 412 329T470 464Q470 544 413 600T277 656Q198 656 141 600T83 464Q83 385 140 329T277 273ZM373
506Q373 479 357 460T312 435L379 356H338L274 433H228V356H196V581H290Q326 581 349 560T373 506ZM228 463H289Q311 463 325 475T340 507Q340 526 326 538T289 551H228V463Z" />
<glyph unicode="&#xaf;" glyph-name="overscore" horiz-adv-x="600" d="M438 639V583H161V639H438Z" />
<glyph unicode="&#xb0;" glyph-name="degree" horiz-adv-x="487" d="M243 695Q315 695 362 649T410 532T363 416T243 369Q172 369 124 415T76 532T124 648T243 695ZM243 422Q290 422 322 454T355 532T323 610T243 642Q197 642 165 610T132 532T164 454T243 422Z" />
<glyph unicode="&#xb1;" glyph-name="plusminus" horiz-adv-x="693" d="M576 324H381V165H314V324H117V388H314V547H381V388H576V324ZM576 109V45H117V109H576Z" />
<glyph unicode="&#xb2;" glyph-name="twosuperior" horiz-adv-x="359" d="M318 352V306H49V335L184 470Q225 510 241 532T257 579Q257 609 236 628T180 647Q144 647 123 629T100 578H46Q49 632 83 663T178 695Q240 695 275 663T311 583Q311 550 293 520T229 445L138
352H318Z" />
<glyph unicode="&#xb3;" glyph-name="threesuperior" horiz-adv-x="371" d="M265 500Q325 475 325 412Q325 363 287 332T186 300Q126 300 88 328T43 406H97Q102 380 126 364T187 348Q226 348 249 365T273 412Q273 442 250 459T186 476H153V520H186Q219 520 239
538T260 584Q260 613 240 630T183 648Q151 648 131 633T107 591H54Q59 639 93 667T183 696Q242 696 277 665T312 585Q312 528 265 500Z" />
<glyph unicode="&#xb4;" glyph-name="acute" horiz-adv-x="600" d="M415 706L322 564H258L339 706H415Z" />
<glyph unicode="&#xb6;" glyph-name="paragraph" horiz-adv-x="738" d="M654 680V-160H583V618H446V-160H375V231H281Q177 231 107 294T37 459Q37 557 107 618T281 680H654ZM375 618H281Q206 618 157 574T107 458Q107 385 156 340T281 295H375V618Z" />
<glyph unicode="&#xb7;" glyph-name="middot" horiz-adv-x="177" d="M88 217Q69 217 55 230T41 264Q41 283 55 296T88 309Q108 309 122 296T136 264Q136 244 122 231T88 217Z" />
<glyph unicode="&#xb8;" glyph-name="cedilla" horiz-adv-x="600" d="M288 -215H228L274 -71H342L288 -215Z" />
<glyph unicode="&#xb9;" glyph-name="onesuperior" horiz-adv-x="310" d="M297 354V308H30V354H141V626L36 597V644L164 683H193V354H297Z" />
<glyph unicode="&#xba;" glyph-name="ordmasculine" horiz-adv-x="388" d="M125 686T194 686T310 640T357 524Q357 454 310 407T194 360T78 407T31 524Q31 593 78 639ZM194 406Q242 406 274 440T306 524Q306 572 274 606T194 640Q145 640 113 607T81 524Q81 474
113 440T194 406Z" />
<glyph unicode="&#xbb;" glyph-name="guillemotright" horiz-adv-x="429" d="M222 252L113 104H45L154 252L45 400H113L222 252ZM384 252L275 104H206L316 252L206 400H275L384 252Z" />
<glyph unicode="&#xbc;" glyph-name="onequarter" horiz-adv-x="872" d="M688 680L235 0H182L635 680H688ZM30 301V347H141V619L36 590V637L164 676H193V347H297V301H30ZM832 80H771V0H719V80H506V115L625 381H681L571 128H719V245H771V128H832V80Z" />
<glyph unicode="&#xbd;" glyph-name="onehalf" horiz-adv-x="869" d="M691 680L238 0H185L638 680H691ZM30 301V347H141V619L36 590V637L164 676H193V347H297V301H30ZM828 46V0H559V29L694 164Q735 204 751 226T767 273Q767 303 746 322T690 341Q654 341 633 323T610
272H556Q559 326 593 357T688 389Q750 389 785 357T821 277Q821 244 803 214T739 139L648 46H828Z" />
<glyph unicode="&#xbe;" glyph-name="threequarters" horiz-adv-x="865" d="M326 409Q326 360 288 329T187 297Q127 297 89 325T44 403H98Q103 377 127 361T188 345Q227 345 250 362T274 409Q274 439 251 456T187 473H154V517H187Q220 517 240 535T261 581Q261
610 241 627T184 645Q152 645 132 630T108 588H55Q60 636 94 664T184 693Q243 693 278 662T313 582Q313 525 266 497Q326 472 326 409ZM681 680L228 0H175L628 680H681ZM823 80H763V0H710V80H497V115L617 381H672L562 128H710V245H763V128H823V80Z" />
<glyph unicode="&#xbf;" glyph-name="questiondown" horiz-adv-x="567" d="M299 549T319 549T352 536T366 503Q366 484 353 471T319 458T286 471T272 503Q272 523 285 536ZM346 352L352 207H308Q238 207 193 165T147 58T190 -48T301 -91Q354 -91 395 -60T446 22H516Q504
-57 447 -104T304 -152Q207 -152 144 -93T80 57Q80 142 137 197T288 257L290 352H346Z" />
<glyph unicode="&#xc0;" glyph-name="Agrave" horiz-adv-x="746" d="M351 758L258 900H334L415 758H351ZM551 198H195L107 0H31L339 685H407L715 0H639L551 198ZM522 263L373 599L224 263H522Z" />
<glyph unicode="&#xc1;" glyph-name="Aacute" horiz-adv-x="746" d="M400 758H336L417 900H493L400 758ZM551 198H195L107 0H31L339 685H407L715 0H639L551 198ZM522 263L373 599L224 263H522Z" />
<glyph unicode="&#xc2;" glyph-name="Acircumflex" horiz-adv-x="746" d="M282 760H215L338 904H408L531 760H464L373 860L282 760ZM551 198H195L107 0H31L339 685H407L715 0H639L551 198ZM522 263L373 599L224 263H522Z" />
<glyph unicode="&#xc3;" glyph-name="Atilde" horiz-adv-x="746" d="M381 795L339 823Q311 842 289 832T267 793H211Q211 839 236 865T294 891T355 874L397 847Q428 827 448 837T469 877H525Q525 831 501 804T444 777T381 795ZM551 198H195L107 0H31L339 685H407L715
0H639L551 198ZM522 263L373 599L224 263H522Z" />
<glyph unicode="&#xc4;" glyph-name="Adieresis" horiz-adv-x="746" d="M280 769Q259 769 245 783T231 817T245 851T280 865Q300 865 314 851T329 817T315 783T280 769ZM467 769Q446 769 432 783T418 817T432 851T467 865Q487 865 501 851T516 817T502 783T467
769ZM551 198H195L107 0H31L339 685H407L715 0H639L551 198ZM522 263L373 599L224 263H522Z" />
<glyph unicode="&#xc5;" glyph-name="Aring" horiz-adv-x="746" d="M373 770Q329 770 301 797T273 866T301 934T373 961T444 935T472 866T444 797T373 770ZM398 923T373 923T332 907T315 866Q315 841 331 825T373 808T414 824T430 866Q430 890 414 906ZM551 198H195L107
0H31L339 685H407L715 0H639L551 198ZM522 263L373 599L224 263H522Z" />
<glyph unicode="&#xc6;" glyph-name="AE" horiz-adv-x="1105" d="M640 615V371H1001V305H640V65H1041V0H569V198H275L123 0H36L562 680H1041V615H640ZM569 263V581L325 263H569Z" />
<glyph unicode="&#xc7;" glyph-name="Ccedilla" horiz-adv-x="808" d="M419 54Q514 54 580 104T669 239H742Q718 125 630 56T419 -14Q271 -14 169 88T66 340T168 591T419 694Q542 694 630 625T742 441H669Q647 526 581 576T419 626Q300 626 219 544T137 340T218
136T419 54ZM378 -71H446L392 -215H332L378 -71Z" />
<glyph unicode="&#xc8;" glyph-name="Egrave" horiz-adv-x="632" d="M308 758L215 900H291L372 758H308ZM167 615V371H528V305H167V65H568V0H96V680H568V615H167Z" />
<glyph unicode="&#xc9;" glyph-name="Eacute" horiz-adv-x="632" d="M357 758H293L374 900H450L357 758ZM167 615V371H528V305H167V65H568V0H96V680H568V615H167Z" />
<glyph unicode="&#xca;" glyph-name="Ecircumflex" horiz-adv-x="632" d="M239 760H172L295 904H365L488 760H421L330 860L239 760ZM167 615V371H528V305H167V65H568V0H96V680H568V615H167Z" />
<glyph unicode="&#xcb;" glyph-name="Edieresis" horiz-adv-x="632" d="M237 769Q216 769 202 783T188 817T202 851T237 865Q257 865 271 851T286 817T272 783T237 769ZM424 769Q403 769 389 783T375 817T389 851T424 865Q444 865 458 851T473 817T459 783T424
769ZM167 615V371H528V305H167V65H568V0H96V680H568V615H167Z" />
<glyph unicode="&#xcc;" glyph-name="Igrave" horiz-adv-x="262" d="M173 758H109L16 900H92L173 758ZM167 680V0H96V680H167Z" />
<glyph unicode="&#xcd;" glyph-name="Iacute" horiz-adv-x="262" d="M251 900L158 758H94L175 900H251ZM167 680V0H96V680H167Z" />
<glyph unicode="&#xce;" glyph-name="Icircumflex" horiz-adv-x="262" d="M131 860L40 760H-27L96 904H166L289 760H222L131 860ZM167 680V0H96V680H167Z" />
<glyph unicode="&#xcf;" glyph-name="Idieresis" horiz-adv-x="262" d="M38 865Q58 865 72 851T87 817T73 783T38 769Q17 769 3 783T-11 817T3 851T38 865ZM225 865Q245 865 259 851T274 817T260 783T225 769Q204 769 190 783T176 817T190 851T225 865ZM167 680V0H96V680H167Z"
/>
<glyph unicode="&#xd0;" glyph-name="Eth" horiz-adv-x="751" d="M96 680H332Q489 680 589 586T690 345Q690 193 590 97T332 0H96V304H26V369H96V680ZM167 65H332Q457 65 537 143T617 345Q617 463 537 539T332 615H167V369H345V304H167V65Z" />
<glyph unicode="&#xd1;" glyph-name="Ntilde" horiz-adv-x="768" d="M392 795L350 823Q322 842 300 832T278 793H222Q222 839 247 865T305 891T366 874L408 847Q439 827 459 837T480 877H536Q536 831 512 804T455 777T392 795ZM672 680V0H611L167 551V0H96V680H154L601
122V680H672Z" />
<glyph unicode="&#xd2;" glyph-name="Ograve" horiz-adv-x="839" d="M461 758H397L304 900H380L461 758ZM273 694T420 694T670 591T774 340T671 90T420 -14T170 89T66 340T169 590ZM420 52Q538 52 620 136T702 340T620 543T420 628Q301 628 219 544T137 340T219
137T420 52Z" />
<glyph unicode="&#xd3;" glyph-name="Oacute" horiz-adv-x="839" d="M540 900L447 758H383L464 900H540ZM273 694T420 694T670 591T774 340T671 90T420 -14T170 89T66 340T169 590ZM420 52Q538 52 620 136T702 340T620 543T420 628Q301 628 219 544T137 340T219
137T420 52Z" />
<glyph unicode="&#xd4;" glyph-name="Ocircumflex" horiz-adv-x="839" d="M419 860L328 760H261L384 904H454L577 760H510L419 860ZM273 694T420 694T670 591T774 340T671 90T420 -14T170 89T66 340T169 590ZM420 52Q538 52 620 136T702 340T620 543T420 628Q301
628 219 544T137 340T219 137T420 52Z" />
<glyph unicode="&#xd5;" glyph-name="Otilde" horiz-adv-x="839" d="M515 877H571Q571 831 547 804T490 777T427 795L385 823Q357 842 335 832T313 793H257Q257 839 282 865T340 891T401 874L443 847Q474 827 494 837T515 877ZM273 694T420 694T670 591T774 340T671
90T420 -14T170 89T66 340T169 590ZM420 52Q538 52 620 136T702 340T620 543T420 628Q301 628 219 544T137 340T219 137T420 52Z" />
<glyph unicode="&#xd6;" glyph-name="Odieresis" horiz-adv-x="839" d="M326 865Q346 865 360 851T375 817T361 783T326 769Q305 769 291 783T277 817T291 851T326 865ZM513 865Q533 865 547 851T562 817T548 783T513 769Q492 769 478 783T464 817T478 851T513
865ZM273 694T420 694T670 591T774 340T671 90T420 -14T170 89T66 340T169 590ZM420 52Q538 52 620 136T702 340T620 543T420 628Q301 628 219 544T137 340T219 137T420 52Z" />
<glyph unicode="&#xd7;" glyph-name="multiply" horiz-adv-x="663" d="M535 160L489 115L332 273L174 115L128 160L286 318L128 476L174 521L332 364L489 521L535 476L377 318L535 160Z" />
<glyph unicode="&#xd8;" glyph-name="Oslash" horiz-adv-x="839" d="M722 656L669 592Q774 489 774 340Q774 193 671 90T420 -14Q307 -14 215 51L157 -18L112 19L170 89Q66 193 66 340T169 590T420 694Q531 694 624 630L677 693L722 656ZM137 340Q137 224 215
141L580 577Q508 628 420 628Q301 628 219 544T137 340ZM420 52Q538 52 620 136T702 340Q702 454 624 539L258 103Q330 52 420 52Z" />
<glyph unicode="&#xd9;" glyph-name="Ugrave" horiz-adv-x="750" d="M417 758H353L260 900H336L417 758ZM664 680V289Q664 154 585 70T375 -15T166 69T86 289V680H157V289Q157 186 217 119T375 51T533 118T594 289V680H664Z" />
<glyph unicode="&#xda;" glyph-name="Uacute" horiz-adv-x="750" d="M495 900L402 758H338L419 900H495ZM664 680V289Q664 154 585 70T375 -15T166 69T86 289V680H157V289Q157 186 217 119T375 51T533 118T594 289V680H664Z" />
<glyph unicode="&#xdb;" glyph-name="Ucircumflex" horiz-adv-x="750" d="M375 860L284 760H217L340 904H410L533 760H466L375 860ZM664 680V289Q664 154 585 70T375 -15T166 69T86 289V680H157V289Q157 186 217 119T375 51T533 118T594 289V680H664Z" />
<glyph unicode="&#xdc;" glyph-name="Udieresis" horiz-adv-x="750" d="M282 865Q302 865 316 851T331 817T317 783T282 769Q261 769 247 783T233 817T247 851T282 865ZM469 865Q489 865 503 851T518 817T504 783T469 769Q448 769 434 783T420 817T434 851T469
865ZM664 680V289Q664 154 585 70T375 -15T166 69T86 289V680H157V289Q157 186 217 119T375 51T533 118T594 289V680H664Z" />
<glyph unicode="&#xdd;" glyph-name="Yacute" horiz-adv-x="664" d="M360 758H296L377 900H453L360 758ZM649 680L368 243V0H297V243L15 680H94L332 309L570 680H649Z" />
<glyph unicode="&#xde;" glyph-name="Thorn" horiz-adv-x="632" d="M167 571H333Q450 571 521 509T593 346Q593 242 519 179T324 115H167V0H96V680H167V571ZM167 180H330Q417 180 470 226T523 346Q523 418 470 462T330 506H167V180Z" />
<glyph unicode="&#xdf;" glyph-name="germandbls" horiz-adv-x="616" d="M417 359Q492 345 533 302T575 188Q575 100 512 48T333 -5Q305 -5 262 0V59Q304 54 331 54Q418 54 463 91T508 189Q508 251 464 283T347 316H302V367Q375 376 414 416T453 509Q453 560 418
597T316 635Q241 636 194 587T147 447V0H78V447Q78 563 142 629T312 695Q408 695 464 643T520 512Q520 406 417 359Z" />
<glyph unicode="&#xe0;" glyph-name="agrave" horiz-adv-x="619" d="M360 553H296L203 695H279L360 553ZM466 462H535V0H466V51Q399 -13 299 -13Q200 -13 130 58T60 231Q60 332 130 403T299 474Q399 474 466 410V462ZM308 47Q407 47 466 131V330Q407 414 308 414Q232
414 181 360T129 231Q129 155 180 101T308 47Z" />
<glyph unicode="&#xe1;" glyph-name="aacute" horiz-adv-x="619" d="M438 694L345 552H281L362 694H438ZM466 462H535V0H466V51Q399 -13 299 -13Q200 -13 130 58T60 231Q60 332 130 403T299 474Q399 474 466 410V462ZM308 47Q407 47 466 131V330Q407 414 308 414Q232
414 181 360T129 231Q129 155 180 101T308 47Z" />
<glyph unicode="&#xe2;" glyph-name="acircumflex" horiz-adv-x="619" d="M318 645L227 545H160L283 689H353L476 545H409L318 645ZM466 462H535V0H466V51Q399 -13 299 -13Q200 -13 130 58T60 231Q60 332 130 403T299 474Q399 474 466 410V462ZM308 47Q407 47
466 131V330Q407 414 308 414Q232 414 181 360T129 231Q129 155 180 101T308 47Z" />
<glyph unicode="&#xe3;" glyph-name="atilde" horiz-adv-x="619" d="M340 590L298 618Q270 637 248 627T226 588H170Q170 634 195 660T253 686T314 669L356 642Q387 622 407 632T428 672H484Q484 626 460 599T403 572T340 590ZM466 462H535V0H466V51Q399 -13 299
-13Q200 -13 130 58T60 231Q60 332 130 403T299 474Q399 474 466 410V462ZM308 47Q407 47 466 131V330Q407 414 308 414Q232 414 181 360T129 231Q129 155 180 101T308 47Z" />
<glyph unicode="&#xe4;" glyph-name="adieresis" horiz-adv-x="619" d="M225 574Q204 574 190 588T176 622T190 656T225 670Q245 670 259 656T274 622T260 588T225 574ZM412 574Q391 574 377 588T363 622T377 656T412 670Q432 670 446 656T461 622T447 588T412
574ZM466 462H535V0H466V51Q399 -13 299 -13Q200 -13 130 58T60 231Q60 332 130 403T299 474Q399 474 466 410V462ZM308 47Q407 47 466 131V330Q407 414 308 414Q232 414 181 360T129 231Q129 155 180 101T308 47Z" />
<glyph unicode="&#xe5;" glyph-name="aring" horiz-adv-x="619" d="M319 545Q275 545 247 572T219 641T247 709T319 736T390 710T418 641T390 572T319 545ZM344 698T319 698T278 682T261 641Q261 616 277 600T319 583T360 599T376 641Q376 665 360 681ZM466 462H535V0H466V51Q399
-13 299 -13Q200 -13 130 58T60 231Q60 332 130 403T299 474Q399 474 466 410V462ZM308 47Q407 47 466 131V330Q407 414 308 414Q232 414 181 360T129 231Q129 155 180 101T308 47Z" />
<glyph unicode="&#xe6;" glyph-name="ae" horiz-adv-x="936" d="M876 233Q876 228 876 221T875 211L871 212V211H479V204Q487 136 533 91T653 46Q701 46 736 65T786 117H860Q840 57 784 22T651 -14Q531 -14 461 76Q375 -12 243 -12Q157 -12 105 27T53 133Q53 192
97 224T223 257H411Q411 412 273 412Q223 412 189 390T148 330H78Q87 398 141 434T273 471Q401 471 453 375Q520 476 650 476Q749 476 812 408T876 233ZM479 261V257H806Q800 329 758 373T650 417Q580 417 534 373T479 261ZM247 46Q349 46 432 126Q416 162 411
204H219Q170 204 145 186T119 136Q119 97 153 72T247 46Z" />
<glyph unicode="&#xe7;" glyph-name="ccedilla" horiz-adv-x="578" d="M301 50Q357 50 396 78T447 154H518Q504 80 444 34T301 -13Q197 -13 129 57T60 231Q60 334 128 404T301 474Q384 474 444 428T518 307H447Q436 354 397 382T301 411Q225 411 177 359T129 231Q129
154 177 102T301 50ZM262 -71H330L276 -215H216L262 -71Z" />
<glyph unicode="&#xe8;" glyph-name="egrave" horiz-adv-x="585" d="M338 553H274L181 695H257L338 553ZM525 233Q525 218 524 211L520 212V211H127Q133 140 180 93T302 46Q402 46 436 117H510Q490 57 433 22T300 -14Q195 -14 128 56T60 231T127 405T299 476Q398
476 461 408T525 233ZM299 417Q227 417 181 372T127 257H456Q450 329 408 373T299 417Z" />
<glyph unicode="&#xe9;" glyph-name="eacute" horiz-adv-x="585" d="M417 694L324 552H260L341 694H417ZM525 233Q525 218 524 211L520 212V211H127Q133 140 180 93T302 46Q402 46 436 117H510Q490 57 433 22T300 -14Q195 -14 128 56T60 231T127 405T299 476Q398
476 461 408T525 233ZM299 417Q227 417 181 372T127 257H456Q450 329 408 373T299 417Z" />
<glyph unicode="&#xea;" glyph-name="ecircumflex" horiz-adv-x="585" d="M296 645L205 545H138L261 689H331L454 545H387L296 645ZM525 233Q525 218 524 211L520 212V211H127Q133 140 180 93T302 46Q402 46 436 117H510Q490 57 433 22T300 -14Q195 -14 128 56T60
231T127 405T299 476Q398 476 461 408T525 233ZM299 417Q227 417 181 372T127 257H456Q450 329 408 373T299 417Z" />
<glyph unicode="&#xeb;" glyph-name="edieresis" horiz-adv-x="585" d="M204 574Q183 574 169 588T155 622T169 656T204 670Q224 670 238 656T253 622T239 588T204 574ZM391 574Q370 574 356 588T342 622T356 656T391 670Q411 670 425 656T440 622T426 588T391
574ZM525 233Q525 218 524 211L520 212V211H127Q133 140 180 93T302 46Q402 46 436 117H510Q490 57 433 22T300 -14Q195 -14 128 56T60 231T127 405T299 476Q398 476 461 408T525 233ZM299 417Q227 417 181 372T127 257H456Q450 329 408 373T299 417Z" />
<glyph unicode="&#xec;" glyph-name="igrave" horiz-adv-x="267" d="M175 553H111L18 695H94L175 553ZM168 462V0H99V462H168Z" />
<glyph unicode="&#xed;" glyph-name="iacute" horiz-adv-x="267" d="M254 694L161 552H97L178 694H254ZM168 462V0H99V462H168Z" />
<glyph unicode="&#xee;" glyph-name="icircumflex" horiz-adv-x="267" d="M133 645L42 545H-25L98 689H168L291 545H224L133 645ZM168 462V0H99V462H168Z" />
<glyph unicode="&#xef;" glyph-name="idieresis" horiz-adv-x="267" d="M41 670Q61 670 75 656T90 622T76 588T41 574Q20 574 6 588T-8 622T6 656T41 670ZM228 670Q248 670 262 656T277 622T263 588T228 574Q207 574 193 588T179 622T193 656T228 670ZM168 462V0H99V462H168Z"
/>
<glyph unicode="&#xf0;" glyph-name="eth" horiz-adv-x="594" d="M440 627L384 606Q462 537 506 441T551 231Q551 127 481 56T306 -15T131 56T60 231Q60 334 131 404T306 474Q383 474 444 423Q403 516 318 582L155 522L138 570L267 618Q213 650 146 675L219 705Q278
684 337 644L422 675L440 627ZM231 47T306 47T431 100T482 231Q482 306 431 358T306 411Q231 411 180 359T129 231Q129 154 180 101Z" />
<glyph unicode="&#xf1;" glyph-name="ntilde" horiz-adv-x="584" d="M322 590L280 618Q252 637 230 627T208 588H152Q152 634 177 660T235 686T296 669L338 642Q369 622 389 632T410 672H466Q466 626 442 599T385 572T322 590ZM323 477Q411 477 465 420T520 266V0H451V263Q451
334 413 374T311 414Q215 414 152 328V0H84V462H152V407Q220 477 323 477Z" />
<glyph unicode="&#xf2;" glyph-name="ograve" horiz-adv-x="611" d="M267 695L348 553H284L191 695H267ZM202 474T306 474T480 404T551 231Q551 127 481 56T306 -15T131 56T60 231Q60 334 131 404ZM231 47T306 47T431 100T482 231Q482 306 431 358T306 411Q231
411 180 359T129 231Q129 154 180 101Z" />
<glyph unicode="&#xf3;" glyph-name="oacute" horiz-adv-x="611" d="M350 694H426L333 552H269L350 694ZM202 474T306 474T480 404T551 231Q551 127 481 56T306 -15T131 56T60 231Q60 334 131 404ZM231 47T306 47T431 100T482 231Q482 306 431 358T306 411Q231
411 180 359T129 231Q129 154 180 101Z" />
<glyph unicode="&#xf4;" glyph-name="ocircumflex" horiz-adv-x="611" d="M397 545L306 645L215 545H148L271 689H341L464 545H397ZM202 474T306 474T480 404T551 231Q551 127 481 56T306 -15T131 56T60 231Q60 334 131 404ZM231 47T306 47T431 100T482 231Q482
306 431 358T306 411Q231 411 180 359T129 231Q129 154 180 101Z" />
<glyph unicode="&#xf5;" glyph-name="otilde" horiz-adv-x="611" d="M415 672H471Q471 626 447 599T390 572T327 590L285 618Q257 637 235 627T213 588H157Q157 634 182 660T240 686T301 669L343 642Q374 622 394 632T415 672ZM202 474T306 474T480 404T551 231Q551
127 481 56T306 -15T131 56T60 231Q60 334 131 404ZM231 47T306 47T431 100T482 231Q482 306 431 358T306 411Q231 411 180 359T129 231Q129 154 180 101Z" />
<glyph unicode="&#xf6;" glyph-name="odieresis" horiz-adv-x="611" d="M213 670Q233 670 247 656T262 622T248 588T213 574Q192 574 178 588T164 622T178 656T213 670ZM400 670Q420 670 434 656T449 622T435 588T400 574Q379 574 365 588T351 622T365 656T400
670ZM202 474T306 474T480 404T551 231Q551 127 481 56T306 -15T131 56T60 231Q60 334 131 404ZM231 47T306 47T431 100T482 231Q482 306 431 358T306 411Q231 411 180 359T129 231Q129 154 180 101Z" />
<glyph unicode="&#xf7;" glyph-name="divide" horiz-adv-x="693" d="M366 464T347 464T315 477T301 509T314 541T347 554T379 541T393 509T380 477ZM117 355H576V291H117V355ZM347 94Q327 94 314 106T301 138T314 170T347 183Q366 183 379 170T393 138T380 107T347 94Z" />
<glyph unicode="&#xf8;" glyph-name="oslash" horiz-adv-x="611" d="M508 442L478 406Q551 335 551 231T481 56T306 -15Q226 -15 163 29L130 -10L92 22L125 62Q60 130 60 231Q60 334 131 404T306 474Q378 474 439 437L470 474L508 442ZM129 231Q129 164 169 114L396
386Q355 411 306 411Q231 411 180 359T129 231ZM306 47Q381 47 431 100T482 231Q482 303 435 355L205 79Q250 47 306 47Z" />
<glyph unicode="&#xf9;" glyph-name="ugrave" horiz-adv-x="584" d="M264 553L171 695H247L328 553H264ZM499 462V0H431V54Q362 -15 261 -15Q173 -15 119 42T64 195V462H132V199Q132 127 170 87T273 47Q317 47 359 69T431 133V462H499Z" />
<glyph unicode="&#xfa;" glyph-name="uacute" horiz-adv-x="584" d="M313 552H249L330 694H406L313 552ZM499 462V0H431V54Q362 -15 261 -15Q173 -15 119 42T64 195V462H132V199Q132 127 170 87T273 47Q317 47 359 69T431 133V462H499Z" />
<glyph unicode="&#xfb;" glyph-name="ucircumflex" horiz-adv-x="584" d="M195 545H128L251 689H321L444 545H377L286 645L195 545ZM499 462V0H431V54Q362 -15 261 -15Q173 -15 119 42T64 195V462H132V199Q132 127 170 87T273 47Q317 47 359 69T431 133V462H499Z" />
<glyph unicode="&#xfc;" glyph-name="udieresis" horiz-adv-x="584" d="M193 574Q172 574 158 588T144 622T158 656T193 670Q213 670 227 656T242 622T228 588T193 574ZM380 574Q359 574 345 588T331 622T345 656T380 670Q400 670 414 656T429 622T415 588T380
574ZM499 462V0H431V54Q362 -15 261 -15Q173 -15 119 42T64 195V462H132V199Q132 127 170 87T273 47Q317 47 359 69T431 133V462H499Z" />
<glyph unicode="&#xfd;" glyph-name="yacute" horiz-adv-x="592" d="M320 552H256L337 694H413L320 552ZM553 462L229 -248H156L258 -24L22 462H96L294 55L480 462H553Z" />
<glyph unicode="&#xfe;" glyph-name="thorn" horiz-adv-x="615" d="M320 474Q419 474 489 403T559 231Q559 129 489 58T320 -13Q219 -13 152 52V-248H84V680H152V409Q219 474 320 474ZM311 47Q386 47 438 101T490 231Q490 306 438 360T311 414Q210 414 152 328V133Q210
47 311 47Z" />
<glyph unicode="&#xff;" glyph-name="ydieresis" horiz-adv-x="592" d="M200 574Q179 574 165 588T151 622T165 656T200 670Q220 670 234 656T249 622T235 588T200 574ZM387 574Q366 574 352 588T338 622T352 656T387 670Q407 670 421 656T436 622T422 588T387
574ZM553 462L229 -248H156L258 -24L22 462H96L294 55L480 462H553Z" />
<glyph unicode="&#x100;" glyph-name="Amacron" horiz-adv-x="746" d="M511 769H234V825H511V769ZM551 198H195L107 0H31L339 685H407L715 0H639L551 198ZM522 263L373 599L224 263H522Z" />
<glyph unicode="&#x101;" glyph-name="amacron" horiz-adv-x="619" d="M456 628V572H179V628H456ZM466 462H535V0H466V51Q399 -13 299 -13Q200 -13 130 58T60 231Q60 332 130 403T299 474Q399 474 466 410V462ZM308 47Q407 47 466 131V330Q407 414 308 414Q232
414 181 360T129 231Q129 155 180 101T308 47Z" />
<glyph unicode="&#x102;" glyph-name="Abreve" horiz-adv-x="746" d="M434 764T373 764T272 800T231 903H283Q283 858 309 835T373 812T436 835T463 903H515Q515 836 475 800ZM551 198H195L107 0H31L339 685H407L715 0H639L551 198ZM522 263L373 599L224 263H522Z" />
<glyph unicode="&#x103;" glyph-name="abreve" horiz-adv-x="619" d="M379 540T318 540T217 576T176 679H228Q228 634 254 611T318 588T381 611T408 679H460Q460 612 420 576ZM466 462H535V0H466V51Q399 -13 299 -13Q200 -13 130 58T60 231Q60 332 130 403T299
474Q399 474 466 410V462ZM308 47Q407 47 466 131V330Q407 414 308 414Q232 414 181 360T129 231Q129 155 180 101T308 47Z" />
<glyph unicode="&#x104;" glyph-name="Aogonek" horiz-adv-x="746" d="M727 -128L734 -181Q715 -188 684 -188Q626 -188 591 -159T556 -83Q556 -20 631 18L551 198H195L107 0H31L339 685H407L715 0H694Q615 -26 615 -76Q615 -102 635 -117T693 -132Q705 -132 727
-128ZM522 263L373 599L224 263H522Z" />
<glyph unicode="&#x105;" glyph-name="aogonek" horiz-adv-x="619" d="M562 -130L569 -183Q550 -190 519 -190Q461 -190 426 -161T391 -85Q391 -22 466 16V51Q399 -13 299 -13Q200 -13 130 58T60 231Q60 332 130 403T299 474Q399 474 466 410V462H535V0Q450 -27
450 -78Q450 -104 470 -119T528 -134Q540 -134 562 -130ZM308 47Q407 47 466 131V330Q407 414 308 414Q232 414 181 360T129 231Q129 155 180 101T308 47Z" />
<glyph unicode="&#x106;" glyph-name="Cacute" horiz-adv-x="808" d="M447 758H383L464 900H540L447 758ZM419 54Q514 54 580 104T669 239H742Q718 125 630 56T419 -14Q271 -14 169 88T66 340T168 591T419 694Q542 694 630 625T742 441H669Q647 526 581 576T419
626Q300 626 219 544T137 340T218 136T419 54Z" />
<glyph unicode="&#x107;" glyph-name="cacute" horiz-adv-x="578" d="M325 552H261L342 694H418L325 552ZM301 50Q357 50 396 78T447 154H518Q504 80 444 34T301 -13Q197 -13 129 57T60 231Q60 334 128 404T301 474Q384 474 444 428T518 307H447Q436 354 397 382T301
411Q225 411 177 359T129 231Q129 154 177 102T301 50Z" />
<glyph unicode="&#x10a;" glyph-name="Cdotaccent" horiz-adv-x="808" d="M440 769T420 769T386 783T371 817T385 851T420 865T454 851T469 817T455 783ZM419 54Q514 54 580 104T669 239H742Q718 125 630 56T419 -14Q271 -14 169 88T66 340T168 591T419 694Q542
694 630 625T742 441H669Q647 526 581 576T419 626Q300 626 219 544T137 340T218 136T419 54Z" />
<glyph unicode="&#x10b;" glyph-name="cdotaccent" horiz-adv-x="578" d="M317 574T297 574T263 588T248 622T262 656T297 670T331 656T346 622T332 588ZM301 50Q357 50 396 78T447 154H518Q504 80 444 34T301 -13Q197 -13 129 57T60 231Q60 334 128 404T301 474Q384
474 444 428T518 307H447Q436 354 397 382T301 411Q225 411 177 359T129 231Q129 154 177 102T301 50Z" />
<glyph unicode="&#x10c;" glyph-name="Ccaron" horiz-adv-x="808" d="M385 756L262 900H329L420 799L511 900H578L455 756H385ZM419 54Q514 54 580 104T669 239H742Q718 125 630 56T419 -14Q271 -14 169 88T66 340T168 591T419 694Q542 694 630 625T742 441H669Q647
526 581 576T419 626Q300 626 219 544T137 340T218 136T419 54Z" />
<glyph unicode="&#x10d;" glyph-name="ccaron" horiz-adv-x="578" d="M262 545L139 689H206L297 588L388 689H455L332 545H262ZM301 50Q357 50 396 78T447 154H518Q504 80 444 34T301 -13Q197 -13 129 57T60 231Q60 334 128 404T301 474Q384 474 444 428T518 307H447Q436
354 397 382T301 411Q225 411 177 359T129 231Q129 154 177 102T301 50Z" />
<glyph unicode="&#x10e;" glyph-name="Dcaron" horiz-adv-x="751" d="M310 756L187 900H254L345 799L436 900H503L380 756H310ZM96 680H332Q489 680 589 586T690 345Q690 193 590 97T332 0H96V680ZM167 65H332Q457 65 537 143T617 345Q617 463 537 539T332 615H167V65Z" />
<glyph unicode="&#x10f;" glyph-name="dcaron" horiz-adv-x="619" d="M466 710H535V0H466V51Q400 -12 299 -12Q200 -12 130 59T60 231T130 403T299 474Q400 474 466 411V710ZM707 710L681 525H628L638 710H707ZM308 48Q407 48 466 132V330Q408 415 308 415Q232
415 181 361T129 231Q129 156 180 102T308 48Z" />
<glyph unicode="&#x110;" glyph-name="Dcroat" horiz-adv-x="751" d="M96 680H332Q489 680 589 586T690 345Q690 193 590 97T332 0H96V304H26V369H96V680ZM167 65H332Q457 65 537 143T617 345Q617 463 537 539T332 615H167V369H345V304H167V65Z" />
<glyph unicode="&#x111;" glyph-name="" horiz-adv-x="619" d="M572 574H535V0H466V51Q400 -12 299 -12Q200 -12 130 59T60 231T130 403T299 474Q400 474 466 411V574H271V631H466V710H535V631H572V574ZM308 48Q407 48 466 132V330Q408 415 308 415Q232 415 181
361T129 231Q129 156 180 102T308 48Z" />
<glyph unicode="&#x112;" glyph-name="Emacron" horiz-adv-x="632" d="M468 769H191V825H468V769ZM167 615V371H528V305H167V65H568V0H96V680H568V615H167Z" />
<glyph unicode="&#x113;" glyph-name="emacron" horiz-adv-x="585" d="M435 628V572H158V628H435ZM525 233Q525 218 524 211L520 212V211H127Q133 140 180 93T302 46Q402 46 436 117H510Q490 57 433 22T300 -14Q195 -14 128 56T60 231T127 405T299 476Q398 476
461 408T525 233ZM299 417Q227 417 181 372T127 257H456Q450 329 408 373T299 417Z" />
<glyph unicode="&#x116;" glyph-name="Edotaccent" horiz-adv-x="632" d="M350 769T330 769T296 783T281 817T295 851T330 865T364 851T379 817T365 783ZM167 615V371H528V305H167V65H568V0H96V680H568V615H167Z" />
<glyph unicode="&#x117;" glyph-name="edotaccent" horiz-adv-x="585" d="M317 574T297 574T263 588T248 622T262 656T297 670T331 656T346 622T332 588ZM525 233Q525 218 524 211L520 212V211H127Q133 140 180 93T302 46Q402 46 436 117H510Q490 57 433 22T300
-14Q195 -14 128 56T60 231T127 405T299 476Q398 476 461 408T525 233ZM299 417Q227 417 181 372T127 257H456Q450 329 408 373T299 417Z" />
<glyph unicode="&#x118;" glyph-name="Eogonek" horiz-adv-x="632" d="M596 -130L603 -183Q584 -190 553 -190Q495 -190 460 -161T425 -85Q425 -35 474 0H96V680H568V615H167V371H528V305H167V65H568V3L569 0Q484 -27 484 -78Q484 -104 504 -119T562 -134Q574
-134 596 -130Z" />
<glyph unicode="&#x119;" glyph-name="eogonek" horiz-adv-x="585" d="M525 233Q525 218 524 211L520 212V211H127Q133 140 180 93T302 46Q402 46 436 117H510Q492 65 444 29Q415 3 404 -15T392 -60Q392 -88 412 -103T469 -119Q486 -119 504 -116L511 -169Q492
-176 460 -176Q403 -176 368 -147T332 -71Q332 -37 350 -10Q329 -14 300 -14Q195 -14 128 56T60 231T127 405T299 476Q398 476 461 408T525 233ZM299 417Q227 417 181 372T127 257H456Q450 329 408 373T299 417Z" />
<glyph unicode="&#x11a;" glyph-name="Ecaron" horiz-adv-x="632" d="M295 756L172 900H239L330 799L421 900H488L365 756H295ZM167 615V371H528V305H167V65H568V0H96V680H568V615H167Z" />
<glyph unicode="&#x11b;" glyph-name="ecaron" horiz-adv-x="585" d="M331 545H261L138 689H205L296 588L387 689H454L331 545ZM525 233Q525 218 524 211L520 212V211H127Q133 140 180 93T302 46Q402 46 436 117H510Q490 57 433 22T300 -14Q195 -14 128 56T60
231T127 405T299 476Q398 476 461 408T525 233ZM299 417Q227 417 181 372T127 257H456Q450 329 408 373T299 417Z" />
<glyph unicode="&#x11e;" glyph-name="Gbreve" horiz-adv-x="832" d="M482 764T421 764T320 800T279 903H331Q331 858 357 835T421 812T484 835T511 903H563Q563 836 523 800ZM744 340H745V0H687L681 145Q644 70 577 28T417 -14Q268 -14 167 88T66 336Q66 488
169 591T422 694Q536 694 626 630T744 456H667Q643 537 575 581T423 626Q302 626 220 544T137 336Q137 219 217 137T417 55Q522 55 589 121T671 291H411V356H745L744 340Z" />
<glyph unicode="&#x11f;" glyph-name="gbreve" horiz-adv-x="621" d="M373 540T312 540T211 576T170 679H222Q222 634 248 611T312 588T375 611T402 679H454Q454 612 414 576ZM463 462H531V-15Q531 -119 468 -181T301 -243Q212 -243 149 -195T73 -71H144Q154 -120
196 -150T301 -180Q374 -180 418 -136T463 -15V64Q394 -2 290 -2Q191 -2 124 68T56 235Q56 338 123 407T290 476Q394 476 463 410V462ZM298 58Q404 58 463 145V329Q404 416 298 416Q223 416 174 364T125 235Q125 163 174 111T298 58Z" />
<glyph unicode="&#x120;" glyph-name="Gdotaccent" horiz-adv-x="832" d="M441 769T421 769T387 783T372 817T386 851T421 865T455 851T470 817T456 783ZM744 340H745V0H687L681 145Q644 70 577 28T417 -14Q268 -14 167 88T66 336Q66 488 169 591T422 694Q536
694 626 630T744 456H667Q643 537 575 581T423 626Q302 626 220 544T137 336Q137 219 217 137T417 55Q522 55 589 121T671 291H411V356H745L744 340Z" />
<glyph unicode="&#x121;" glyph-name="gdotaccent" horiz-adv-x="621" d="M332 574T312 574T278 588T263 622T277 656T312 670T346 656T361 622T347 588ZM463 462H531V-15Q531 -119 468 -181T301 -243Q212 -243 149 -195T73 -71H144Q154 -120 196 -150T301 -180Q374
-180 418 -136T463 -15V64Q394 -2 290 -2Q191 -2 124 68T56 235Q56 338 123 407T290 476Q394 476 463 410V462ZM298 58Q404 58 463 145V329Q404 416 298 416Q223 416 174 364T125 235Q125 163 174 111T298 58Z" />
<glyph unicode="&#x122;" glyph-name="Gcommaaccent" horiz-adv-x="832" d="M744 340H745V0H687L681 145Q644 70 577 28T417 -14Q268 -14 167 88T66 336Q66 488 169 591T422 694Q536 694 626 630T744 456H667Q643 537 575 581T423 626Q302 626 220 544T137 336Q137
219 217 137T417 55Q522 55 589 121T671 291H411V356H745L744 340ZM391 -66T410 -66T442 -78T456 -111Q456 -125 449 -141T402 -237H361L398 -149Q364 -142 364 -109Q364 -91 377 -79Z" />
<glyph unicode="&#x123;" glyph-name="gcommaaccent" horiz-adv-x="621" d="M310 569Q292 569 278 581T264 614Q264 626 269 638T300 703Q311 726 318 740H359L322 652Q356 645 356 612Q356 594 343 582T310 569ZM463 462H531V-15Q531 -119 468 -181T301 -243Q212
-243 149 -195T73 -71H144Q154 -120 196 -150T301 -180Q374 -180 418 -136T463 -15V64Q394 -2 290 -2Q191 -2 124 68T56 235Q56 338 123 407T290 476Q394 476 463 410V462ZM298 58Q404 58 463 145V329Q404 416 298 416Q223 416 174 364T125 235Q125 163 174 111T298
58Z" />
<glyph unicode="&#x126;" glyph-name="Hbar" horiz-adv-x="745" d="M696 502H649V0H578V304H167V0H96V502H45V561H96V680H167V561H578V680H649V561H696V502ZM578 502H167V369H578V502Z" />
<glyph unicode="&#x127;" glyph-name="hbar" horiz-adv-x="578" d="M323 477Q411 477 465 420T520 266V0H451V263Q451 334 413 374T311 414Q215 414 152 328V0H84V584H29V635H84V710H152V635H327V584H152V407Q220 477 323 477Z" />
<glyph unicode="&#x12a;" glyph-name="Imacron" horiz-adv-x="262" d="M269 825V769H-8V825H269ZM167 680V0H96V680H167Z" />
<glyph unicode="&#x12b;" glyph-name="imacron" horiz-adv-x="267" d="M272 628V572H-5V628H272ZM168 462V0H99V462H168Z" />
<glyph unicode="&#x12e;" glyph-name="Iogonek" horiz-adv-x="262" d="M194 -130L201 -183Q182 -190 151 -190Q93 -190 58 -161T23 -85Q23 -23 96 15V680H167V0Q82 -27 82 -78Q82 -104 102 -119T160 -134Q172 -134 194 -130Z" />
<glyph unicode="&#x12f;" glyph-name="iogonek" horiz-adv-x="266" d="M153 591T133 591T100 604T86 637T99 670T133 683T166 670T180 637Q180 617 167 604ZM195 -130L202 -183Q183 -190 152 -190Q94 -190 59 -161T24 -85Q24 -22 99 16V462H168V0Q83 -27 83 -78Q83
-104 103 -119T161 -134Q173 -134 195 -130Z" />
<glyph unicode="&#x130;" glyph-name="Idot" horiz-adv-x="262" d="M131 770Q111 770 96 784T81 819Q81 840 95 854T131 868T166 854T181 819Q181 799 167 785T131 770ZM167 680V0H96V680H167Z" />
<glyph unicode="&#x131;" glyph-name="dotlessi" horiz-adv-x="267" d="M168 462V0H99V462H168Z" />
<glyph unicode="&#x132;" glyph-name="IJ" horiz-adv-x="857" d="M167 680V0H96V680H167ZM771 680V245Q771 123 705 54T525 -15Q426 -15 361 41T283 194H355Q365 127 411 89T529 51Q605 51 652 103T699 246V680H771Z" />
<glyph unicode="&#x133;" glyph-name="ij" horiz-adv-x="523" d="M153 591T133 591T100 604T86 637T99 670T133 683T166 670T180 637Q180 617 167 604ZM410 591T390 591T357 604T343 637Q343 656 356 669T390 683T423 670T437 637T424 604ZM99 462H168V0H99V462ZM425
462V9Q425 -91 387 -136T254 -182L249 -122Q309 -120 332 -93T356 2V462H425Z" />
<glyph unicode="&#x136;" glyph-name="Kcommaaccent" horiz-adv-x="704" d="M680 0H589L300 318L167 178V0H96V680H167V276L557 680H644L350 370L680 0ZM326 -66T345 -66T377 -78T391 -111Q391 -125 384 -141T337 -237H296L333 -149Q299 -142 299 -109Q299 -91 312 -79Z" />
<glyph unicode="&#x137;" glyph-name="kcommaaccent" horiz-adv-x="564" d="M544 0H455L256 221L158 127V0H90V710H158V217L418 462H506L305 268L544 0ZM267 -66T286 -66T318 -78T332 -111Q332 -125 325 -141T278 -237H237L274 -149Q240 -142 240 -109Q240 -91 253 -79Z" />
<glyph unicode="&#x139;" glyph-name="Lacute" horiz-adv-x="578" d="M159 758H95L176 900H252L159 758ZM546 64V0H96V680H167V64H546Z" />
<glyph unicode="&#x13a;" glyph-name="lacute" horiz-adv-x="236" d="M249 942L156 800H92L173 942H249ZM152 710V0H84V710H152Z" />
<glyph unicode="&#x13b;" glyph-name="Lcommaaccent" horiz-adv-x="578" d="M546 64V0H96V680H167V64H546ZM303 -66T322 -66T354 -78T368 -111Q368 -125 361 -141T314 -237H273L310 -149Q276 -142 276 -109Q276 -91 289 -79Z" />
<glyph unicode="&#x13c;" glyph-name="lcommaaccent" horiz-adv-x="236" d="M152 710V0H84V710H152ZM65 -237L102 -149Q68 -142 68 -109Q68 -91 81 -79T114 -66T146 -78T160 -111Q160 -125 153 -141T106 -237H65Z" />
<glyph unicode="&#x13d;" glyph-name="Lcaron" horiz-adv-x="578" d="M546 64V0H96V680H167V64H546ZM377 495H324L334 680H403L377 495Z" />
<glyph unicode="&#x13e;" glyph-name="lcaron" horiz-adv-x="249" d="M152 710V0H84V710H152ZM301 710L275 525H222L232 710H301Z" />
<glyph unicode="&#x13f;" glyph-name="Ldot" horiz-adv-x="578" d="M546 64V0H96V680H167V64H546ZM392 274T372 274T338 288T323 322Q323 341 337 355T372 369T406 355T421 322Q421 302 407 288Z" />
<glyph unicode="&#x140;" glyph-name="ldot" horiz-adv-x="339" d="M152 710V0H84V710H152ZM247 269Q227 269 213 283T198 317T212 351T247 365Q268 365 282 351T296 317T282 283T247 269Z" />
<glyph unicode="&#x141;" glyph-name="Lslash" horiz-adv-x="578" d="M546 64V0H96V248L21 211V274L96 311V680H167V346L327 425V363L167 284V64H546Z" />
<glyph unicode="&#x142;" glyph-name="lslash" horiz-adv-x="236" d="M225 379L152 342V0H84V308L12 272V343L84 379V710H152V413L225 450V379Z" />
<glyph unicode="&#x143;" glyph-name="Nacute" horiz-adv-x="768" d="M411 758H347L428 900H504L411 758ZM672 680V0H611L167 551V0H96V680H154L601 122V680H672Z" />
<glyph unicode="&#x144;" glyph-name="nacute" horiz-adv-x="584" d="M328 552H264L345 694H421L328 552ZM323 477Q411 477 465 420T520 266V0H451V263Q451 334 413 374T311 414Q215 414 152 328V0H84V462H152V407Q220 477 323 477Z" />
<glyph unicode="&#x145;" glyph-name="Ncommaaccent" horiz-adv-x="768" d="M672 680V0H611L167 551V0H96V680H154L601 122V680H672ZM346 -66T365 -66T397 -78T411 -111Q411 -125 404 -141T357 -237H316L353 -149Q319 -142 319 -109Q319 -91 332 -79Z" />
<glyph unicode="&#x146;" glyph-name="ncommaaccent" horiz-adv-x="584" d="M323 477Q411 477 465 420T520 266V0H451V263Q451 334 413 374T311 414Q215 414 152 328V0H84V462H152V407Q220 477 323 477ZM282 -66T301 -66T333 -78T347 -111Q347 -125 340 -141T293
-237H252L289 -149Q255 -142 255 -109Q255 -91 268 -79Z" />
<glyph unicode="&#x147;" glyph-name="Ncaron" horiz-adv-x="768" d="M349 756L226 900H293L384 799L475 900H542L419 756H349ZM672 680V0H611L167 551V0H96V680H154L601 122V680H672Z" />
<glyph unicode="&#x148;" glyph-name="ncaron" horiz-adv-x="584" d="M265 545L142 689H209L300 588L391 689H458L335 545H265ZM323 477Q411 477 465 420T520 266V0H451V263Q451 334 413 374T311 414Q215 414 152 328V0H84V462H152V407Q220 477 323 477Z" />
<glyph unicode="&#x14c;" glyph-name="Omacron" horiz-adv-x="839" d="M558 825V769H281V825H558ZM273 694T420 694T670 591T774 340T671 90T420 -14T170 89T66 340T169 590ZM420 52Q538 52 620 136T702 340T620 543T420 628Q301 628 219 544T137 340T219 137T420 52Z" />
<glyph unicode="&#x14d;" glyph-name="omacron" horiz-adv-x="611" d="M167 628H444V572H167V628ZM202 474T306 474T480 404T551 231Q551 127 481 56T306 -15T131 56T60 231Q60 334 131 404ZM231 47T306 47T431 100T482 231Q482 306 431 358T306 411Q231 411 180
359T129 231Q129 154 180 101Z" />
<glyph unicode="&#x150;" glyph-name="Ohungarumlaut" horiz-adv-x="839" d="M457 900L374 758H314L385 900H457ZM592 900L508 758H449L521 900H592ZM273 694T420 694T670 591T774 340T671 90T420 -14T170 89T66 340T169 590ZM420 52Q538 52 620 136T702 340T620
543T420 628Q301 628 219 544T137 340T219 137T420 52Z" />
<glyph unicode="&#x151;" glyph-name="ohungarumlaut" horiz-adv-x="611" d="M271 695H343L260 553H200L271 695ZM407 695H478L394 553H335L407 695ZM202 474T306 474T480 404T551 231Q551 127 481 56T306 -15T131 56T60 231Q60 334 131 404ZM231 47T306 47T431
100T482 231Q482 306 431 358T306 411Q231 411 180 359T129 231Q129 154 180 101Z" />
<glyph unicode="&#x152;" glyph-name="OE" horiz-adv-x="1025" d="M559 615V371H921V305H559V65H961V0H432Q267 0 160 96T53 340T160 583T432 680H961V615H559ZM489 67V613L432 614Q295 614 210 537T124 340T209 143T432 66L489 67Z" />
<glyph unicode="&#x153;" glyph-name="oe" horiz-adv-x="1008" d="M948 233Q948 218 947 211L943 212V211H550V209Q557 139 604 93T725 46Q825 46 859 117H932Q912 57 856 22T723 -14Q655 -14 601 17T516 101Q483 48 428 17T306 -15Q202 -15 131 56T60 231Q60
334 131 404T306 474Q373 474 428 444T515 360Q546 414 600 445T722 476Q821 476 884 408T948 233ZM722 417Q650 417 604 372T550 257H878Q872 329 830 373T722 417ZM231 47T306 47T431 100T482 231Q482 306 431 358T306 411Q231 411 180 359T129 231Q129 154 180
101Z" />
<glyph unicode="&#x154;" glyph-name="Racute" horiz-adv-x="674" d="M342 758H278L359 900H435L342 758ZM344 247H167V0H96V680H349Q464 680 536 621T608 463Q608 382 559 328T426 255L637 0H548L344 247ZM167 312H347Q432 312 484 353T537 463Q537 533 485 574T347
615H167V312Z" />
<glyph unicode="&#x155;" glyph-name="racute" horiz-adv-x="359" d="M226 552H162L243 694H319L226 552ZM152 462V382Q220 474 333 474V409Q216 406 152 302V0H84V462H152Z" />
<glyph unicode="&#x156;" glyph-name="Rcommaaccent" horiz-adv-x="674" d="M637 0H548L344 247H167V0H96V680H349Q464 680 536 621T608 463Q608 382 559 328T426 255L637 0ZM167 312H347Q432 312 484 353T537 463Q537 533 485 574T347 615H167V312ZM306 -66T325
-66T357 -78T371 -111Q371 -125 364 -141T317 -237H276L313 -149Q279 -142 279 -109Q279 -91 292 -79Z" />
<glyph unicode="&#x157;" glyph-name="rcommaaccent" horiz-adv-x="359" d="M152 462V382Q220 474 333 474V409Q216 406 152 302V0H84V462H152ZM97 -66T116 -66T148 -78T162 -111Q162 -125 155 -141T108 -237H67L104 -149Q70 -142 70 -109Q70 -91 83 -79Z" />
<glyph unicode="&#x158;" glyph-name="Rcaron" horiz-adv-x="674" d="M279 756L156 900H223L314 799L405 900H472L349 756H279ZM344 247H167V0H96V680H349Q464 680 536 621T608 463Q608 382 559 328T426 255L637 0H548L344 247ZM167 312H347Q432 312 484 353T537
463Q537 533 485 574T347 615H167V312Z" />
<glyph unicode="&#x159;" glyph-name="rcaron" horiz-adv-x="359" d="M163 545L40 689H107L198 588L289 689H356L233 545H163ZM152 462V382Q220 474 333 474V409Q216 406 152 302V0H84V462H152Z" />
<glyph unicode="&#x15a;" glyph-name="Sacute" horiz-adv-x="660" d="M375 900H451L358 758H294L375 900ZM330 695Q437 695 510 644T595 496H525Q513 561 466 597T334 633Q256 633 210 598T163 504Q163 413 303 388L406 368Q595 332 595 191Q595 98 526 42T342
-15Q220 -15 146 46T59 217H129Q142 137 197 93T345 49Q426 49 474 85T522 183Q522 276 394 299L276 322Q183 339 136 384T88 500Q88 588 154 641T330 695Z" />
<glyph unicode="&#x15b;" glyph-name="sacute" horiz-adv-x="527" d="M384 694L291 552H227L308 694H384ZM53 143H117Q139 42 269 42Q326 42 361 64T396 124Q396 154 375 173T316 197L210 215Q73 237 73 339Q73 401 124 438T259 476Q338 476 395 440T459 329H395Q389
374 354 397T259 421Q205 421 173 400T141 344Q141 286 232 272L324 256Q462 233 462 128Q462 62 408 24T268 -15Q176 -15 120 25T53 143Z" />
<glyph unicode="&#x15e;" glyph-name="Scedilla" horiz-adv-x="660" d="M330 695Q437 695 510 644T595 496H525Q513 561 466 597T334 633Q256 633 210 598T163 504Q163 413 303 388L406 368Q595 332 595 191Q595 98 526 42T342 -15Q220 -15 146 46T59 217H129Q142
137 197 93T345 49Q426 49 474 85T522 183Q522 276 394 299L276 322Q183 339 136 384T88 500Q88 588 154 641T330 695ZM382 -71L328 -215H268L314 -71H382Z" />
<glyph unicode="&#x15f;" glyph-name="scedilla" horiz-adv-x="527" d="M53 143H117Q139 42 269 42Q326 42 361 64T396 124Q396 154 375 173T316 197L210 215Q73 237 73 339Q73 401 124 438T259 476Q338 476 395 440T459 329H395Q389 374 354 397T259 421Q205
421 173 400T141 344Q141 286 232 272L324 256Q462 233 462 128Q462 62 408 24T268 -15Q176 -15 120 25T53 143ZM250 -215H190L236 -71H304L250 -215Z" />
<glyph unicode="&#x160;" glyph-name="Scaron" horiz-adv-x="660" d="M421 900H488L365 756H295L172 900H239L330 799L421 900ZM330 695Q437 695 510 644T595 496H525Q513 561 466 597T334 633Q256 633 210 598T163 504Q163 413 303 388L406 368Q595 332 595 191Q595
98 526 42T342 -15Q220 -15 146 46T59 217H129Q142 137 197 93T345 49Q426 49 474 85T522 183Q522 276 394 299L276 322Q183 339 136 384T88 500Q88 588 154 641T330 695Z" />
<glyph unicode="&#x161;" glyph-name="scaron" horiz-adv-x="527" d="M422 689L299 545H229L106 689H173L264 588L355 689H422ZM53 143H117Q139 42 269 42Q326 42 361 64T396 124Q396 154 375 173T316 197L210 215Q73 237 73 339Q73 401 124 438T259 476Q338 476
395 440T459 329H395Q389 374 354 397T259 421Q205 421 173 400T141 344Q141 286 232 272L324 256Q462 233 462 128Q462 62 408 24T268 -15Q176 -15 120 25T53 143Z" />
<glyph unicode="&#x162;" glyph-name="Tcedilla" horiz-adv-x="635" d="M606 615H353V0H282V615H29V680H606V615ZM284 -71H352L298 -215H238L284 -71Z" />
<glyph unicode="&#x163;" glyph-name="tcedilla" horiz-adv-x="430" d="M375 60L386 1Q330 -15 286 -15Q126 -15 126 166V403H3V462H126V633H194V462H369V403H194V166Q194 104 219 76T298 48Q332 48 375 60ZM183 -215L229 -71H297L243 -215H183Z" />
<glyph unicode="&#x164;" glyph-name="Tcaron" horiz-adv-x="635" d="M282 756L159 900H226L317 799L408 900H475L352 756H282ZM606 615H353V0H282V615H29V680H606V615Z" />
<glyph unicode="&#x165;" glyph-name="tcaron" horiz-adv-x="430" d="M339 712L313 527H260L270 712H339ZM375 60L386 1Q330 -15 286 -15Q126 -15 126 166V403H3V462H126V633H194V462H369V403H194V166Q194 104 219 76T298 48Q332 48 375 60Z" />
<glyph unicode="&#x16a;" glyph-name="Umacron" horiz-adv-x="750" d="M513 825V769H236V825H513ZM664 680V289Q664 154 585 70T375 -15T166 69T86 289V680H157V289Q157 186 217 119T375 51T533 118T594 289V680H664Z" />
<glyph unicode="&#x16b;" glyph-name="umacron" horiz-adv-x="584" d="M424 572H147V628H424V572ZM499 462V0H431V54Q362 -15 261 -15Q173 -15 119 42T64 195V462H132V199Q132 127 170 87T273 47Q317 47 359 69T431 133V462H499Z" />
<glyph unicode="&#x16e;" glyph-name="Uring" horiz-adv-x="750" d="M332 961T376 961T447 935T475 866T447 797T376 770Q332 770 304 797T276 866T304 934ZM351 808T376 808T417 824T433 866Q433 890 417 906T376 923T335 907T318 866Q318 841 334 825ZM664 680V289Q664
154 585 70T375 -15T166 69T86 289V680H157V289Q157 186 217 119T375 51T533 118T594 289V680H664Z" />
<glyph unicode="&#x16f;" glyph-name="uring" horiz-adv-x="584" d="M287 545Q243 545 215 572T187 641T215 709T287 736T358 710T386 641T358 572T287 545ZM312 698T287 698T246 682T229 641Q229 616 245 600T287 583T328 599T344 641Q344 665 328 681ZM499 462V0H431V54Q362
-15 261 -15Q173 -15 119 42T64 195V462H132V199Q132 127 170 87T273 47Q317 47 359 69T431 133V462H499Z" />
<glyph unicode="&#x170;" glyph-name="Uhungarumlaut" horiz-adv-x="750" d="M412 900L329 758H269L340 900H412ZM547 900L463 758H404L476 900H547ZM664 680V289Q664 154 585 70T375 -15T166 69T86 289V680H157V289Q157 186 217 119T375 51T533 118T594 289V680H664Z" />
<glyph unicode="&#x171;" glyph-name="uhungarumlaut" horiz-adv-x="584" d="M240 553H180L251 695H323L240 553ZM315 553L387 695H458L374 553H315ZM499 462V0H431V54Q362 -15 261 -15Q173 -15 119 42T64 195V462H132V199Q132 127 170 87T273 47Q317 47 359 69T431
133V462H499Z" />
<glyph unicode="&#x172;" glyph-name="Uogonek" horiz-adv-x="750" d="M664 680V289Q664 186 617 111T486 4Q410 -45 410 -91Q410 -118 430 -134T486 -150Q504 -150 520 -146L527 -205Q505 -211 477 -211Q419 -211 385 -182T350 -106T397 -14L375 -15Q245 -15
166 69T86 289V680H157V289Q157 186 217 119T375 51T533 118T594 289V680H664Z" />
<glyph unicode="&#x173;" glyph-name="uogonek" horiz-adv-x="584" d="M527 -130L534 -183Q515 -190 484 -190Q426 -190 391 -161T356 -85Q356 -22 431 16V54Q362 -15 261 -15Q173 -15 119 42T64 195V462H132V199Q132 127 170 87T273 47Q317 47 359 69T431 133V462H499V3L500
0Q415 -27 415 -78Q415 -104 435 -119T493 -134Q505 -134 527 -130Z" />
<glyph unicode="&#x174;" glyph-name="Wcircumflex" horiz-adv-x="1066" d="M442 760H375L498 904H568L691 760H624L533 860L442 760ZM1024 680L792 -5H722L533 556L343 -5H274L41 680H116L309 102L502 680H564L757 103L950 680H1024Z" />
<glyph unicode="&#x175;" glyph-name="wcircumflex" horiz-adv-x="779" d="M299 545H232L355 689H425L548 545H481L390 645L299 545ZM744 462L570 0H508L390 352L271 0H209L35 462H109L239 107L360 462H420L540 108L670 462H744Z" />
<glyph unicode="&#x176;" glyph-name="Ycircumflex" horiz-adv-x="664" d="M241 760H174L297 904H367L490 760H423L332 860L241 760ZM649 680L368 243V0H297V243L15 680H94L332 309L570 680H649Z" />
<glyph unicode="&#x177;" glyph-name="ycircumflex" horiz-adv-x="592" d="M202 545H135L258 689H328L451 545H384L293 645L202 545ZM553 462L229 -248H156L258 -24L22 462H96L294 55L480 462H553Z" />
<glyph unicode="&#x178;" glyph-name="Ydieresis" horiz-adv-x="664" d="M239 769Q218 769 204 783T190 817T204 851T239 865Q259 865 273 851T288 817T274 783T239 769ZM426 769Q405 769 391 783T377 817T391 851T426 865Q446 865 460 851T475 817T461 783T426
769ZM649 680L368 243V0H297V243L15 680H94L332 309L570 680H649Z" />
<glyph unicode="&#x179;" glyph-name="Zacute" horiz-adv-x="654" d="M355 758H291L372 900H448L355 758ZM590 65V0H60V37L486 615H73V680H588V643L170 65H590Z" />
<glyph unicode="&#x17a;" glyph-name="zacute" horiz-adv-x="493" d="M367 694L274 552H210L291 694H367ZM445 462V422L149 58H445V0H48V35L347 403H59V462H445Z" />
<glyph unicode="&#x17b;" glyph-name="Zdotaccent" horiz-adv-x="654" d="M348 769T328 769T294 783T279 817T293 851T328 865T362 851T377 817T363 783ZM590 65V0H60V37L486 615H73V680H588V643L170 65H590Z" />
<glyph unicode="&#x17c;" glyph-name="zdotaccent" horiz-adv-x="493" d="M267 574T247 574T213 588T198 622T212 656T247 670T281 656T296 622T282 588ZM445 462V422L149 58H445V0H48V35L347 403H59V462H445Z" />
<glyph unicode="&#x17d;" glyph-name="Zcaron" horiz-adv-x="654" d="M292 756L169 900H236L327 799L418 900H485L362 756H292ZM590 65V0H60V37L486 615H73V680H588V643L170 65H590Z" />
<glyph unicode="&#x17e;" glyph-name="zcaron" horiz-adv-x="493" d="M281 545H211L88 689H155L246 588L337 689H404L281 545ZM445 462V422L149 58H445V0H48V35L347 403H59V462H445Z" />
<glyph unicode="&#x192;" glyph-name="florin" horiz-adv-x="493" d="M386 622Q294 622 279 511L259 367H429V309H251L223 88Q213 7 171 -39T57 -86Q9 -86 -39 -72L-28 -13Q14 -23 45 -23Q138 -23 153 88L181 309H52V367H189L209 511Q220 592 261 638T375 685Q422
685 470 671L460 612Q418 622 386 622Z" />
<glyph unicode="&#x1cd;" glyph-name="Acaron" horiz-adv-x="746" d="M338 756L215 900H282L373 799L464 900H531L408 756H338ZM551 198H195L107 0H31L339 685H407L715 0H639L551 198ZM522 263L373 599L224 263H522Z" />
<glyph unicode="&#x1ce;" glyph-name="acaron" horiz-adv-x="619" d="M353 545H283L160 689H227L318 588L409 689H476L353 545ZM466 462H535V0H466V51Q399 -13 299 -13Q200 -13 130 58T60 231Q60 332 130 403T299 474Q399 474 466 410V462ZM308 47Q407 47 466
131V330Q407 414 308 414Q232 414 181 360T129 231Q129 155 180 101T308 47Z" />
<glyph unicode="&#x218;" glyph-name="Scommaaccent" horiz-adv-x="660" d="M330 695Q437 695 510 644T595 496H525Q513 561 466 597T334 633Q256 633 210 598T163 504Q163 413 303 388L406 368Q595 332 595 191Q595 98 526 42T342 -15Q220 -15 146 46T59 217H129Q142
137 197 93T345 49Q426 49 474 85T522 183Q522 276 394 299L276 322Q183 339 136 384T88 500Q88 588 154 641T330 695ZM289 -237L326 -149Q292 -142 292 -109Q292 -91 305 -79T338 -66Q356 -66 370 -78T384 -111Q384 -123 379 -135T348 -200Q337 -223 330 -237H289Z"
/>
<glyph unicode="&#x219;" glyph-name="scommaaccent" horiz-adv-x="527" d="M53 143H117Q139 42 269 42Q326 42 361 64T396 124Q396 154 375 173T316 197L210 215Q73 237 73 339Q73 401 124 438T259 476Q338 476 395 440T459 329H395Q389 374 354 397T259 421Q205
421 173 400T141 344Q141 286 232 272L324 256Q462 233 462 128Q462 62 408 24T268 -15Q176 -15 120 25T53 143ZM197 -237L234 -149Q200 -142 200 -109Q200 -91 213 -79T246 -66T278 -78T292 -111Q292 -125 285 -141T238 -237H197Z" />
<glyph unicode="&#x21a;" glyph-name="uni021A" horiz-adv-x="635" d="M606 615H353V0H282V615H29V680H606V615ZM287 -66T306 -66T338 -78T352 -111Q352 -125 345 -141T298 -237H257L294 -149Q260 -142 260 -109Q260 -91 273 -79Z" />
<glyph unicode="&#x21b;" glyph-name="uni021B" horiz-adv-x="430" d="M375 60L386 1Q330 -15 286 -15Q126 -15 126 166V403H3V462H126V633H194V462H369V403H194V166Q194 104 219 76T298 48Q332 48 375 60ZM220 -66T239 -66T271 -78T285 -111Q285 -125 278 -141T231
-237H190L227 -149Q193 -142 193 -109Q193 -91 206 -79Z" />
<glyph unicode="&#x2c6;" glyph-name="circumflex" horiz-adv-x="600" d="M300 662L209 562H142L265 706H335L458 562H391L300 662Z" />
<glyph unicode="&#x2c7;" glyph-name="caron" horiz-adv-x="600" d="M458 706L335 562H265L142 706H209L300 605L391 706H458Z" />
<glyph unicode="&#x2d8;" glyph-name="breve" horiz-adv-x="600" d="M390 689H442Q442 622 402 586T300 550T199 586T158 689H210Q210 644 236 621T300 598T363 621T390 689Z" />
<glyph unicode="&#x2d9;" glyph-name="dotaccent" horiz-adv-x="600" d="M320 563T300 563T266 577T251 611T265 645T300 659T334 645T349 611T335 577Z" />
<glyph unicode="&#x2da;" glyph-name="ring" horiz-adv-x="600" d="M255 747T299 747T370 721T398 652T370 583T299 556Q255 556 227 583T199 652T227 720ZM274 594T299 594T340 610T356 652Q356 676 340 692T299 709T258 693T241 652Q241 627 257 611Z" />
<glyph unicode="&#x2db;" glyph-name="ogonek" horiz-adv-x="600" d="M354 34L365 -2Q280 -29 280 -80Q280 -106 300 -121T358 -136Q370 -136 392 -132L399 -185Q380 -192 349 -192Q291 -192 256 -163T221 -87Q221 -42 259 -11T354 34Z" />
<glyph unicode="&#x2dc;" glyph-name="tilde" horiz-adv-x="600" d="M396 683H452Q452 637 428 610T371 583T308 601L266 629Q238 648 216 638T194 599H138Q138 645 163 671T221 697T282 680L324 653Q355 633 375 643T396 683Z" />
<glyph unicode="&#x2dd;" glyph-name="hungarumlaut" horiz-adv-x="600" d="M342 706L259 564H199L270 706H342ZM477 706L393 564H334L406 706H477Z" />
<glyph unicode="&#x326;" glyph-name="uni0326" horiz-adv-x="0" d="M240 -237L277 -149Q243 -142 243 -109Q243 -91 256 -79T289 -66T321 -78T335 -111Q335 -125 328 -141T281 -237H240Z" />
<glyph unicode="&#x1e80;" glyph-name="Wgrave" horiz-adv-x="1066" d="M511 758L418 900H494L575 758H511ZM1024 680L792 -5H722L533 556L343 -5H274L41 680H116L309 102L502 680H564L757 103L950 680H1024Z" />
<glyph unicode="&#x1e81;" glyph-name="wgrave" horiz-adv-x="779" d="M368 553L275 695H351L432 553H368ZM744 462L570 0H508L390 352L271 0H209L35 462H109L239 107L360 462H420L540 108L670 462H744Z" />
<glyph unicode="&#x1e82;" glyph-name="Wacute" horiz-adv-x="1066" d="M560 758H496L577 900H653L560 758ZM1024 680L792 -5H722L533 556L343 -5H274L41 680H116L309 102L502 680H564L757 103L950 680H1024Z" />
<glyph unicode="&#x1e83;" glyph-name="wacute" horiz-adv-x="779" d="M417 552H353L434 694H510L417 552ZM744 462L570 0H508L390 352L271 0H209L35 462H109L239 107L360 462H420L540 108L670 462H744Z" />
<glyph unicode="&#x1e84;" glyph-name="Wdieresis" horiz-adv-x="1066" d="M440 769Q419 769 405 783T391 817T405 851T440 865Q460 865 474 851T489 817T475 783T440 769ZM627 769Q606 769 592 783T578 817T592 851T627 865Q647 865 661 851T676 817T662 783T627
769ZM1024 680L792 -5H722L533 556L343 -5H274L41 680H116L309 102L502 680H564L757 103L950 680H1024Z" />
<glyph unicode="&#x1e85;" glyph-name="wdieresis" horiz-adv-x="779" d="M297 574Q276 574 262 588T248 622T262 656T297 670Q317 670 331 656T346 622T332 588T297 574ZM484 574Q463 574 449 588T435 622T449 656T484 670Q504 670 518 656T533 622T519 588T484
574ZM744 462L570 0H508L390 352L271 0H209L35 462H109L239 107L360 462H420L540 108L670 462H744Z" />
<glyph unicode="&#x1ef2;" glyph-name="Ygrave" horiz-adv-x="664" d="M310 758L217 900H293L374 758H310ZM649 680L368 243V0H297V243L15 680H94L332 309L570 680H649Z" />
<glyph unicode="&#x1ef3;" glyph-name="ygrave" horiz-adv-x="592" d="M271 553L178 695H254L335 553H271ZM553 462L229 -248H156L258 -24L22 462H96L294 55L480 462H553Z" />
<glyph unicode="&#x2013;" glyph-name="endash" horiz-adv-x="731" d="M614 238V306H117V238H614Z" />
<glyph unicode="&#x2014;" glyph-name="emdash" horiz-adv-x="948" d="M859 238V306H89V238H859Z" />
<glyph unicode="&#x2018;" glyph-name="quoteleft" horiz-adv-x="184" d="M142 680L93 547Q124 538 124 508Q124 489 111 476T77 463T44 476T30 508Q30 525 45 554L99 680H142Z" />
<glyph unicode="&#x2019;" glyph-name="quoteright" horiz-adv-x="195" d="M41 469L91 601Q60 612 60 640Q60 659 73 672T107 686T140 673T154 640Q154 626 139 594L85 469H41Z" />
<glyph unicode="&#x201a;" glyph-name="quotesinglbase" horiz-adv-x="195" d="M41 -138L91 -5Q60 4 60 33Q60 52 73 65T107 79T140 66T154 33Q154 19 139 -12L85 -138H41Z" />
<glyph unicode="&#x201c;" glyph-name="quotedblleft" horiz-adv-x="357" d="M154 680L105 547Q135 538 135 508Q135 489 122 476T88 463T55 476T41 508Q41 523 56 554L110 680H154ZM315 680L266 547Q296 538 296 508Q296 489 283 476T250 463Q230 463 217 476T203
508Q203 525 217 554L271 680H315Z" />
<glyph unicode="&#x201d;" glyph-name="quotedblright" horiz-adv-x="357" d="M41 469L91 601Q60 612 60 640Q60 659 73 672T107 686T140 673T154 640Q154 626 139 594L85 469H41ZM203 469L253 601Q222 612 222 640Q222 659 235 672T269 686T302 673T316 640Q316
626 301 594L247 469H203Z" />
<glyph unicode="&#x201e;" glyph-name="quotedblbase" horiz-adv-x="358" d="M41 -138L91 -5Q60 4 60 33Q60 52 73 65T107 79T140 66T154 33Q154 19 139 -12L85 -138H41ZM205 -138L254 -5Q223 4 223 33Q223 52 236 65T270 79T303 66T317 33Q317 17 302 -12L248 -138H205Z" />
<glyph unicode="&#x2020;" glyph-name="dagger" horiz-adv-x="406" d="M227 551V331H178V551H54V600H178V724H227V600H352V551H227Z" />
<glyph unicode="&#x2021;" glyph-name="daggerdbl" horiz-adv-x="406" d="M227 492H352V443H227V331H178V443H54V492H178V572H54V620H178V724H227V620H352V572H227V492Z" />
<glyph unicode="&#x2022;" glyph-name="bullet" horiz-adv-x="318" d="M158 183Q112 183 78 217T44 297T78 377T158 411Q205 411 239 377T274 297T240 217T158 183Z" />
<glyph unicode="&#x2026;" glyph-name="ellipsis" horiz-adv-x="573" d="M88 -13Q69 -13 55 0T41 33T55 65T88 79Q108 79 122 66T136 33T122 1T88 -13ZM304 -13T284 -13T251 0T237 33T250 65T284 79T318 66T332 33T318 1ZM505 -13T485 -13T452 0T438 33T451 65T485
79T518 66T532 33T519 1Z" />
<glyph unicode="&#x2030;" glyph-name="perthousand" horiz-adv-x="1533" d="M279 695Q358 695 412 642T466 506T413 371T279 317Q198 317 145 370T91 506Q91 588 144 641T279 695ZM338 0H285L738 680H791L338 0ZM279 369Q334 369 373 408T412 506T374 604T279
643Q222 643 184 604T145 506T183 408T279 369ZM726 363T806 363T940 310T994 175Q994 92 940 39T806 -15T672 38T618 175Q618 257 672 310ZM1174 363T1254 363T1388 310T1442 175Q1442 92 1388 39T1254 -15T1121 38T1067 175Q1067 257 1120 310ZM750 37T806 37T901
76T940 175T901 272T806 311T711 273T672 175T711 77ZM1254 37Q1311 37 1349 76T1388 175Q1388 234 1350 272T1254 311Q1198 311 1160 273T1121 175T1159 77T1254 37Z" />
<glyph unicode="&#x2039;" glyph-name="guilsinglleft" horiz-adv-x="267" d="M222 400L113 252L222 104H154L45 252L154 400H222Z" />
<glyph unicode="&#x203a;" glyph-name="guilsinglright" horiz-adv-x="267" d="M222 252L113 104H45L154 252L45 400H113L222 252Z" />
<glyph unicode="&#x2044;" glyph-name="fraction" horiz-adv-x="446" d="M23 0H-30L423 680H476L23 0Z" />
<glyph unicode="&#x2070;" glyph-name="zerosuperior" horiz-adv-x="435" d="M217 695Q299 695 346 639T393 496T346 354T217 298Q136 298 89 354T41 496Q41 583 88 639T217 695ZM160 348T217 348T306 390T338 496Q338 561 306 603T217 646Q161 646 129 604T97
496Q97 432 128 390Z" />
<glyph unicode="&#x2074;" glyph-name="foursuperior" horiz-adv-x="401" d="M370 388H310V308H257V388H45V423L164 689H220L109 436H257V553H310V436H370V388Z" />
<glyph unicode="&#x2075;" glyph-name="fivesuperior" horiz-adv-x="378" d="M118 547H189Q254 547 290 514T327 427Q327 372 288 336T184 300Q122 300 83 329T35 411H89Q105 347 184 347Q225 347 250 369T276 426T253 480T188 500L118 499H68V689H308V640H118V547Z" />
<glyph unicode="&#x2076;" glyph-name="sixsuperior" horiz-adv-x="372" d="M186 565Q251 565 292 528T333 434Q333 376 292 338T185 300T78 338T36 433Q36 475 70 524L188 689H252L164 564Q171 565 186 565ZM185 344Q226 344 252 368T279 431T253 493T185 517Q139
517 114 492L112 490Q89 462 89 432Q89 394 116 369T185 344Z" />
<glyph unicode="&#x2077;" glyph-name="sevensuperior" horiz-adv-x="313" d="M296 689V655L119 308H57L224 637H20V689H296Z" />
<glyph unicode="&#x2078;" glyph-name="eightsuperior" horiz-adv-x="393" d="M277 507Q347 478 347 412Q347 361 306 330T196 298Q128 298 87 329T46 412Q46 478 116 507Q62 535 62 590Q62 636 100 665T196 695Q255 695 293 666T331 590Q331 532 277 507ZM196
652Q162 652 139 634T116 587Q116 557 138 540T196 522Q232 522 254 539T277 587Q277 615 254 633T196 652ZM196 344Q237 344 262 363T287 415Q287 446 262 465T196 484Q156 484 131 465T106 415Q106 383 131 364T196 344Z" />
<glyph unicode="&#x2079;" glyph-name="ninesuperior" horiz-adv-x="372" d="M122 700T187 700T294 662T336 567Q336 525 302 476L184 311H120L208 436Q201 435 186 435Q121 435 80 472T39 566Q39 624 80 662ZM258 508L260 510Q283 538 283 568Q283 606 256 631T187
656Q146 656 120 632T93 569T119 507T187 483Q233 483 258 508Z" />
<glyph unicode="&#x2080;" glyph-name="zeroinferior" horiz-adv-x="435" d="M223 209Q305 209 352 153T399 10T352 -132T223 -188Q142 -188 95 -132T47 10Q47 97 94 153T223 209ZM166 -138T223 -138T312 -96T344 10Q344 75 312 117T223 160Q167 160 135 118T103
10Q103 -54 134 -96Z" />
<glyph unicode="&#x2081;" glyph-name="oneinferior" horiz-adv-x="310" d="M297 -134V-180H30V-134H141V138L36 109V156L164 195H193V-134H297Z" />
<glyph unicode="&#x2082;" glyph-name="twoinferior" horiz-adv-x="359" d="M318 -134V-180H49V-151L184 -16Q225 24 241 46T257 93Q257 123 236 142T180 161Q144 161 123 143T100 92H46Q49 146 83 177T178 209Q240 209 275 177T311 97Q311 64 293 34T229 -41L138
-134H318Z" />
<glyph unicode="&#x2083;" glyph-name="threeinferior" horiz-adv-x="371" d="M265 12Q325 -13 325 -76Q325 -125 287 -156T186 -188Q126 -188 88 -160T43 -82H97Q102 -108 126 -124T187 -140Q226 -140 249 -123T273 -76Q273 -46 250 -29T186 -12H153V32H186Q219
32 239 50T260 96Q260 125 240 142T183 160Q151 160 131 145T107 103H54Q59 151 93 179T183 208Q242 208 277 177T312 97Q312 40 265 12Z" />
<glyph unicode="&#x2084;" glyph-name="fourinferior" horiz-adv-x="401" d="M370 -100H310V-180H257V-100H45V-65L164 201H220L109 -52H257V65H310V-52H370V-100Z" />
<glyph unicode="&#x2085;" glyph-name="fiveinferior" horiz-adv-x="378" d="M118 59H189Q254 59 290 26T327 -61Q327 -116 288 -152T184 -188Q122 -188 83 -159T35 -77H89Q105 -141 184 -141Q225 -141 250 -119T276 -62T253 -8T188 12L118 11H68V201H308V152H118V59Z" />
<glyph unicode="&#x2086;" glyph-name="sixinferior" horiz-adv-x="372" d="M186 77Q251 77 292 40T333 -54Q333 -112 292 -150T185 -188T78 -150T36 -55Q36 -13 70 36L188 201H252L164 76Q171 77 186 77ZM185 -144Q226 -144 252 -120T279 -57T253 5T185 29Q139
29 114 4L112 2Q89 -26 89 -56Q89 -94 116 -119T185 -144Z" />
<glyph unicode="&#x2087;" glyph-name="seveninferior" horiz-adv-x="313" d="M296 201V167L119 -180H57L224 149H20V201H296Z" />
<glyph unicode="&#x2088;" glyph-name="eightinferior" horiz-adv-x="393" d="M277 21Q347 -8 347 -74Q347 -125 306 -156T196 -188Q128 -188 87 -157T46 -74Q46 -8 116 21Q62 49 62 104Q62 150 100 179T196 209Q255 209 293 180T331 104Q331 46 277 21ZM196 166Q162
166 139 148T116 101Q116 71 138 54T196 36Q232 36 254 53T277 101Q277 129 254 147T196 166ZM196 -142Q237 -142 262 -123T287 -71Q287 -40 262 -21T196 -2Q156 -2 131 -21T106 -71Q106 -103 131 -122T196 -142Z" />
<glyph unicode="&#x2089;" glyph-name="nineinferior" horiz-adv-x="372" d="M122 210T187 210T294 172T336 77Q336 35 302 -14L184 -179H120L208 -54Q201 -55 186 -55Q121 -55 80 -18T39 76Q39 134 80 172ZM258 18L260 20Q283 48 283 78Q283 116 256 141T187
166Q146 166 120 142T93 79T119 17T187 -7Q233 -7 258 18Z" />
<glyph unicode="&#x20ac;" glyph-name="Euro" horiz-adv-x="884" d="M495 54Q590 54 656 104T745 239H819Q794 125 707 56T495 -14Q377 -14 285 53T159 230H43V281H147Q142 313 142 340Q142 354 144 380H43V431H153Q183 547 277 620T495 694Q619 694 706 625T819
441H745Q723 526 657 576T495 626T328 573T228 431H559L546 380H217Q214 360 214 340Q214 310 220 281H522L509 230H234Q265 150 335 102T495 54Z" />
<glyph unicode="&#x2116;" glyph-name="uni2116" horiz-adv-x="1396" d="M601 122V680H672V0H611L167 551V0H96V680H154L601 122ZM1056 149Q952 149 881 220T810 395Q810 498 881 568T1056 638Q1159 638 1230 568T1301 395Q1301 291 1230 220T1056 149ZM1056 576Q980
576 929 524T878 395T929 266T1056 212Q1131 212 1181 265T1232 395Q1232 470 1182 523T1056 576ZM822 0V61H1288V0H822Z" />
<glyph unicode="&#x2117;" glyph-name="uni2117" horiz-adv-x="859" d="M280 695T430 695T687 593T794 340T687 87T430 -15T173 87T66 340T173 593ZM557 647T429 647T209 558T116 340T208 122T429 33T650 122T743 340T650 558ZM317 525H450Q514 525 553 492T592
406T553 322T449 290H361V165H317V525ZM361 483V330H450Q494 330 520 351T546 406Q546 441 520 462T450 483H361Z" />
<glyph unicode="&#x2122;" glyph-name="trademark" horiz-adv-x="683" d="M281 679V639H173V387H132V639H24V679H281ZM632 679V387H590V592L489 426H466L364 593L365 387H323V679H357L478 485L598 679H632Z" />
<glyph unicode="&#x215b;" glyph-name="oneeighth" horiz-adv-x="898" d="M691 680L238 0H185L638 680H691ZM30 301V347H141V619L36 590V637L164 676H193V347H297V301H30ZM782 201Q852 172 852 106Q852 55 811 24T701 -8Q633 -8 592 23T551 106Q551 173 622 201Q568
228 568 284Q568 330 605 359T701 389Q760 389 798 360T836 284Q836 226 782 201ZM701 346Q667 346 644 328T621 281Q621 251 643 234T701 216Q737 216 759 233T782 281Q782 309 759 327T701 346ZM701 38Q742 38 767 57T793 109Q793 140 768 159T701 178Q661 178
636 159T611 109Q611 77 636 58T701 38Z" />
<glyph unicode="&#x215c;" glyph-name="threeeighths" horiz-adv-x="888" d="M326 409Q326 360 288 329T187 297Q127 297 89 325T44 403H98Q103 377 127 361T188 345Q227 345 250 362T274 409Q274 439 251 456T187 473H154V517H187Q220 517 240 535T261 581Q261
610 241 627T184 645Q152 645 132 630T108 588H55Q60 636 94 664T184 693Q243 693 278 662T313 582Q313 525 266 497Q326 472 326 409ZM681 680L228 0H175L628 680H681ZM772 201Q842 172 842 106Q842 55 801 24T691 -8Q623 -8 582 23T541 106Q541 173 612 201Q558
228 558 284Q558 330 595 359T691 389Q750 389 788 360T826 284Q826 226 772 201ZM691 346Q657 346 634 328T611 281Q611 251 633 234T691 216Q727 216 749 233T772 281Q772 309 749 327T691 346ZM691 38Q732 38 757 57T783 109Q783 140 758 159T691 178Q651 178
626 159T601 109Q601 77 626 58T691 38Z" />
<glyph unicode="&#x215d;" glyph-name="fiveeighths" horiz-adv-x="890" d="M327 420Q327 365 288 329T184 293Q122 293 83 322T35 404H89Q105 340 184 340Q225 340 250 362T276 419T253 473T188 493L118 492H68V682H308V633H118V540H189Q254 540 290 507T327
420ZM683 680L230 0H177L630 680H683ZM775 201Q845 172 845 106Q845 55 804 24T694 -8Q626 -8 585 23T543 106Q543 173 614 201Q560 228 560 284Q560 330 597 359T694 389T791 360T829 284Q829 226 775 201ZM694 346Q659 346 636 328T613 281Q613 251 636 234T694
216T751 233T774 281Q774 309 751 327T694 346ZM653 38T694 38T760 57T785 109Q785 140 760 159T694 178T628 159T603 109Q603 77 628 58Z" />
<glyph unicode="&#x215e;" glyph-name="seveneighths" horiz-adv-x="802" d="M66 301L233 630H29V682H305V648L128 301H66ZM595 680L142 0H89L542 680H595ZM687 201Q757 172 757 106Q757 55 716 24T606 -8Q538 -8 497 23T455 106Q455 173 526 201Q472 228 472
284Q472 330 510 359T606 389Q665 389 703 360T741 284Q741 226 687 201ZM641 346T606 346T548 328T525 281Q525 251 548 234T606 216T664 233T687 281Q687 309 664 327ZM565 38T606 38T672 57T697 109Q697 140 672 159T606 178T540 159T515 109Q515 77 540 58Z"
/>
<glyph unicode="&#x2190;" glyph-name="arrowleft" horiz-adv-x="766" d="M155 309L426 41L380 -5L34 342L380 688L426 643L155 374H726V309H155Z" />
<glyph unicode="&#x2191;" glyph-name="arrowup" horiz-adv-x="783" d="M359 571L90 300L45 346L391 692L738 346L692 300L424 571V0H359V571Z" />
<glyph unicode="&#x2192;" glyph-name="arrowright" horiz-adv-x="766" d="M40 374H611L340 643L386 688L732 342L386 -5L340 41L611 309H40V374Z" />
<glyph unicode="&#x2193;" glyph-name="arrowdown" horiz-adv-x="783" d="M424 680V109L692 380L738 334L391 -12L45 334L90 380L359 109V680H424Z" />
<glyph unicode="&#x2196;" glyph-name="uni2196" horiz-adv-x="811" d="M726 -2L154 569L155 190H90V680H580V615L200 616L771 44L726 -2Z" />
<glyph unicode="&#x2197;" glyph-name="uni2197" horiz-adv-x="833" d="M633 616L253 615L254 680H743V190H679V569L108 -2L62 44L633 616Z" />
<glyph unicode="&#x2198;" glyph-name="uni2198" horiz-adv-x="811" d="M85 682L656 111V490H721V0H231L230 65L610 64L39 636L85 682Z" />
<glyph unicode="&#x2199;" glyph-name="uni2199" horiz-adv-x="796" d="M200 64L580 65V0H90V490H155L154 111L726 682L771 636L200 64Z" />
<glyph unicode="&#x2212;" glyph-name="minus" horiz-adv-x="693" d="M117 355H576V291H117V355Z" />
<glyph unicode="&#xfb01;" glyph-name="fi" horiz-adv-x="664" d="M566 462V0H498V403H207V0H139V403H4V462H139V559Q139 651 189 704T323 757Q347 757 365 756T407 749T440 741T484 728L471 670Q464 672 448 676T425 682T405 687T382 691T359 693T330 694Q273
694 240 659T207 559V462H566Z" />
<glyph unicode="&#xfb02;" glyph-name="fl" horiz-adv-x="635" d="M139 462V583Q139 662 184 709T303 757Q350 757 398 743L388 684Q346 694 314 694Q265 694 236 664T207 583V462H373V403H207V0H139V403H4V462H139ZM551 710V0H482V710H551Z" />
</font>
</defs>
</svg>
