<?xml version="1.0" standalone="no"?>
<!DOCTYPE svg PUBLIC "-//W3C//DTD SVG 1.1//EN" "http://www.w3.org/Graphics/SVG/1.1/DTD/svg11.dtd" >
<svg xmlns="http://www.w3.org/2000/svg">
<metadata></metadata>
<defs>
<font id="vektoricons" horiz-adv-x="1024">
<font-face units-per-em="1024" ascent="960" descent="-64" />
<missing-glyph horiz-adv-x="1024" />
<glyph unicode="&#x20;" d="" horiz-adv-x="512" />
<glyph unicode="&#xe600;" d="M512 950.857c-282.765 0-512-229.222-512-512s229.235-512 512-512 512 229.222 512 512-229.235 512-512 512zM559.283 352.7c20.621-21.082 47.514-31.642 80.678-31.642 33.267 0 59.725 11.059 79.462 33.062l-57.101 63.142h167.142v-184.806l-59.891 66.214c-4.646-5.786-7.642-9.088-7.642-9.088-29.478-36.288-73.818-57.498-125.581-57.498-59.853 0-108.954 18.803-147.251 56.371-9.011 8.794-16.922 18.15-23.808 28.045l-33.792-78.618h-96.704l-167.142 387.098h105.267l109.965-260.813 57.306 136.256 8.922 17.83 9.178 16.013 0.077 0.051c8.563 14.528 19.162 28.070 31.846 40.589 39.053 38.541 88.038 57.818 146.982 57.818 48.64 0 90.867-12.89 126.682-38.682s57.702-61.158 65.613-106.099h-100.838c-14.003 37.197-43.75 55.808-89.242 55.808-33.165 0-59.968-10.419-80.397-31.27-20.454-20.851-30.669-47.424-30.669-79.718s10.304-58.982 30.938-80.064z" />
<glyph unicode="&#xe601;" d="M239.704 180.736l-175.718 681.209-63.985 9.523v60.197h240.874v-60.197l-66.136-9.523 137.435-576.512 145.832 576.512-64.907 9.523v60.197h215.099v-60.197l-65.039-9.523-184.188-681.209h-119.267zM1016.817 312.993l34.114-57.227c-33.075-58.032-97.909-94.179-213.138-94.179-173.553 0-248.042 105.808-248.042 251.831v82.578c0 172.237 61.718 256.088 236.456 256.088 189.572 0 230.005-91.165 230.005-264.631v-55.15h-375.954v-18.885c0-109.012 54.228-176.859 170.496-176.859 84.041 0.015 125.572 25.41 166.064 76.434zM827.231 686.299c-121.403 0-146.988-69.881-146.988-193.507h289.704c0 121.593-16.94 193.507-142.716 193.507zM1523.507 180.736l-237.495 264.382v-194.604l57.417-9.626v-60.138h-221.477v60.138l69.208 9.626v620.954l-69.208 9.45v60.387h164.059v-476.072l208.647 203.015-64.922 8.499v60.46h210.739v-60.46l-70.32-8.499-196.901-182.93 222.632-234.803 73.479-9.626v-60.138h-145.861zM2027.973 212.436c-24.488-32.724-61.864-50.849-119.34-50.849-121.49 0-163.972 79.287-163.972 206.292v305.562h-59.568v63.751h59.568v122.558l91.604 15.945v-138.503h182.082v-63.751h-182.082v-306.761c0-97.148 27.663-130.97 103.307-130.97 31.949 0 58.456 11.527 79.857 34.801l8.543-58.075zM2560.234 400.691c0-166.107-73.435-239.089-243.858-239.089-170.364 0-243.8 72.967-243.8 239.089v113.108c0 165.083 73.435 238.285 243.8 238.285 170.423 0 243.858-73.201 243.858-238.285v-113.108zM2467.606 507.45c0 124.899-41.604 171.432-151.23 171.432-109.685 0-151.23-46.533-151.23-171.432v-101.537c0-125.776 41.545-171.344 151.23-171.344 109.627 0 151.23 45.568 151.23 171.344v101.537zM2623.707 180.736v60.138l69.31 9.626v416.753l-69.31 9.479v60.46h150.25l6.32-89.936c50.176 69.72 126.742 104.828 219.37 104.828 12.829 0 26.77-1.229 34.114-3.438l-11.717-88.693c-13.853 3.116-26.536 4.14-41.516 4.14-70.305 0-140.654-24.254-192.702-90.946v-322.633l74.547-9.626v-60.138h-238.665zM3470.219 291.854c-44.661-68.886-122.544-98.421-205.605-98.421-146.798 0-193.624 79.214-193.624 237.992v77.063c0 164.952 46.826 240.157 206.395 240.157 82.139 0 166.254-26.448 208.72-89.732l19.251 78.292h58.602v-571.465c0-174.446-86.060-238.885-242.893-238.885-76.624 0-158.793 13.853-215.172 69.617l25.659 64.541c50.059-42.189 113.854-54.711 174.651-54.711 117.175 0 164.001 48.464 164.001 172.383v113.167zM3470.219 603.736c-30.852 46.621-102.283 74.167-161.909 74.167-113.796 0-146.022-60.314-146.022-170.452v-76.025c0-105.882 33.28-164.981 132.286-164.981 74.547 0 141.663 32.695 175.66 97.324v239.967zM3633.942 180.736v60.138l69.398 9.626v416.753l-69.398 9.479v60.46h150.060l6.451-89.936c49.913 69.72 126.596 104.828 219.37 104.828 12.771 0 26.565-1.229 34.114-3.438l-11.717-88.693c-13.736 3.116-26.492 4.14-41.662 4.14-70.056 0-140.434-24.254-192.717-90.946v-322.633l74.576-9.626v-60.138h-238.475zM5176.247 250.514v486.693h-364.88v63.356c0 61.381 30.72 83.588 86.206 83.588 33.968 0 54.228-5.222 72.397-15.872l10.664 60.416c-20.334 12.61-51.127 22.162-111.923 22.162-98.948 0-151.084-38.020-151.084-143.857v-69.793h-78.965v-63.868h78.965v-422.81l-69.339-9.626v-60.138h242.776v60.138l-79.682 9.626v422.795h270.087v-422.81l-69.31-9.626v-60.138h233.457v60.138l-69.369 9.626zM5705.392 180.736l-237.378 264.368v-194.604l57.432-9.626v-60.138h-221.491v60.138l69.091 9.626v620.968l-69.091 9.45v60.387h164.059v-476.072l208.545 203.015-64.863 8.499v60.46h210.944v-60.46l-70.378-8.499-196.944-182.93 222.661-234.803 73.435-9.626v-60.138h-146.022zM4530.512 261.968v319.664c0 122.704-59.889 170.452-208.881 170.452-79.828 0-162.918-12.917-229.054-58.397l28.921-67.774c57.344 39.205 122.661 50.834 186.339 50.834 92.745 0 131.95-30.574 131.95-104.624v-89.059c-45.568 20.304-114 41.399-211.909 41.399-112.889 0-162.801-49.664-162.801-149.051v-47.455c0-97.558 46.797-166.341 170.233-166.341 107.622 0 180.136 47.645 211.968 108.91 0-76.039 31.773-87.303 83.251-89.776v81.218zM4439.771 319.195c-36.059-49.664-92.57-89.819-176.684-89.819-79.945 0-106.481 40.155-106.481 105.589v32.914c0 66.692 29.798 100.513 105.37 100.513 79.74 0 140.624-17.92 177.796-36.089v-113.108z" horiz-adv-x="5851" />
<glyph unicode="&#xe602;" d="M1622.733 624.867c-47.565 250.624-245.171 347.622-424.474 322.022-181.197-29.338-305.587-197.632-276.301-378.778 23.808-161.024 157.389-274.406 312.909-279.936-33.587-200.038-353.357-262.605-353.357-262.605s69.53-111.36 185.242-97.536c364.544 60.186 599.603 351.13 555.981 696.832zM741.197 624.867c-47.565 250.624-245.171 347.622-424.474 322.022-181.12-29.338-305.562-197.632-276.301-378.778 23.808-161.024 157.363-274.406 312.883-279.936-33.613-200.064-353.306-262.605-353.306-262.605s69.453-111.36 185.216-97.536c364.57 60.186 599.654 351.13 555.981 696.832z" horiz-adv-x="1628" />
<glyph unicode="&#xe603;" d="M8623.158-73.143c-481.927 0-731.244 218.058-951.242 410.678-210.944 184.536-393 343.848-773.605 343.848s-562.661-159.421-773.605-343.848c-219.998-192.62-469.208-410.678-951.027-410.678s-731.136 218.058-951.134 410.678c-210.944 184.536-393 343.848-773.605 343.848s-562.661-159.421-773.605-343.848c-219.891-192.62-469.208-410.678-950.919-410.678s-730.92 218.058-950.919 410.678c-210.944 184.428-393 343.848-773.497 343.848v269.474c481.711 0 731.028-218.166 950.919-410.678 210.836-184.428 393-343.848 773.497-343.848s562.661 159.421 773.605 343.956c219.891 192.404 469.208 410.57 951.027 410.57s731.136-218.166 951.027-410.57c210.836-184.536 393.108-343.956 773.605-343.956s562.661 159.421 773.605 343.956c219.998 192.404 469.208 410.57 951.027 410.57s731.028-218.058 951.027-410.57c210.944-184.536 393.216-343.956 773.821-343.956v-269.474z" horiz-adv-x="8623" />
<glyph unicode="&#xf002;" d="M658.286 475.428q0 105.714-75.143 180.857t-180.857 75.143-180.857-75.143-75.143-180.857 75.143-180.857 180.857-75.143 180.857 75.143 75.143 180.857zM950.857 0q0-29.714-21.714-51.429t-51.429-21.714q-30.857 0-51.429 21.714l-196 195.429q-102.286-70.857-228-70.857-81.714 0-156.286 31.714t-128.571 85.714-85.714 128.571-31.714 156.286 31.714 156.286 85.714 128.571 128.571 85.714 156.286 31.714 156.286-31.714 128.571-85.714 85.714-128.571 31.714-156.286q0-125.714-70.857-228l196-196q21.143-21.143 21.143-51.429z" horiz-adv-x="951" />
<glyph unicode="&#xf00c;" d="M954.857 627.428q0-22.857-16-38.857l-491.429-491.429q-16-16-38.857-16t-38.857 16l-284.571 284.571q-16 16-16 38.857t16 38.857l77.714 77.714q16 16 38.857 16t38.857-16l168-168.571 374.857 375.429q16 16 38.857 16t38.857-16l77.714-77.714q16-16 16-38.857z" />
<glyph unicode="&#xf00d;" d="M741.714 195.428q0-22.857-16-38.857l-77.714-77.714q-16-16-38.857-16t-38.857 16l-168 168-168-168q-16-16-38.857-16t-38.857 16l-77.714 77.714q-16 16-16 38.857t16 38.857l168 168-168 168q-16 16-16 38.857t16 38.857l77.714 77.714q16 16 38.857 16t38.857-16l168-168 168 168q16 16 38.857 16t38.857-16l77.714-77.714q16-16 16-38.857t-16-38.857l-168-168 168-168q16-16 16-38.857z" horiz-adv-x="805" />
<glyph unicode="&#xf017;" d="M512 640v-256q0-8-5.143-13.143t-13.143-5.143h-182.857q-8 0-13.143 5.143t-5.143 13.143v36.571q0 8 5.143 13.143t13.143 5.143h128v201.143q0 8 5.143 13.143t13.143 5.143h36.571q8 0 13.143-5.143t5.143-13.143zM749.714 438.857q0 84.571-41.714 156t-113.143 113.143-156 41.714-156-41.714-113.143-113.143-41.714-156 41.714-156 113.143-113.143 156-41.714 156 41.714 113.143 113.143 41.714 156zM877.714 438.857q0-119.429-58.857-220.286t-159.714-159.714-220.286-58.857-220.286 58.857-159.714 159.714-58.857 220.286 58.857 220.286 159.714 159.714 220.286 58.857 220.286-58.857 159.714-159.714 58.857-220.286z" />
<glyph unicode="&#xf02e;" d="M665.143 877.714q13.143 0 25.143-5.143 18.857-7.429 30-23.429t11.143-35.429v-736.571q0-19.429-11.143-35.429t-30-23.429q-10.857-4.571-25.143-4.571-27.429 0-47.429 18.286l-252 242.286-252-242.286q-20.571-18.857-47.429-18.857-13.143 0-25.143 5.143-18.857 7.429-30 23.429t-11.143 35.429v736.571q0 19.429 11.143 35.429t30 23.429q12 5.143 25.143 5.143h598.857z" horiz-adv-x="731" />
<glyph unicode="&#xf05a;" d="M585.143 164.571v91.429q0 8-5.143 13.143t-13.143 5.143h-54.857v292.571q0 8-5.143 13.143t-13.143 5.143h-182.857q-8 0-13.143-5.143t-5.143-13.143v-91.429q0-8 5.143-13.143t13.143-5.143h54.857v-182.857h-54.857q-8 0-13.143-5.143t-5.143-13.143v-91.429q0-8 5.143-13.143t13.143-5.143h256q8 0 13.143 5.143t5.143 13.143zM512 676.571v91.429q0 8-5.143 13.143t-13.143 5.143h-109.714q-8 0-13.143-5.143t-5.143-13.143v-91.429q0-8 5.143-13.143t13.143-5.143h109.714q8 0 13.143 5.143t5.143 13.143zM877.714 438.857q0-119.429-58.857-220.286t-159.714-159.714-220.286-58.857-220.286 58.857-159.714 159.714-58.857 220.286 58.857 220.286 159.714 159.714 220.286 58.857 220.286-58.857 159.714-159.714 58.857-220.286z" />
<glyph unicode="&#xf075;" d="M1024 438.857q0-99.429-68.571-183.714t-186.286-133.143-257.143-48.857q-40 0-82.857 4.571-113.143-100-262.857-138.286-28-8-65.143-12.571-9.714-1.143-17.429 5.143t-10 16.571v0.571q-1.714 2.286-0.286 6.857t1.143 5.714 2.571 5.429l3.429 5.143t4 4.857 4.571 5.143q4 4.571 17.714 19.714t19.714 21.714 17.714 22.571 18.571 29.143 15.429 33.714 14.857 43.429q-89.714 50.857-141.429 125.714t-51.714 160.571q0 74.286 40.571 142t109.143 116.857 163.429 78 198.857 28.857q139.429 0 257.143-48.857t186.286-133.143 68.571-183.714z" />
<glyph unicode="&#xf077;" d="M961.714 190.286l-94.857-94.286q-10.857-10.857-25.714-10.857t-25.714 10.857l-303.429 303.429-303.429-303.429q-10.857-10.857-25.714-10.857t-25.714 10.857l-94.857 94.286q-10.857 10.857-10.857 26t10.857 26l424 423.429q10.857 10.857 25.714 10.857t25.714-10.857l424-423.429q10.857-10.857 10.857-26t-10.857-26z" />
<glyph unicode="&#xf078;" d="M961.714 489.143l-424-423.429q-10.857-10.857-25.714-10.857t-25.714 10.857l-424 423.429q-10.857 10.857-10.857 26t10.857 26l94.857 94.286q10.857 10.857 25.714 10.857t25.714-10.857l303.429-303.429 303.429 303.429q10.857 10.857 25.714 10.857t25.714-10.857l94.857-94.286q10.857-10.857 10.857-26t-10.857-26z" />
<glyph unicode="&#xf095;" d="M804.571 242.286q0-15.429-5.714-40.286t-12-39.143q-12-28.571-69.714-60.571-53.714-29.143-106.286-29.143-15.429 0-30 2t-32.857 7.143-27.143 8.286-31.714 11.714-28 10.286q-56 20-100 47.429-73.143 45.143-151.143 123.143t-123.143 151.143q-27.429 44-47.429 100-1.714 5.143-10.286 28t-11.714 31.714-8.286 27.143-7.143 32.857-2 30q0 52.571 29.143 106.286 32 57.714 60.571 69.714 14.286 6.286 39.143 12t40.286 5.714q8 0 12-1.714 10.286-3.429 30.286-43.429 6.286-10.857 17.143-30.857t20-36.286 17.714-30.571q1.714-2.286 10-14.286t12.286-20.286 4-16.286q0-11.429-16.286-28.571t-35.429-31.429-35.429-30.286-16.286-26.286q0-5.143 2.857-12.857t4.857-11.714 8-13.714 6.571-10.857q43.429-78.286 99.429-134.286t134.286-99.429q1.143-0.571 10.857-6.571t13.714-8 11.714-4.857 12.857-2.857q10.286 0 26.286 16.286t30.286 35.429 31.429 35.429 28.571 16.286q8 0 16.286-4t20.286-12.286 14.286-10q14.286-8.571 30.571-17.714t36.286-20 30.857-17.143q40-20 43.429-30.286 1.714-4 1.714-12z" horiz-adv-x="805" />
<glyph unicode="&#xf0b1;" d="M365.714 804.571h292.571v73.143h-292.571v-73.143zM1024 438.857v-274.286q0-37.714-26.857-64.571t-64.571-26.857h-841.143q-37.714 0-64.571 26.857t-26.857 64.571v274.286h384v-91.429q0-14.857 10.857-25.714t25.714-10.857h182.857q14.857 0 25.714 10.857t10.857 25.714v91.429h384zM585.143 438.857v-73.143h-146.286v73.143h146.286zM1024 713.143v-219.429h-1024v219.429q0 37.714 26.857 64.571t64.571 26.857h201.143v91.429q0 22.857 16 38.857t38.857 16h329.143q22.857 0 38.857-16t16-38.857v-91.429h201.143q37.714 0 64.571-26.857t26.857-64.571z" />
<glyph unicode="&#xf0e0;" d="M1024 545.143v-453.714q0-37.714-26.857-64.571t-64.571-26.857h-841.143q-37.714 0-64.571 26.857t-26.857 64.571v453.714q25.143-28 57.714-49.714 206.857-140.571 284-197.143 32.571-24 52.857-37.429t54-27.429 62.857-14h1.143q29.143 0 62.857 14t54 27.429 52.857 37.429q97.143 70.286 284.571 197.143 32.571 22.286 57.143 49.714zM1024 713.143q0-45.143-28-86.286t-69.714-70.286q-214.857-149.143-267.429-185.714-5.714-4-24.286-17.429t-30.857-21.714-29.714-18.571-32.857-15.429-28.571-5.143h-1.143q-13.143 0-28.571 5.143t-32.857 15.429-29.714 18.571-30.857 21.714-24.286 17.429q-52 36.571-149.714 104.286t-117.143 81.429q-35.429 24-66.857 66t-31.429 78q0 44.571 23.714 74.286t67.714 29.714h841.143q37.143 0 64.286-26.857t27.143-64.571z" />
<glyph unicode="&#xf100;" d="M358.286 164.571q0-7.429-5.714-13.143l-28.571-28.571q-5.714-5.714-13.143-5.714t-13.143 5.714l-266.286 266.286q-5.714 5.714-5.714 13.143t5.714 13.143l266.286 266.286q5.714 5.714 13.143 5.714t13.143-5.714l28.571-28.571q5.714-5.714 5.714-13.143t-5.714-13.143l-224.571-224.571 224.571-224.571q5.714-5.714 5.714-13.143zM577.714 164.571q0-7.429-5.714-13.143l-28.571-28.571q-5.714-5.714-13.143-5.714t-13.143 5.714l-266.286 266.286q-5.714 5.714-5.714 13.143t5.714 13.143l266.286 266.286q5.714 5.714 13.143 5.714t13.143-5.714l28.571-28.571q5.714-5.714 5.714-13.143t-5.714-13.143l-224.571-224.571 224.571-224.571q5.714-5.714 5.714-13.143z" horiz-adv-x="585" />
<glyph unicode="&#xf101;" d="M340 402.286q0-7.429-5.714-13.143l-266.286-266.286q-5.714-5.714-13.143-5.714t-13.143 5.714l-28.571 28.571q-5.714 5.714-5.714 13.143t5.714 13.143l224.571 224.571-224.571 224.571q-5.714 5.714-5.714 13.143t5.714 13.143l28.571 28.571q5.714 5.714 13.143 5.714t13.143-5.714l266.286-266.286q5.714-5.714 5.714-13.143zM559.429 402.286q0-7.429-5.714-13.143l-266.286-266.286q-5.714-5.714-13.143-5.714t-13.143 5.714l-28.571 28.571q-5.714 5.714-5.714 13.143t5.714 13.143l224.571 224.571-224.571 224.571q-5.714 5.714-5.714 13.143t5.714 13.143l28.571 28.571q5.714 5.714 13.143 5.714t13.143-5.714l266.286-266.286q5.714-5.714 5.714-13.143z" horiz-adv-x="585" />
<glyph unicode="&#xf104;" d="M358.286 640q0-7.429-5.714-13.143l-224.571-224.571 224.571-224.571q5.714-5.714 5.714-13.143t-5.714-13.143l-28.571-28.571q-5.714-5.714-13.143-5.714t-13.143 5.714l-266.286 266.286q-5.714 5.714-5.714 13.143t5.714 13.143l266.286 266.286q5.714 5.714 13.143 5.714t13.143-5.714l28.571-28.571q5.714-5.714 5.714-13.143z" horiz-adv-x="366" />
<glyph unicode="&#xf105;" d="M340 402.286q0-7.429-5.714-13.143l-266.286-266.286q-5.714-5.714-13.143-5.714t-13.143 5.714l-28.571 28.571q-5.714 5.714-5.714 13.143t5.714 13.143l224.571 224.571-224.571 224.571q-5.714 5.714-5.714 13.143t5.714 13.143l28.571 28.571q5.714 5.714 13.143 5.714t13.143-5.714l266.286-266.286q5.714-5.714 5.714-13.143z" horiz-adv-x="366" />
<glyph unicode="&#xf106;" d="M614.286 274.286q0-7.429-5.714-13.143l-28.571-28.571q-5.714-5.714-13.143-5.714t-13.143 5.714l-224.571 224.571-224.571-224.571q-5.714-5.714-13.143-5.714t-13.143 5.714l-28.571 28.571q-5.714 5.714-5.714 13.143t5.714 13.143l266.286 266.286q5.714 5.714 13.143 5.714t13.143-5.714l266.286-266.286q5.714-5.714 5.714-13.143z" horiz-adv-x="658" />
<glyph unicode="&#xf107;" d="M614.286 530.286q0-7.429-5.714-13.143l-266.286-266.286q-5.714-5.714-13.143-5.714t-13.143 5.714l-266.286 266.286q-5.714 5.714-5.714 13.143t5.714 13.143l28.571 28.571q5.714 5.714 13.143 5.714t13.143-5.714l224.571-224.571 224.571 224.571q5.714 5.714 13.143 5.714t13.143-5.714l28.571-28.571q5.714-5.714 5.714-13.143z" horiz-adv-x="658" />
<glyph unicode="&#xf1d8;" d="M1008 944.571q18.857-13.714 15.429-36.571l-146.286-877.714q-2.857-16.571-18.286-25.714-8-4.571-17.714-4.571-6.286 0-13.714 2.857l-258.857 105.714-138.286-168.571q-10.286-13.143-28-13.143-7.429 0-12.571 2.286-10.857 4-17.429 13.429t-6.571 20.857v199.429l493.714 605.143-610.857-528.571-225.714 92.571q-21.143 8-22.857 31.429-1.143 22.857 18.286 33.714l950.857 548.571q8.571 5.143 18.286 5.143 11.429 0 20.571-6.286z" />
</font></defs></svg>